


                     eT 1.5 - an electronic structure program

  ------------------------------------------------------------------------
   Author list in alphabetical order:
  ------------------------------------------------------------------------
   J. H. Andersen, A. Balbi, S. Coriani, S. D. Folkestad, T. Giovannini, 
   L. Goletto, T. S. Haugland, A. Hutcheson, I-M. Høyvik, E. F. Kjønstad, 
   H. Koch, T. Moitra, R. H. Myhre, A. C. Paul, S. Roet, M. Scavino, 
   A. Skeidsvoll, Å. H. Tveten
  ------------------------------------------------------------------------
   J. Chem. Phys. 152, 184103 (2020); https://doi.org/10.1063/5.0004713


   This is eT 1.5.0 Furia (development)
  ------------------------------------------------------------
  Configuration date: 2021-10-06 10:20:02 UTC +02:00
  Git branch:         hf-cleanup-oao-stuff
  Git hash:           82fed81e1022a04236e45d2edec97a412b5fa7bd
  Fortran compiler:   GNU 10.3.0
  C compiler:         GNU 10.3.0
  C++ compiler:       GNU 10.3.0
  LAPACK type:        SYSTEM_NATIVE
  BLAS type:          SYSTEM_NATIVE
  64-bit integers:    OFF
  OpenMP:             ON
  PCM:                OFF
  Forced batching:    OFF
  Runtime checks:     OFF
  ------------------------------------------------------------

  Calculation started: 2021-10-06 10:29:41 UTC +02:00


  :: Input file
  ================

     Note: geometry section is excluded from this print

     system
        name: HOF He
        charge: 0
     end system

     do
        response
     end do

     method
        hf
        cc2
     end method

     cc response
        eom
        dipole length
        transition moments
     end cc response

     solver scf
        gradient threshold: 1.0d-11
     end solver scf

     solver cholesky
        threshold: 1.0d-11
     end solver cholesky

     solver cc gs
        omega threshold: 1.0d-11
     end solver cc gs

     solver cc multipliers
        threshold: 1.0d-11
        algorithm: diis
     end solver cc multipliers

     solver cc es
        residual threshold: 1.0d-11
        singlet states: 1
     end solver cc es


  Running on 2 OMP threads
  Memory available for calculation: 8.000000 GB


  :: RHF wavefunction
  ======================

     ==============================================================================
                                     Geometry (angstrom)
     ==============================================================================
        Atom           X                  Y                  Z         # in input
     ==============================================================================
        Basis: cc-pvdz
        1  H     0.866810000000     0.601440000000     5.000000000000        1
        2  F    -0.866810000000     0.601440000000     5.000000000000        2
        3  O     0.000000000000    -0.075790000000     5.000000000000        3
        4 He     0.100000000000     0.100000000000     7.500000000000        4
     ==============================================================================

     ==============================================================================
                                     Geometry (a.u.)
     ==============================================================================
        Atom           X                  Y                  Z         # in input
     ==============================================================================
        Basis: cc-pvdz
        1  H     1.638033502034     1.136556880358     9.448630622825        1
        2  F    -1.638033502034     1.136556880358     9.448630622825        2
        3  O     0.000000000000    -0.143222342981     9.448630622825        3
        4 He     0.188972612457     0.188972612457    14.172945934238        4
     ==============================================================================

  - Cholesky decomposition of AO overlap to get linearly independent AOs:

     Linear dependence threshold:             0.10E-05
     Number of atomic orbitals:               38
     Number of orthonormal atomic orbitals:   38

  - Molecular orbital details:

     Number of occupied orbitals:        10
     Number of virtual orbitals:         28
     Number of molecular orbitals:       38


  :: Hartree-Fock engine
  =========================

  Drives the calculation of the Hartree-Fock state.

  This is a RHF ground state calculation.
  The following tasks will be performed:

     1) Generate initial SAD density
     2) Calculation of reference state (SCF-DIIS algorithm)


  1) Generate initial SAD density


  2) Calculation of reference state (SCF-DIIS algorithm)

  - SCF solver settings:

     Maximum iterations:                   100
     Acceleration type:                   diis

  - Convergence thresholds

     Residual threshold:            0.1000E-10

  - Setting initial AO density to sad

     Energy of initial guess:              -178.316435989155
     Number of electrons in guess:           20.000000000000

  - Screening and integral thresholds:

     Coulomb screening threshold:    0.1000E-16
     Exchange screening threshold:   0.1000E-14
     ERI cutoff:                     0.1000E-16
     One-electron integral  cutoff:  0.1000E-21
     Cumulative Fock threshold:      0.1000E+01

  - DIIS tool settings:

     DIIS dimension:   8

     Storage (solver scf_errors): memory
     Storage (solver scf_parameters): memory

  Iteration       Energy (a.u.)      Max(grad.)    Delta E (a.u.)
  ---------------------------------------------------------------
     1          -177.452460025510     0.7565E-01     0.1775E+03
     2          -177.479057956534     0.1129E-01     0.2660E-01
     3          -177.480052448592     0.4142E-02     0.9945E-03
     4          -177.480180104061     0.1387E-02     0.1277E-03
     5          -177.480194080187     0.4312E-03     0.1398E-04
     6          -177.480195433667     0.8262E-04     0.1353E-05
     7          -177.480195516708     0.2289E-04     0.8304E-07
     8          -177.480195527015     0.4801E-05     0.1031E-07
     9          -177.480195527843     0.1045E-05     0.8288E-09
    10          -177.480195527874     0.2388E-06     0.3067E-10
    11          -177.480195527875     0.5236E-07     0.9095E-12
    12          -177.480195527875     0.9618E-08     0.1421E-12
    13          -177.480195527875     0.4310E-08     0.1137E-12
    14          -177.480195527875     0.1983E-08     0.2842E-13
    15          -177.480195527875     0.6772E-09     0.2274E-12
    16          -177.480195527875     0.1634E-09     0.1990E-12
    17          -177.480195527875     0.4727E-10     0.1990E-12
    18          -177.480195527875     0.8075E-11     0.8527E-13
  ---------------------------------------------------------------
  Convergence criterion met in 18 iterations!

  - Summary of RHF wavefunction energetics (a.u.):

     HOMO-LUMO gap:                  0.600390987894
     Nuclear repulsion energy:      48.499011140892
     Electronic energy:           -225.979206668767
     Total energy:                -177.480195527875

  - Timings for the RHF ground state calculation

     Total wall time (sec):              2.75000
     Total cpu time (sec):               5.09334


  :: CC2 wavefunction
  ======================

     Bath orbital(s):         False

   - Number of orbitals:

     Occupied orbitals:    10
     Virtual orbitals:     28
     Molecular orbitals:   38
     Atomic orbitals:      38

   - Number of ground state amplitudes:

     Single excitation amplitudes:  280
     Double excitation amplitudes:  39340


  :: Coupled cluster response engine
  =====================================

  Calculates dipole transition moments and oscillator strengths between 

  the ground state and the excited states.

  This is a CC2 response calculation.
  The following tasks will be performed:

     1) Cholesky decomposition of the electron repulsion integrals
     2) Preparation of MO basis and integrals
     3) Calculation of the ground state (diis algorithm)
     4) Calculation of the multipliers (diis algorithm)
     5) Calculation of the excited states (davidson algorithm)
     6) Calculation of excited state properties (EOM)


  1) Cholesky decomposition of the electron repulsion integrals

   - Cholesky decomposition of electronic repulsion integrals solver
  ---------------------------------------------------------------------

  Performs a Cholesky decomposition of the two-electron electronic repulsion 
  integrals in the atomic orbital basis,

  (ab|cd) = sum_J L_ab^J L_cd^J.

  Once the Cholesky basis has been determined, the vectors L^J are constructed 
  and stored to disk. These may either be used directly, or be transformed 
  to the MO basis for use in post-HF calculations. For more information, 
  see S. D. Folkestad, E. F. Kjønstad and H. Koch, JCP, 150(19), (2019)

  - Cholesky decomposition settings:

     Target threshold is:   0.10E-10
     Span factor:           0.10E-01
     Max qual:                  1000

  - Cholesky decomposition ao details:

     Total number of AOs:                    38
     Total number of shell pairs:           171
     Total number of AO pairs:              741

     Significant shell pairs:               161
     Significant AO pairs:                  697

     Construct shell pairs:                 171
     Construct AO pairs:                    741

  Iter.  #Sign. ao pairs / shell pairs   Max diagonal    #Qualified    #Cholesky    Cholesky array size
  -------------------------------------------------------------------------------------------------------
     1               671 /     150       0.53537E+01         194             49             32879
     2               524 /     128       0.52718E-01         398            155             81220
     3               484 /     114       0.52421E-03         303            243            117612
     4               362 /      92       0.51415E-05         311            362            131044
     5               232 /      54       0.50229E-07         225            475            110200
     6                 0 /       0       0.50128E-09         127            550                 0
  -------------------------------------------------------------------------------------------------------

  - Summary of Cholesky decomposition of electronic repulsion integrals:

     Final number of Cholesky vectors: 550

 - Testing the Cholesky decomposition decomposition electronic repulsion integrals:

     Maximal difference between approximate and actual diagonal:              0.9471E-11
     Minimal element of difference between approximate and actual diagonal:  -0.1128E-14

  - Settings for integral handling:

     Cholesky vectors in memory: True
     ERI matrix in memory:       False
     T1 ERI matrix in memory:    False

  - Finished decomposing the ERIs.

     Total wall time (sec):              1.28700
     Total cpu time (sec):               2.16341


  2) Preparation of MO basis and integrals


  3) Calculation of the ground state (diis algorithm)

   - DIIS coupled cluster ground state solver
  ----------------------------------------------

  A DIIS CC ground state amplitude equations solver. It uses an extrapolation 
  of previous quasi-Newton perturbation theory estimates of the next amplitudes. 
  See Helgaker et al., Molecular Electronic Structure Theory, Chapter 
  13.

  - CC ground state solver settings:

  - Convergence thresholds

     Residual threshold:            0.1000E-10
     Max number of iterations:      100

  - DIIS tool settings:

     DIIS dimension:   8

     Storage (cc_gs_diis_errors): file
     Storage (cc_gs_diis_parameters): file

  Iteration    Energy (a.u.)        |omega|       Delta E (a.u.)
  ---------------------------------------------------------------
    1          -177.877001409677     0.4674E-01     0.1779E+03
    2          -177.878674723964     0.9225E-02     0.1673E-02
    3          -177.879094696947     0.1669E-02     0.4200E-03
    4          -177.879150335163     0.5273E-03     0.5564E-04
    5          -177.879146466204     0.9144E-04     0.3869E-05
    6          -177.879146277702     0.1165E-04     0.1885E-06
    7          -177.879146253559     0.3927E-05     0.2414E-07
    8          -177.879146237884     0.1639E-05     0.1568E-07
    9          -177.879146249877     0.3173E-06     0.1199E-07
   10          -177.879146248545     0.6848E-07     0.1332E-08
   11          -177.879146248481     0.1241E-07     0.6349E-10
   12          -177.879146248449     0.2381E-08     0.3212E-10
   13          -177.879146248424     0.5290E-09     0.2515E-10
   14          -177.879146248423     0.6468E-10     0.1307E-11
   15          -177.879146248424     0.1009E-10     0.1108E-11
   16          -177.879146248424     0.2177E-11     0.2842E-13
  ---------------------------------------------------------------
  Convergence criterion met in 16 iterations!

  - Ground state summary:

     Final ground state energy (a.u.):  -177.879146248424

     Correlation energy (a.u.):           -0.398950720549

     Largest single amplitudes:
     -----------------------------------
        a       i         t(a,i)
     -----------------------------------
        1      9        0.022050116775
        3      9        0.008444448646
        4      7        0.006514017946
       14      9       -0.005581547298
        4     10        0.005276241556
        5      6        0.005084191937
       14      6       -0.004916693498
       10      7        0.004447459943
        5      4       -0.004325455304
        3      6       -0.004315437318
     ------------------------------------

  - Finished solving the CC2 ground state equations

     Total wall time (sec):              0.39800
     Total cpu time (sec):               0.58917


  4) Calculation of the multipliers (diis algorithm)

   - DIIS coupled cluster multipliers solver
  ---------------------------------------------

  A DIIS CC multiplier equations solver. It combines a quasi-Newton perturbation 
  theory estimate of the next multipliers, using least square fitting 
  to find an an optimal combination of previous estimates such that the 
  update is minimized.

  See Helgaker et al., Molecular Electronic Structure Theory, Chapter 
  13, for the more details on this algorithm.

  - DIIS CC multipliers solver settings:

     Residual threshold:        0.10E-10
     Max number of iterations:       100

  - DIIS tool settings:

     DIIS dimension:   8

     Storage (cc_multipliers_diis_errors): file
     Storage (cc_multipliers_diis_parameters): file

  Iteration    Norm residual
  ----------------------------
    1          0.4540E-01
    2          0.8767E-02
    3          0.1302E-02
    4          0.2720E-03
    5          0.6910E-04
    6          0.1040E-04
    7          0.3228E-05
    8          0.1133E-05
    9          0.2403E-06
   10          0.4132E-07
   11          0.5981E-08
   12          0.1072E-08
   13          0.2358E-09
   14          0.4749E-10
   15          0.7119E-11
  ----------------------------
  Convergence criterion met in 15 iterations!

  - DIIS CC multipliers solver summary:

     Largest single amplitudes:
     -----------------------------------
        a       i         tbar(a,i)
     -----------------------------------
        1      9        0.036962642256
        3      9        0.012935991802
        4      7        0.012258896998
       14      9       -0.011861824007
        4     10        0.010369057374
       14      6       -0.010065074999
        3      6       -0.009844666366
        5      6        0.009547250037
       22      8       -0.008767267832
        5      4       -0.008015599057
     ------------------------------------

  - Finished solving the cc2 multipliers equations

     Total wall time (sec):              0.52300
     Total cpu time (sec):               0.64478


  5) Calculation of the excited states (davidson algorithm)
     Calculating right vectors

   - Davidson coupled cluster excited state solver
  ---------------------------------------------------

  A Davidson solver that calculates the lowest eigenvalues and the right 
  or left eigenvectors of the Jacobian matrix, A. The eigenvalue problem 
  is solved in a reduced space, the dimension of which is expanded until 
  the convergence criteria are met.

  A complete description of the algorithm can be found in E. R. Davidson, 
  J. Comput. Phys. 17, 87 (1975).

  - Settings for coupled cluster excited state solver (Davidson):

     Calculation type:    valence
     Excitation vectors:  right

  - Convergence thresholds

     Residual threshold:            0.1000E-10

     Number of singlet states:               1
     Max number of iterations:             100

   - Davidson tool settings:

     Number of parameters:                39620
     Number of requested solutions:           1
     Max reduced space dimension:           100

     Storage (cc_es_davidson_trials): file
     Storage (cc_es_davidson_transforms): file

  Iteration:                  1
  Reduced space dimension:    1

   Root  Eigenvalue (Re)   Eigenvalue (Im)    |residual|   Delta E (Re)
  ------------------------------------------------------------------------
     1   0.358037389370    0.000000000000     0.5578E+00   0.3580E+00
  ------------------------------------------------------------------------

  Iteration:                  2
  Reduced space dimension:    2

   Root  Eigenvalue (Re)   Eigenvalue (Im)    |residual|   Delta E (Re)
  ------------------------------------------------------------------------
     1   0.203651733539    0.000000000000     0.6991E-01   0.1544E+00
  ------------------------------------------------------------------------

  Iteration:                  3
  Reduced space dimension:    3

   Root  Eigenvalue (Re)   Eigenvalue (Im)    |residual|   Delta E (Re)
  ------------------------------------------------------------------------
     1   0.201359624003    0.000000000000     0.3000E-01   0.2292E-02
  ------------------------------------------------------------------------

  Iteration:                  4
  Reduced space dimension:    4

   Root  Eigenvalue (Re)   Eigenvalue (Im)    |residual|   Delta E (Re)
  ------------------------------------------------------------------------
     1   0.201059542347    0.000000000000     0.9483E-02   0.3001E-03
  ------------------------------------------------------------------------

  Iteration:                  5
  Reduced space dimension:    5

   Root  Eigenvalue (Re)   Eigenvalue (Im)    |residual|   Delta E (Re)
  ------------------------------------------------------------------------
     1   0.201185017755    0.000000000000     0.2774E-02   0.1255E-03
  ------------------------------------------------------------------------

  Iteration:                  6
  Reduced space dimension:    6

   Root  Eigenvalue (Re)   Eigenvalue (Im)    |residual|   Delta E (Re)
  ------------------------------------------------------------------------
     1   0.201142126763    0.000000000000     0.1361E-02   0.4289E-04
  ------------------------------------------------------------------------

  Iteration:                  7
  Reduced space dimension:    7

   Root  Eigenvalue (Re)   Eigenvalue (Im)    |residual|   Delta E (Re)
  ------------------------------------------------------------------------
     1   0.201121116022    0.000000000000     0.6151E-03   0.2101E-04
  ------------------------------------------------------------------------

  Iteration:                  8
  Reduced space dimension:    8

   Root  Eigenvalue (Re)   Eigenvalue (Im)    |residual|   Delta E (Re)
  ------------------------------------------------------------------------
     1   0.201124425914    0.000000000000     0.1822E-03   0.3310E-05
  ------------------------------------------------------------------------

  Iteration:                  9
  Reduced space dimension:    9

   Root  Eigenvalue (Re)   Eigenvalue (Im)    |residual|   Delta E (Re)
  ------------------------------------------------------------------------
     1   0.201127022405    0.000000000000     0.7976E-04   0.2596E-05
  ------------------------------------------------------------------------

  Iteration:                 10
  Reduced space dimension:   10

   Root  Eigenvalue (Re)   Eigenvalue (Im)    |residual|   Delta E (Re)
  ------------------------------------------------------------------------
     1   0.201127061503    0.000000000000     0.5145E-04   0.3910E-07
  ------------------------------------------------------------------------

  Iteration:                 11
  Reduced space dimension:   11

   Root  Eigenvalue (Re)   Eigenvalue (Im)    |residual|   Delta E (Re)
  ------------------------------------------------------------------------
     1   0.201127538106    0.000000000000     0.2088E-04   0.4766E-06
  ------------------------------------------------------------------------

  Iteration:                 12
  Reduced space dimension:   12

   Root  Eigenvalue (Re)   Eigenvalue (Im)    |residual|   Delta E (Re)
  ------------------------------------------------------------------------
     1   0.201127491634    0.000000000000     0.1489E-04   0.4647E-07
  ------------------------------------------------------------------------

  Iteration:                 13
  Reduced space dimension:   13

   Root  Eigenvalue (Re)   Eigenvalue (Im)    |residual|   Delta E (Re)
  ------------------------------------------------------------------------
     1   0.201127313238    0.000000000000     0.6487E-05   0.1784E-06
  ------------------------------------------------------------------------

  Iteration:                 14
  Reduced space dimension:   14

   Root  Eigenvalue (Re)   Eigenvalue (Im)    |residual|   Delta E (Re)
  ------------------------------------------------------------------------
     1   0.201127276071    0.000000000000     0.1741E-05   0.3717E-07
  ------------------------------------------------------------------------

  Iteration:                 15
  Reduced space dimension:   15

   Root  Eigenvalue (Re)   Eigenvalue (Im)    |residual|   Delta E (Re)
  ------------------------------------------------------------------------
     1   0.201127278290    0.000000000000     0.4205E-06   0.2219E-08
  ------------------------------------------------------------------------

  Iteration:                 16
  Reduced space dimension:   16

   Root  Eigenvalue (Re)   Eigenvalue (Im)    |residual|   Delta E (Re)
  ------------------------------------------------------------------------
     1   0.201127278541    0.000000000000     0.1102E-06   0.2514E-09
  ------------------------------------------------------------------------

  Iteration:                 17
  Reduced space dimension:   17

   Root  Eigenvalue (Re)   Eigenvalue (Im)    |residual|   Delta E (Re)
  ------------------------------------------------------------------------
     1   0.201127276909    0.000000000000     0.3087E-07   0.1632E-08
  ------------------------------------------------------------------------

  Iteration:                 18
  Reduced space dimension:   18

   Root  Eigenvalue (Re)   Eigenvalue (Im)    |residual|   Delta E (Re)
  ------------------------------------------------------------------------
     1   0.201127277015    0.000000000000     0.9125E-08   0.1057E-09
  ------------------------------------------------------------------------

  Iteration:                 19
  Reduced space dimension:   19

   Root  Eigenvalue (Re)   Eigenvalue (Im)    |residual|   Delta E (Re)
  ------------------------------------------------------------------------
     1   0.201127277044    0.000000000000     0.2039E-08   0.2921E-10
  ------------------------------------------------------------------------

  Iteration:                 20
  Reduced space dimension:   20

   Root  Eigenvalue (Re)   Eigenvalue (Im)    |residual|   Delta E (Re)
  ------------------------------------------------------------------------
     1   0.201127277039    0.000000000000     0.3857E-09   0.5272E-11
  ------------------------------------------------------------------------

  Iteration:                 21
  Reduced space dimension:   21

   Root  Eigenvalue (Re)   Eigenvalue (Im)    |residual|   Delta E (Re)
  ------------------------------------------------------------------------
     1   0.201127277039    0.000000000000     0.9305E-10   0.8618E-13
  ------------------------------------------------------------------------

  Iteration:                 22
  Reduced space dimension:   22

   Root  Eigenvalue (Re)   Eigenvalue (Im)    |residual|   Delta E (Re)
  ------------------------------------------------------------------------
     1   0.201127277039    0.000000000000     0.2108E-10   0.3320E-12
  ------------------------------------------------------------------------

  Iteration:                 23
  Reduced space dimension:   23

   Root  Eigenvalue (Re)   Eigenvalue (Im)    |residual|   Delta E (Re)
  ------------------------------------------------------------------------
     1   0.201127277039    0.000000000000     0.5972E-11   0.3483E-13
  ------------------------------------------------------------------------
  Convergence criterion met in 23 iterations!

  - Excitation vector amplitudes:

     Electronic state nr. 1

     Energy (Hartree):                  0.201127277039
     Fraction singles (|R1|/|R|):       0.980625072497

     Largest single amplitudes:
     -----------------------------------
        a       i         R(a,i)
     -----------------------------------
        1     10       -0.969476561347
        3     10       -0.125401050294
        2     10       -0.044652852214
        1      7       -0.029684176023
        6     10        0.025268358602
       13     10        0.024905743221
       12     10        0.022819066417
       14     10       -0.012100557797
        3      7       -0.011876480696
        2      7       -0.011563548194
     ------------------------------------

     - Electronic excitation energies:

                                      Excitation energy
                          ------------------------------------------
      State                (Hartree)             (eV)
     ---------------------------------------------------------------
        1                  0.201127277039        5.472951974669
     ---------------------------------------------------------------
     eV/Hartree (CODATA 2014): 27.21138602

  - Finished solving the CC2 excited state equations (right)

     Total wall time (sec):              0.95100
     Total cpu time (sec):               1.06172


  5) Calculation of the excited states (davidson algorithm)
     Calculating left vectors

   - Davidson coupled cluster excited state solver
  ---------------------------------------------------

  A Davidson solver that calculates the lowest eigenvalues and the right 
  or left eigenvectors of the Jacobian matrix, A. The eigenvalue problem 
  is solved in a reduced space, the dimension of which is expanded until 
  the convergence criteria are met.

  A complete description of the algorithm can be found in E. R. Davidson, 
  J. Comput. Phys. 17, 87 (1975).

  - Settings for coupled cluster excited state solver (Davidson):

     Calculation type:    valence
     Excitation vectors:  left

  - Convergence thresholds

     Residual threshold:            0.1000E-10

     Number of singlet states:               1
     Max number of iterations:             100

   - Davidson tool settings:

     Number of parameters:                39620
     Number of requested solutions:           1
     Max reduced space dimension:           100

     Storage (cc_es_davidson_trials): file
     Storage (cc_es_davidson_transforms): file
     Restarting left vector 1 from file r_001.

  Iteration:                  1
  Reduced space dimension:    1

   Root  Eigenvalue (Re)   Eigenvalue (Im)    |residual|   Delta E (Re)
  ------------------------------------------------------------------------
     1   0.200203930241    0.000000000000     0.2755E-01   0.9233E-03
  ------------------------------------------------------------------------

  Iteration:                  2
  Reduced space dimension:    2

   Root  Eigenvalue (Re)   Eigenvalue (Im)    |residual|   Delta E (Re)
  ------------------------------------------------------------------------
     1   0.201357916216    0.000000000000     0.4566E-02   0.1154E-02
  ------------------------------------------------------------------------

  Iteration:                  3
  Reduced space dimension:    3

   Root  Eigenvalue (Re)   Eigenvalue (Im)    |residual|   Delta E (Re)
  ------------------------------------------------------------------------
     1   0.200893768612    0.000000000000     0.2322E-02   0.4641E-03
  ------------------------------------------------------------------------

  Iteration:                  4
  Reduced space dimension:    4

   Root  Eigenvalue (Re)   Eigenvalue (Im)    |residual|   Delta E (Re)
  ------------------------------------------------------------------------
     1   0.201147379283    0.000000000000     0.6877E-03   0.2536E-03
  ------------------------------------------------------------------------

  Iteration:                  5
  Reduced space dimension:    5

   Root  Eigenvalue (Re)   Eigenvalue (Im)    |residual|   Delta E (Re)
  ------------------------------------------------------------------------
     1   0.201123796002    0.000000000000     0.2244E-03   0.2358E-04
  ------------------------------------------------------------------------

  Iteration:                  6
  Reduced space dimension:    6

   Root  Eigenvalue (Re)   Eigenvalue (Im)    |residual|   Delta E (Re)
  ------------------------------------------------------------------------
     1   0.201127467302    0.000000000000     0.6980E-04   0.3671E-05
  ------------------------------------------------------------------------

  Iteration:                  7
  Reduced space dimension:    7

   Root  Eigenvalue (Re)   Eigenvalue (Im)    |residual|   Delta E (Re)
  ------------------------------------------------------------------------
     1   0.201127071570    0.000000000000     0.3769E-04   0.3957E-06
  ------------------------------------------------------------------------

  Iteration:                  8
  Reduced space dimension:    8

   Root  Eigenvalue (Re)   Eigenvalue (Im)    |residual|   Delta E (Re)
  ------------------------------------------------------------------------
     1   0.201127390243    0.000000000000     0.2219E-04   0.3187E-06
  ------------------------------------------------------------------------

  Iteration:                  9
  Reduced space dimension:    9

   Root  Eigenvalue (Re)   Eigenvalue (Im)    |residual|   Delta E (Re)
  ------------------------------------------------------------------------
     1   0.201127327270    0.000000000000     0.7557E-05   0.6297E-07
  ------------------------------------------------------------------------

  Iteration:                 10
  Reduced space dimension:   10

   Root  Eigenvalue (Re)   Eigenvalue (Im)    |residual|   Delta E (Re)
  ------------------------------------------------------------------------
     1   0.201127252644    0.000000000000     0.5516E-05   0.7463E-07
  ------------------------------------------------------------------------

  Iteration:                 11
  Reduced space dimension:   11

   Root  Eigenvalue (Re)   Eigenvalue (Im)    |residual|   Delta E (Re)
  ------------------------------------------------------------------------
     1   0.201127269285    0.000000000000     0.2266E-05   0.1664E-07
  ------------------------------------------------------------------------

  Iteration:                 12
  Reduced space dimension:   12

   Root  Eigenvalue (Re)   Eigenvalue (Im)    |residual|   Delta E (Re)
  ------------------------------------------------------------------------
     1   0.201127274232    0.000000000000     0.8310E-06   0.4947E-08
  ------------------------------------------------------------------------

  Iteration:                 13
  Reduced space dimension:   13

   Root  Eigenvalue (Re)   Eigenvalue (Im)    |residual|   Delta E (Re)
  ------------------------------------------------------------------------
     1   0.201127275006    0.000000000000     0.2434E-06   0.7737E-09
  ------------------------------------------------------------------------

  Iteration:                 14
  Reduced space dimension:   14

   Root  Eigenvalue (Re)   Eigenvalue (Im)    |residual|   Delta E (Re)
  ------------------------------------------------------------------------
     1   0.201127276719    0.000000000000     0.1037E-06   0.1713E-08
  ------------------------------------------------------------------------

  Iteration:                 15
  Reduced space dimension:   15

   Root  Eigenvalue (Re)   Eigenvalue (Im)    |residual|   Delta E (Re)
  ------------------------------------------------------------------------
     1   0.201127276933    0.000000000000     0.3641E-07   0.2143E-09
  ------------------------------------------------------------------------

  Iteration:                 16
  Reduced space dimension:   16

   Root  Eigenvalue (Re)   Eigenvalue (Im)    |residual|   Delta E (Re)
  ------------------------------------------------------------------------
     1   0.201127277071    0.000000000000     0.8155E-08   0.1375E-09
  ------------------------------------------------------------------------

  Iteration:                 17
  Reduced space dimension:   17

   Root  Eigenvalue (Re)   Eigenvalue (Im)    |residual|   Delta E (Re)
  ------------------------------------------------------------------------
     1   0.201127277023    0.000000000000     0.2417E-08   0.4741E-10
  ------------------------------------------------------------------------

  Iteration:                 18
  Reduced space dimension:   18

   Root  Eigenvalue (Re)   Eigenvalue (Im)    |residual|   Delta E (Re)
  ------------------------------------------------------------------------
     1   0.201127277042    0.000000000000     0.8617E-09   0.1904E-10
  ------------------------------------------------------------------------

  Iteration:                 19
  Reduced space dimension:   19

   Root  Eigenvalue (Re)   Eigenvalue (Im)    |residual|   Delta E (Re)
  ------------------------------------------------------------------------
     1   0.201127277039    0.000000000000     0.2041E-09   0.3315E-11
  ------------------------------------------------------------------------

  Iteration:                 20
  Reduced space dimension:   20

   Root  Eigenvalue (Re)   Eigenvalue (Im)    |residual|   Delta E (Re)
  ------------------------------------------------------------------------
     1   0.201127277039    0.000000000000     0.4953E-10   0.4137E-12
  ------------------------------------------------------------------------

  Iteration:                 21
  Reduced space dimension:   21

   Root  Eigenvalue (Re)   Eigenvalue (Im)    |residual|   Delta E (Re)
  ------------------------------------------------------------------------
     1   0.201127277039    0.000000000000     0.1321E-10   0.1403E-12
  ------------------------------------------------------------------------

  Iteration:                 22
  Reduced space dimension:   22

   Root  Eigenvalue (Re)   Eigenvalue (Im)    |residual|   Delta E (Re)
  ------------------------------------------------------------------------
     1   0.201127277039    0.000000000000     0.4218E-11   0.9659E-13
  ------------------------------------------------------------------------
  Convergence criterion met in 22 iterations!

  - Excitation vector amplitudes:

     Electronic state nr. 1

     Energy (Hartree):                  0.201127277039
     Fraction singles (|L1|/|L|):       0.952287818752

     Largest single amplitudes:
     -----------------------------------
        a       i         L(a,i)
     -----------------------------------
        1     10        0.942330174951
        3     10        0.116649345855
        2     10        0.042150791715
        1      7        0.028600356357
       13     10       -0.023373547167
        6     10       -0.022187183146
       12     10       -0.020730882672
        3      7        0.011418643708
        2      7        0.010972514427
        5      7       -0.010664423988
     ------------------------------------

     - Electronic excitation energies:

                                      Excitation energy
                          ------------------------------------------
      State                (Hartree)             (eV)
     ---------------------------------------------------------------
        1                  0.201127277039        5.472951974669
     ---------------------------------------------------------------
     eV/Hartree (CODATA 2014): 27.21138602

  - Finished solving the CC2 excited state equations (left)

     Total wall time (sec):              0.90500
     Total cpu time (sec):               1.05177


  6) Calculation of excited state properties (EOM)

  :: EOM properties calculation

  - Summary of EOM transition properties calculation:

     States m = 0 and n = 1:
     -------------------------
     Calculation type:                             EOM
     Excitation energy [E_h]:           0.201127277039
     Excitation energy [eV]:            5.472951974669
     Hartree-to-eV (CODATA 2014):          27.21138602

                   Transition moments [a.u.]         Transition strength [a.u.]
     --------------------------------------------------------------------------
     Comp. q     < n |q| m >       < m |q| n >        < n |q| m > < m |q| n >
     --------------------------------------------------------------------------
     X          -0.0052237733     -0.0106531991            0.0000556499
     Y          -0.0022758762     -0.0047093106            0.0000107178
     Z           0.1036563917      0.2062513433            0.0213792700
     --------------------------------------------------------------------------
     Oscillator strength:      0.002875535148

  - Timings for the CC2 response calculation

     Total wall time (sec):              4.11400
     Total cpu time (sec):               5.57100

  ------------------------------------------------------------

  Peak memory usage during the execution of eT: 28.066668 MB

  Total wall time in eT (sec):              6.92200
  Total cpu time in eT (sec):              10.72398

  Calculation ended: 2021-10-06 10:29:48 UTC +02:00

  - Implementation references:

     eT: https://doi.org/10.1063/5.0004713
     Cholesky decomposition of ERIs: https://doi.org/10.1063/1.5083802

  eT terminated successfully!
