   0.0000000000000000       -2.6267594655876580E-004   0.0000000000000000       0.77436812382174314        0.0000000000000000        2.3689445405494780E-003   0.0000000000000000     
   2.0000000000000000E-002  -2.6267594655876580E-004  -5.4267447372760225E-015  0.77436812382174314       -3.0903141862034394E-013   2.3689445405494780E-003   5.8512061289511090E-014
   4.0000000000000001E-002  -2.6268620511182839E-004   7.6537233324311013E-009  0.77436619545190788        1.8476525022097465E-007   2.3689852764050556E-003  -7.8811190033366459E-009
   5.9999999999999998E-002  -2.6253897727890330E-004   3.4235364383403943E-008  0.77432669314865155        8.9739343525346369E-007   2.8292305492954029E-003  -7.1087002033172302E-007
   8.0000000000000002E-002  -2.6152356380187980E-004   7.0410566519862866E-008  0.77410926576287642        2.5240366467810669E-006   4.9734854536183093E-003  -8.7878559042252162E-006
  0.10000000000000001       -2.5831884708821251E-004   7.2647022852981291E-008  0.77349819709700296        5.4937372659991020E-006   1.0328854152248823E-002  -4.1934978687443135E-005
  0.12000000000000000       -2.5161347423874325E-004   5.6439465606972282E-009  0.77240326564011530        9.8153005586511282E-006   2.0124018856009229E-002  -1.0984218998332830E-004
  0.14000000000000001       -2.4117860092520704E-004  -9.3988770924336557E-008  0.77103935465484330        1.4565378059674231E-005   3.4791529925698228E-002  -1.8769420185143094E-004
  0.16000000000000000       -2.2828120464835067E-004  -1.5483253523926029E-007  0.76983981254195100        1.8237519378413048E-005   5.3778040909875813E-002  -2.3695149896390058E-004
  0.17999999999999999       -2.1480568182152826E-004  -1.6547167678468931E-007  0.76914166745581736        1.9847728331861078E-005   7.5737831331821326E-002  -2.5079234946738527E-004
  0.20000000000000001       -2.0187428952905817E-004  -1.6621755014620352E-007  0.76894375631564549        1.9617900987810562E-005   9.9029482915497624E-002  -2.5046140642434166E-004
  0.22000000000000000       -1.8929195531430798E-004  -1.7318388037247624E-007  0.76894133231321260        1.8678203619944866E-005  0.12231889073778746       -2.4895797466474405E-004
  0.23999999999999999       -1.7664471763317868E-004  -1.8115934223498066E-007  0.76893209672350615        1.7712944257422154E-005  0.14505735763773941       -2.4694135347823505E-004
  0.26000000000000001       -1.6390419005873902E-004  -1.9045670589048244E-007  0.76891499782809125        1.6707846477719381E-005  0.16720130572110747       -2.4444151688972956E-004
  0.28000000000000003       -1.5104206511623586E-004  -2.0132190597448539E-007  0.76888891641852286        1.5661402338337212E-005  0.18876163592075557       -2.4148439989684928E-004
  0.29999999999999999       -1.3803222681124661E-004  -2.1390799036153415E-007  0.76885283460754783        1.4588785705812616E-005  0.20980091205942131       -2.3808546574017025E-004
  0.32000000000000001       -1.2485346352725246E-004  -2.2828213524064470E-007  0.76880600768319507        1.3523873367303404E-005  0.23042132672438242       -2.3424558432410137E-004
  0.34000000000000002       -1.1149238011509688E-004  -2.4444827123155596E-007  0.76874809936417465        1.2519794783464319E-005  0.25074415039824771       -2.2995213107961966E-004
  0.35999999999999999       -9.7946246788327418E-005  -2.6233414579519929E-007  0.76867923635176072        1.1650716027131767E-005  0.27088283841128202       -2.2518633189933619E-004
  0.38000000000000000       -8.4225979622376546E-005  -2.8166527114854682E-007  0.76859993614844346        1.1019173254130812E-005  0.29091317904286029       -2.1993451311894292E-004
  0.40000000000000002       -7.0360112207124015E-005  -3.0164236587010702E-007  0.76851085606193470        1.0772113016984307E-005  0.31084467452993181       -2.1419772098371930E-004
  0.41999999999999998       -5.6401302027331290E-005  -3.2034898575529616E-007  0.76841228788049931        1.1123226970621776E-005  0.33059777978620275       -2.0799304716195269E-004
  0.44000000000000000       -4.2437631412539645E-005  -3.3379972745849602E-007  0.76830326016508255        1.2369185810450203E-005  0.34999177511272705       -2.0134187508246467E-004
  0.46000000000000002       -2.8612387157289643E-005  -3.3440095849716515E-007  0.76817997402689553        1.4874981525883235E-005  0.36874785563506407       -1.9424439212650690E-004
  0.47999999999999998       -1.5159984753487787E-005  -3.0818219895135848E-007  0.76803303003244439        1.8991454404781982E-005  0.38651101850253156       -1.8664344847344619E-004
  0.50000000000000000       -2.4756405624382083E-006  -2.2925951811722891E-007  0.76784239341170024        2.4856471835984831E-005  0.40289162993045124       -1.7838041105017660E-004
