


                     eT 1.5 - an electronic structure program

  ------------------------------------------------------------------------
   Author list in alphabetical order:
  ------------------------------------------------------------------------
   J. H. Andersen, A. Balbi, S. Coriani, S. D. Folkestad, T. Giovannini, 
   L. Goletto, T. S. Haugland, A. Hutcheson, I-M. Høyvik, E. F. Kjønstad, 
   H. Koch, T. Moitra, R. H. Myhre, A. C. Paul, S. Roet, M. Scavino, 
   A. Skeidsvoll, Å. H. Tveten
  ------------------------------------------------------------------------
   J. Chem. Phys. 152, 184103 (2020); https://doi.org/10.1063/5.0004713


   This is eT 1.5.0 Furia (development)
  ------------------------------------------------------------
  Configuration date: 2021-10-06 10:20:02 UTC +02:00
  Git branch:         hf-cleanup-oao-stuff
  Git hash:           82fed81e1022a04236e45d2edec97a412b5fa7bd
  Fortran compiler:   GNU 10.3.0
  C compiler:         GNU 10.3.0
  C++ compiler:       GNU 10.3.0
  LAPACK type:        SYSTEM_NATIVE
  BLAS type:          SYSTEM_NATIVE
  64-bit integers:    OFF
  OpenMP:             ON
  PCM:                OFF
  Forced batching:    OFF
  Runtime checks:     OFF
  ------------------------------------------------------------

  Calculation started: 2021-10-06 10:30:24 UTC +02:00


  :: Input file
  ================

     Note: geometry section is excluded from this print

     system
        name: 2 H2O
        charge: 0
     end system

     do
        ground state
        excited state
     end do

     memory
        available: 8
     end memory

     solver cholesky
        threshold: 1.0d-12
     end solver cholesky

     solver scf
        algorithm:          scf-diis
        energy threshold:   1.0d-12
        gradient threshold: 1.0d-12
     end solver scf

     method
        hf
        mlcc2
     end method

     solver cc gs
        omega threshold:  1.0d-10
        energy threshold: 1.0d-10
     end solver cc gs

     solver cc es
        algorithm:          davidson
        singlet states:     4
        residual threshold: 1.0d-10
        energy threshold:   1.0d-10
        right eigenvectors
     end solver cc es

     active atoms
        selection type: list
        cc2: {3}
        ccs: {1,2}
     end active atoms

     frozen orbitals
        core
        hf
     end frozen orbitals

     mlcc
        cc2 orbitals: cholesky-pao
        cholesky threshold: 1.0d-1
     end mlcc


  Running on 2 OMP threads
  Memory available for calculation: 8.000000 GB


  :: RHF wavefunction
  ======================

     ==============================================================================
                                     Geometry (angstrom)
     ==============================================================================
        Atom           X                  Y                  Z         # in input
     ==============================================================================
        Basis: cc-pvdz
        1  O     0.000000000000    -0.075790000000     5.000000000000        3
        2  H     0.866810000000     0.601440000000     5.000000000000        1
        3  H    -0.866810000000     0.601440000000     5.000000000000        2
        4  H     0.866810000000     0.601440000000     0.000000000000        4
        5  H    -0.866810000000     0.601440000000     0.000000000000        5
        6  O     0.000000000000    -0.075790000000     0.000000000000        6
     ==============================================================================

     ==============================================================================
                                     Geometry (a.u.)
     ==============================================================================
        Atom           X                  Y                  Z         # in input
     ==============================================================================
        Basis: cc-pvdz
        1  O     0.000000000000    -0.143222342981     9.448630622825        3
        2  H     1.638033502034     1.136556880358     9.448630622825        1
        3  H    -1.638033502034     1.136556880358     9.448630622825        2
        4  H     1.638033502034     1.136556880358     0.000000000000        4
        5  H    -1.638033502034     1.136556880358     0.000000000000        5
        6  O     0.000000000000    -0.143222342981     0.000000000000        6
     ==============================================================================

  - Cholesky decomposition of AO overlap to get linearly independent AOs:

     Linear dependence threshold:             0.10E-05
     Number of atomic orbitals:               48
     Number of orthonormal atomic orbitals:   48

  - Molecular orbital details:

     Number of occupied orbitals:        10
     Number of virtual orbitals:         38
     Number of molecular orbitals:       48


  :: Hartree-Fock engine
  =========================

  Drives the calculation of the Hartree-Fock state.

  This is a RHF ground state calculation.
  The following tasks will be performed:

     1) Generate initial SAD density
     2) Calculation of reference state (SCF-DIIS algorithm)


  1) Generate initial SAD density


  2) Calculation of reference state (SCF-DIIS algorithm)

  - SCF solver settings:

     Maximum iterations:                   100
     Acceleration type:                   diis

  - Convergence thresholds

     Residual threshold:            0.1000E-11
     Energy threshold:              0.1000E-11

  - Setting initial AO density to sad

     Energy of initial guess:              -151.269433300120
     Number of electrons in guess:           20.000000000000

  - Screening and integral thresholds:

     Coulomb screening threshold:    0.1000E-17
     Exchange screening threshold:   0.1000E-15
     ERI cutoff:                     0.1000E-17
     One-electron integral  cutoff:  0.1000E-22
     Cumulative Fock threshold:      0.1000E+01

  - DIIS tool settings:

     DIIS dimension:   8

     Storage (solver scf_errors): memory
     Storage (solver scf_parameters): memory

  Iteration       Energy (a.u.)      Max(grad.)    Delta E (a.u.)
  ---------------------------------------------------------------
     1          -151.883307031991     0.9816E-01     0.1519E+03
     2          -151.947962971556     0.7113E-01     0.6466E-01
     3          -151.977838408445     0.6756E-02     0.2988E-01
     4          -151.978496871218     0.2781E-02     0.6585E-03
     5          -151.978569761396     0.3931E-03     0.7289E-04
     6          -151.978571843492     0.5197E-04     0.2082E-05
     7          -151.978571887791     0.7165E-05     0.4430E-07
     8          -151.978571889418     0.2415E-05     0.1627E-08
     9          -151.978571889637     0.3177E-06     0.2194E-09
    10          -151.978571889638     0.2654E-07     0.6537E-12
    11          -151.978571889638     0.6589E-08     0.1705E-12
    12          -151.978571889638     0.3132E-08     0.8527E-13
    13          -151.978571889638     0.1105E-08     0.1421E-12
    14          -151.978571889638     0.1410E-09     0.2842E-13
    15          -151.978571889638     0.1812E-10     0.0000E+00
    16          -151.978571889638     0.2688E-11     0.8527E-13
    17          -151.978571889638     0.1033E-11     0.8527E-13
    18          -151.978571889638     0.1554E-12     0.1421E-12
  ---------------------------------------------------------------
  Convergence criterion met in 18 iterations!

  - Summary of RHF wavefunction energetics (a.u.):

     HOMO-LUMO gap:                  0.639114959351
     Nuclear repulsion energy:      26.497499062052
     Electronic energy:           -178.476070951690
     Total energy:                -151.978571889638

  - Timings for the RHF ground state calculation

     Total wall time (sec):              2.26800
     Total cpu time (sec):               4.28410

  - Preparation for frozen core approximation

     There are 2 frozen core orbitals.

     The smallest diagonal after decomposition is:  -0.5551E-16

  - Preparation for frozen Hartree-Fock orbitals

     There are 4 frozen occupied orbitals.
     There are 18 frozen virtual orbitals.


  :: MLCC2 wavefunction
  ========================

     Bath orbital(s):         False

   - Number of orbitals:

     Occupied orbitals:    4
     Virtual orbitals:     20
     Molecular orbitals:   24
     Atomic orbitals:      48


  :: Excited state coupled cluster engine
  ==========================================

  Calculates the coupled cluster excitation vectors and excitation energies

  This is a MLCC2 excited state calculation.
  The following tasks will be performed:

     1) Cholesky decomposition of the electron repulsion integrals
     2) Preparation of MO basis and integrals
     3) Calculation of the ground state (diis algorithm)
     4) Calculation of the excited state (davidson algorithm)


  1) Cholesky decomposition of the electron repulsion integrals

   - Cholesky decomposition of electronic repulsion integrals solver
  ---------------------------------------------------------------------

  Performs a Cholesky decomposition of the two-electron electronic repulsion 
  integrals in the atomic orbital basis,

  (ab|cd) = sum_J L_ab^J L_cd^J.

  Once the Cholesky basis has been determined, the vectors L^J are constructed 
  and stored to disk. These may either be used directly, or be transformed 
  to the MO basis for use in post-HF calculations. For more information, 
  see S. D. Folkestad, E. F. Kjønstad and H. Koch, JCP, 150(19), (2019)

  - Cholesky decomposition settings:

     Target threshold is:   0.10E-11
     Span factor:           0.10E-01
     Max qual:                  1000

  - Cholesky decomposition ao details:

     Total number of AOs:                    48
     Total number of shell pairs:           300
     Total number of AO pairs:             1176

     Significant shell pairs:               204
     Significant AO pairs:                  708

     Construct shell pairs:                 244
     Construct AO pairs:                    868

  Iter.  #Sign. ao pairs / shell pairs   Max diagonal    #Qualified    #Cholesky    Cholesky array size
  -------------------------------------------------------------------------------------------------------
     1               673 /     185       0.47383E+01         264             64             43072
     2               503 /     155       0.47187E-01         454            194             97582
     3               379 /     131       0.46953E-03         324            318            120522
     4               269 /      93       0.44865E-05         250            449            120781
     5                95 /      43       0.42208E-07         137            559             53105
     6                20 /       4       0.18280E-09          49            595             11900
     7                 0 /       0       0.11042E-11           4            597                 0
  -------------------------------------------------------------------------------------------------------

  - Summary of Cholesky decomposition of electronic repulsion integrals:

     Final number of Cholesky vectors: 597

 - Testing the Cholesky decomposition decomposition electronic repulsion integrals:

     Maximal difference between approximate and actual diagonal:              0.9682E-12
     Minimal element of difference between approximate and actual diagonal:  -0.1899E-14

  - Settings for integral handling:

     Cholesky vectors in memory: True
     ERI matrix in memory:       False
     T1 ERI matrix in memory:    False

  - Finished decomposing the ERIs.

     Total wall time (sec):              1.32900
     Total cpu time (sec):               2.24357


  2) Preparation of MO basis and integrals

     The smallest diagonal after decomposition is:  -0.2776E-16

  - MLCC2 orbital partitioning:

     Orbital type: cholesky-pao

     Number occupied cc2 orbitals:    4
     Number virtual cc2 orbitals:    13

     Number occupied ccs orbitals:    0
     Number virtual ccs orbitals:     7


  3) Calculation of the ground state (diis algorithm)

   - DIIS coupled cluster ground state solver
  ----------------------------------------------

  A DIIS CC ground state amplitude equations solver. It uses an extrapolation 
  of previous quasi-Newton perturbation theory estimates of the next amplitudes. 
  See Helgaker et al., Molecular Electronic Structure Theory, Chapter 
  13.

  - CC ground state solver settings:

  - Convergence thresholds

     Residual threshold:            0.1000E-09
     Energy threshold:              0.1000E-09
     Max number of iterations:      100

  - DIIS tool settings:

     DIIS dimension:   8

     Storage (cc_gs_diis_errors): file
     Storage (cc_gs_diis_parameters): file

  Iteration    Energy (a.u.)        |omega|       Delta E (a.u.)
  ---------------------------------------------------------------
    1          -152.176957416757     0.3600E-01     0.1522E+03
    2          -152.178097324586     0.9018E-02     0.1140E-02
    3          -152.178281311193     0.2676E-02     0.1840E-03
    4          -152.178361454769     0.1154E-02     0.8014E-04
    5          -152.178369688707     0.3807E-03     0.8234E-05
    6          -152.178372257202     0.1003E-03     0.2568E-05
    7          -152.178372139795     0.3703E-04     0.1174E-06
    8          -152.178372181067     0.9240E-05     0.4127E-07
    9          -152.178372215774     0.2277E-05     0.3471E-07
   10          -152.178372221492     0.8686E-06     0.5718E-08
   11          -152.178372221933     0.1971E-06     0.4404E-09
   12          -152.178372223384     0.6322E-07     0.1452E-08
   13          -152.178372223585     0.3161E-07     0.2006E-09
   14          -152.178372223767     0.1436E-07     0.1822E-09
   15          -152.178372223659     0.4558E-08     0.1086E-09
   16          -152.178372223646     0.1680E-08     0.1265E-10
   17          -152.178372223648     0.5153E-09     0.1791E-11
   18          -152.178372223651     0.1744E-09     0.3354E-11
   19          -152.178372223653     0.6078E-10     0.1904E-11
  ---------------------------------------------------------------
  Convergence criterion met in 19 iterations!

  - Ground state summary:

     Final ground state energy (a.u.):  -152.178372223653

     Correlation energy (a.u.):           -0.199800334015

     Largest single amplitudes:
     -----------------------------------
        a       i         t(a,i)
     -----------------------------------
        1      3       -0.012319526244
        6      2        0.012312613353
        8      3       -0.006276114087
        2      2        0.006268350665
        5      3        0.005858751781
        4      4        0.005760058272
        5      1        0.005445776883
       12      2       -0.004024973411
        8      1       -0.003201601707
       20      2        0.002941791914
     ------------------------------------

  - Finished solving the MLCC2 ground state equations

     Total wall time (sec):              0.23300
     Total cpu time (sec):               0.24451


  4) Calculation of the excited state (davidson algorithm)
     Calculating right vectors

   - Davidson coupled cluster excited state solver
  ---------------------------------------------------

  A Davidson solver that calculates the lowest eigenvalues and the right 
  or left eigenvectors of the Jacobian matrix, A. The eigenvalue problem 
  is solved in a reduced space, the dimension of which is expanded until 
  the convergence criteria are met.

  A complete description of the algorithm can be found in E. R. Davidson, 
  J. Comput. Phys. 17, 87 (1975).

  - Settings for coupled cluster excited state solver (Davidson):

     Calculation type:    valence
     Excitation vectors:  right

  - Convergence thresholds

     Residual threshold:            0.1000E-09
     Energy threshold:              0.1000E-09

     Number of singlet states:               4
     Max number of iterations:             100

   - Davidson tool settings:

     Number of parameters:                 1458
     Number of requested solutions:           4
     Max reduced space dimension:           100

     Storage (cc_es_davidson_trials): file
     Storage (cc_es_davidson_transforms): file

  Iteration:                  1
  Reduced space dimension:    4

   Root  Eigenvalue (Re)   Eigenvalue (Im)    |residual|   Delta E (Re)
  ------------------------------------------------------------------------
     1   0.445391412133    0.000000000000     0.5824E+00   0.4454E+00
     2   0.577540979822    0.000000000000     0.5711E+00   0.5775E+00
     3   0.703111653458    0.000000000000     0.5465E-01   0.7031E+00
     4   0.764429445626    0.000000000000     0.5497E-01   0.7644E+00
  ------------------------------------------------------------------------

  Iteration:                  2
  Reduced space dimension:    8

   Root  Eigenvalue (Re)   Eigenvalue (Im)    |residual|   Delta E (Re)
  ------------------------------------------------------------------------
     1   0.278678500409    0.000000000000     0.1521E+00   0.1667E+00
     2   0.388954977002    0.000000000000     0.1790E+00   0.1886E+00
     3   0.701102468597    0.000000000000     0.2030E-01   0.2009E-02
     4   0.762438921550    0.000000000000     0.1925E-01   0.1991E-02
  ------------------------------------------------------------------------

  Iteration:                  3
  Reduced space dimension:   12

   Root  Eigenvalue (Re)   Eigenvalue (Im)    |residual|   Delta E (Re)
  ------------------------------------------------------------------------
     1   0.263581687620    0.000000000000     0.7596E-01   0.1510E-01
     2   0.369016455136    0.000000000000     0.8764E-01   0.1994E-01
     3   0.700836273894    0.000000000000     0.9603E-02   0.2662E-03
     4   0.762218117071    0.000000000000     0.8130E-02   0.2208E-03
  ------------------------------------------------------------------------

  Iteration:                  4
  Reduced space dimension:   16

   Root  Eigenvalue (Re)   Eigenvalue (Im)    |residual|   Delta E (Re)
  ------------------------------------------------------------------------
     1   0.262260129282    0.000000000000     0.1718E-01   0.1322E-02
     2   0.368039080816    0.000000000000     0.2184E-01   0.9774E-03
     3   0.700716159195    0.000000000000     0.9590E-02   0.1201E-03
     4   0.762097861553    0.000000000000     0.1122E-01   0.1203E-03
  ------------------------------------------------------------------------

  Iteration:                  5
  Reduced space dimension:   20

   Root  Eigenvalue (Re)   Eigenvalue (Im)    |residual|   Delta E (Re)
  ------------------------------------------------------------------------
     1   0.262087621839    0.000000000000     0.4844E-02   0.1725E-03
     2   0.367520714137    0.000000000000     0.1001E-01   0.5184E-03
     3   0.697211087597    0.000000000000     0.3360E+00   0.3505E-02
     4   0.701233398897    0.000000000000     0.1413E+00   0.6086E-01
  ------------------------------------------------------------------------

  Iteration:                  6
  Reduced space dimension:   24

   Root  Eigenvalue (Re)   Eigenvalue (Im)    |residual|   Delta E (Re)
  ------------------------------------------------------------------------
     1   0.262024335709    0.000000000000     0.9128E-03   0.6329E-04
     2   0.367303385675    0.000000000000     0.1611E-02   0.2173E-03
     3   0.629472269560    0.000000000000     0.8448E-01   0.6774E-01
     4   0.700659888821    0.000000000000     0.2438E-02   0.5735E-03
  ------------------------------------------------------------------------

  Iteration:                  7
  Reduced space dimension:   28

   Root  Eigenvalue (Re)   Eigenvalue (Im)    |residual|   Delta E (Re)
  ------------------------------------------------------------------------
     1   0.262025548625    0.000000000000     0.2007E-03   0.1213E-05
     2   0.367350396241    0.000000000000     0.4608E-03   0.4701E-04
     3   0.623084241781    0.000000000000     0.3497E-01   0.6388E-02
     4   0.700655036295    0.000000000000     0.9509E-03   0.4853E-05
  ------------------------------------------------------------------------

  Iteration:                  8
  Reduced space dimension:   32

   Root  Eigenvalue (Re)   Eigenvalue (Im)    |residual|   Delta E (Re)
  ------------------------------------------------------------------------
     1   0.262026218824    0.000000000000     0.4974E-04   0.6702E-06
     2   0.367346763521    0.000000000000     0.9375E-04   0.3633E-05
     3   0.622724614017    0.000000000000     0.1106E-01   0.3596E-03
     4   0.700654529580    0.000000000000     0.3407E-03   0.5067E-06
  ------------------------------------------------------------------------

  Iteration:                  9
  Reduced space dimension:   36

   Root  Eigenvalue (Re)   Eigenvalue (Im)    |residual|   Delta E (Re)
  ------------------------------------------------------------------------
     1   0.262025981422    0.000000000000     0.7524E-05   0.2374E-06
     2   0.367346002085    0.000000000000     0.1812E-04   0.7614E-06
     3   0.622641867908    0.000000000000     0.2540E-02   0.8275E-04
     4   0.700654424291    0.000000000000     0.7613E-04   0.1053E-06
  ------------------------------------------------------------------------

  Iteration:                 10
  Reduced space dimension:   40

   Root  Eigenvalue (Re)   Eigenvalue (Im)    |residual|   Delta E (Re)
  ------------------------------------------------------------------------
     1   0.262026002754    0.000000000000     0.1573E-05   0.2133E-07
     2   0.367346172597    0.000000000000     0.2862E-05   0.1705E-06
     3   0.622628256929    0.000000000000     0.5440E-03   0.1361E-04
     4   0.700654427237    0.000000000000     0.1694E-04   0.2946E-08
  ------------------------------------------------------------------------

  Iteration:                 11
  Reduced space dimension:   44

   Root  Eigenvalue (Re)   Eigenvalue (Im)    |residual|   Delta E (Re)
  ------------------------------------------------------------------------
     1   0.262025999173    0.000000000000     0.2207E-06   0.3581E-08
     2   0.367346164019    0.000000000000     0.5121E-06   0.8579E-08
     3   0.622630014234    0.000000000000     0.1001E-03   0.1757E-05
     4   0.700654423486    0.000000000000     0.3053E-05   0.3750E-08
  ------------------------------------------------------------------------

  Iteration:                 12
  Reduced space dimension:   48

   Root  Eigenvalue (Re)   Eigenvalue (Im)    |residual|   Delta E (Re)
  ------------------------------------------------------------------------
     1   0.262025998435    0.000000000000     0.4329E-07   0.7378E-09
     2   0.367346161652    0.000000000000     0.7724E-07   0.2366E-08
     3   0.622630259984    0.000000000000     0.1976E-04   0.2457E-06
     4   0.700654423135    0.000000000000     0.6980E-06   0.3511E-09
  ------------------------------------------------------------------------

  Iteration:                 13
  Reduced space dimension:   52

   Root  Eigenvalue (Re)   Eigenvalue (Im)    |residual|   Delta E (Re)
  ------------------------------------------------------------------------
     1   0.262025998417    0.000000000000     0.3910E-08   0.1825E-10
     2   0.367346162245    0.000000000000     0.8224E-08   0.5923E-09
     3   0.622630250624    0.000000000000     0.2552E-05   0.9360E-08
     4   0.700654423205    0.000000000000     0.9779E-07   0.6977E-10
  ------------------------------------------------------------------------

  Iteration:                 14
  Reduced space dimension:   56

   Root  Eigenvalue (Re)   Eigenvalue (Im)    |residual|   Delta E (Re)
  ------------------------------------------------------------------------
     1   0.262025998433    0.000000000000     0.4543E-09   0.1602E-10
     2   0.367346162247    0.000000000000     0.8225E-09   0.2432E-11
     3   0.396935947249    0.000000000000     0.2654E+00   0.2257E+00
     4   0.622630238827    0.000000000000     0.3609E-06   0.7802E-01
  ------------------------------------------------------------------------

  Iteration:                 15
  Reduced space dimension:   60

   Root  Eigenvalue (Re)   Eigenvalue (Im)    |residual|   Delta E (Re)
  ------------------------------------------------------------------------
     1   0.262025998435    0.000000000000     0.3778E-10   0.2198E-11
     2   0.364081865722    0.000000000000     0.8434E-01   0.3264E-02
     3   0.367346162238    0.000000000000     0.1189E-09   0.2959E-01
     4   0.622630242806    0.000000000000     0.2493E-06   0.3979E-08
  ------------------------------------------------------------------------

  Iteration:                 16
  Reduced space dimension:   63

   Root  Eigenvalue (Re)   Eigenvalue (Im)    |residual|   Delta E (Re)
  ------------------------------------------------------------------------
     1   0.262025998435    0.000000000000     0.3738E-10   0.4163E-14
     2   0.362191083569    0.000000000000     0.1908E-01   0.1891E-02
     3   0.367346162238    0.000000000000     0.2057E-10   0.4163E-12
     4   0.480781047224    0.000000000000     0.1960E+00   0.1418E+00
  ------------------------------------------------------------------------

  Iteration:                 17
  Reduced space dimension:   65

   Root  Eigenvalue (Re)   Eigenvalue (Im)    |residual|   Delta E (Re)
  ------------------------------------------------------------------------
     1   0.262025998435    0.000000000000     0.3738E-10   0.1138E-13
     2   0.362071235407    0.000000000000     0.5904E-02   0.1198E-03
     3   0.367346162238    0.000000000000     0.1534E-10   0.8343E-13
     4   0.459976032329    0.000000000000     0.6596E-01   0.2081E-01
  ------------------------------------------------------------------------

  Iteration:                 18
  Reduced space dimension:   67

   Root  Eigenvalue (Re)   Eigenvalue (Im)    |residual|   Delta E (Re)
  ------------------------------------------------------------------------
     1   0.262025998435    0.000000000000     0.3736E-10   0.6550E-14
     2   0.362023141182    0.000000000000     0.1213E-02   0.4809E-04
     3   0.367346162238    0.000000000000     0.1373E-10   0.1932E-13
     4   0.458312672814    0.000000000000     0.2751E-01   0.1663E-02
  ------------------------------------------------------------------------

  Iteration:                 19
  Reduced space dimension:   69

   Root  Eigenvalue (Re)   Eigenvalue (Im)    |residual|   Delta E (Re)
  ------------------------------------------------------------------------
     1   0.262025998435    0.000000000000     0.3633E-10   0.9714E-14
     2   0.362031128537    0.000000000000     0.3249E-03   0.7987E-05
     3   0.367346162238    0.000000000000     0.1334E-10   0.6883E-14
     4   0.458131278089    0.000000000000     0.1321E-01   0.1814E-03
  ------------------------------------------------------------------------

  Iteration:                 20
  Reduced space dimension:   71

   Root  Eigenvalue (Re)   Eigenvalue (Im)    |residual|   Delta E (Re)
  ------------------------------------------------------------------------
     1   0.262025998435    0.000000000000     0.3532E-10   0.2265E-13
     2   0.362032428244    0.000000000000     0.1378E-03   0.1300E-05
     3   0.367346162238    0.000000000000     0.1318E-10   0.1044E-13
     4   0.457589284874    0.000000000000     0.1657E-01   0.5420E-03
  ------------------------------------------------------------------------

  Iteration:                 21
  Reduced space dimension:   73

   Root  Eigenvalue (Re)   Eigenvalue (Im)    |residual|   Delta E (Re)
  ------------------------------------------------------------------------
     1   0.262025998435    0.000000000000     0.3492E-10   0.5773E-14
     2   0.362031827980    0.000000000000     0.7866E-04   0.6003E-06
     3   0.367346162238    0.000000000000     0.1335E-10   0.7883E-14
     4   0.457113590084    0.000000000000     0.2053E-01   0.4757E-03
  ------------------------------------------------------------------------

  Iteration:                 22
  Reduced space dimension:   75

   Root  Eigenvalue (Re)   Eigenvalue (Im)    |residual|   Delta E (Re)
  ------------------------------------------------------------------------
     1   0.262025998435    0.000000000000     0.3429E-10   0.1188E-13
     2   0.362031502063    0.000000000000     0.1353E-04   0.3259E-06
     3   0.367346162238    0.000000000000     0.1270E-10   0.1910E-13
     4   0.457043330140    0.000000000000     0.3446E-02   0.7026E-04
  ------------------------------------------------------------------------

  Iteration:                 23
  Reduced space dimension:   77

   Root  Eigenvalue (Re)   Eigenvalue (Im)    |residual|   Delta E (Re)
  ------------------------------------------------------------------------
     1   0.262025998435    0.000000000000     0.3351E-10   0.3386E-14
     2   0.362031512278    0.000000000000     0.3508E-05   0.1022E-07
     3   0.367346162238    0.000000000000     0.1260E-10   0.7883E-14
     4   0.457031104113    0.000000000000     0.6832E-03   0.1223E-04
  ------------------------------------------------------------------------

  Iteration:                 24
  Reduced space dimension:   79

   Root  Eigenvalue (Re)   Eigenvalue (Im)    |residual|   Delta E (Re)
  ------------------------------------------------------------------------
     1   0.262025998435    0.000000000000     0.3272E-10   0.2665E-13
     2   0.362031515239    0.000000000000     0.6195E-06   0.2962E-08
     3   0.367346162238    0.000000000000     0.1194E-10   0.1077E-13
     4   0.457029056911    0.000000000000     0.1316E-03   0.2047E-05
  ------------------------------------------------------------------------

  Iteration:                 25
  Reduced space dimension:   81

   Root  Eigenvalue (Re)   Eigenvalue (Im)    |residual|   Delta E (Re)
  ------------------------------------------------------------------------
     1   0.262025998435    0.000000000000     0.3200E-10   0.8882E-14
     2   0.362031513099    0.000000000000     0.1473E-06   0.2141E-08
     3   0.367346162238    0.000000000000     0.1180E-10   0.6661E-14
     4   0.457029659523    0.000000000000     0.3858E-04   0.6026E-06
  ------------------------------------------------------------------------

  Iteration:                 26
  Reduced space dimension:   83

   Root  Eigenvalue (Re)   Eigenvalue (Im)    |residual|   Delta E (Re)
  ------------------------------------------------------------------------
     1   0.262025998435    0.000000000000     0.3153E-10   0.5329E-14
     2   0.362031513463    0.000000000000     0.4056E-07   0.3640E-09
     3   0.367346162238    0.000000000000     0.1118E-10   0.6661E-15
     4   0.457029493215    0.000000000000     0.1083E-04   0.1663E-06
  ------------------------------------------------------------------------

  Iteration:                 27
  Reduced space dimension:   85

   Root  Eigenvalue (Re)   Eigenvalue (Im)    |residual|   Delta E (Re)
  ------------------------------------------------------------------------
     1   0.262025998435    0.000000000000     0.3128E-10   0.1066E-13
     2   0.362031513496    0.000000000000     0.8345E-08   0.3338E-10
     3   0.367346162238    0.000000000000     0.1090E-10   0.5163E-14
     4   0.457029493585    0.000000000000     0.2232E-05   0.3695E-09
  ------------------------------------------------------------------------

  Iteration:                 28
  Reduced space dimension:   87

   Root  Eigenvalue (Re)   Eigenvalue (Im)    |residual|   Delta E (Re)
  ------------------------------------------------------------------------
     1   0.262025998435    0.000000000000     0.3102E-10   0.1776E-14
     2   0.362031513477    0.000000000000     0.1798E-08   0.1925E-10
     3   0.367346162238    0.000000000000     0.1026E-10   0.1665E-15
     4   0.457029488810    0.000000000000     0.4814E-06   0.4774E-08
  ------------------------------------------------------------------------

  Iteration:                 29
  Reduced space dimension:   89

   Root  Eigenvalue (Re)   Eigenvalue (Im)    |residual|   Delta E (Re)
  ------------------------------------------------------------------------
     1   0.262025998435    0.000000000000     0.2910E-10   0.5862E-13
     2   0.362031513480    0.000000000000     0.1701E-09   0.3219E-11
     3   0.367346162238    0.000000000000     0.9942E-11   0.4774E-14
     4   0.457029487996    0.000000000000     0.5209E-07   0.8148E-09
  ------------------------------------------------------------------------

  Iteration:                 30
  Reduced space dimension:   91

   Root  Eigenvalue (Re)   Eigenvalue (Im)    |residual|   Delta E (Re)
  ------------------------------------------------------------------------
     1   0.262025998435    0.000000000000     0.2898E-10   0.4441E-14
     2   0.362031513480    0.000000000000     0.2919E-10   0.2088E-12
     3   0.367346162238    0.000000000000     0.8721E-11   0.3608E-13
     4   0.457029488262    0.000000000000     0.8952E-08   0.2664E-09
  ------------------------------------------------------------------------

  Iteration:                 31
  Reduced space dimension:   92

   Root  Eigenvalue (Re)   Eigenvalue (Im)    |residual|   Delta E (Re)
  ------------------------------------------------------------------------
     1   0.262025998435    0.000000000000     0.2868E-10   0.2692E-13
     2   0.362031513480    0.000000000000     0.8036E-11   0.3997E-14
     3   0.367346162238    0.000000000000     0.8501E-11   0.5329E-14
     4   0.457029488212    0.000000000000     0.1451E-08   0.4960E-10
  ------------------------------------------------------------------------

  Iteration:                 32
  Reduced space dimension:   93

   Root  Eigenvalue (Re)   Eigenvalue (Im)    |residual|   Delta E (Re)
  ------------------------------------------------------------------------
     1   0.262025998435    0.000000000000     0.2848E-10   0.9159E-14
     2   0.362031513480    0.000000000000     0.7527E-11   0.4718E-14
     3   0.367346162238    0.000000000000     0.8517E-11   0.4052E-14
     4   0.457029488215    0.000000000000     0.2547E-09   0.2170E-11
  ------------------------------------------------------------------------

  Iteration:                 33
  Reduced space dimension:   94

   Root  Eigenvalue (Re)   Eigenvalue (Im)    |residual|   Delta E (Re)
  ------------------------------------------------------------------------
     1   0.262025998435    0.000000000000     0.2850E-10   0.6106E-15
     2   0.362031513480    0.000000000000     0.5764E-11   0.2665E-14
     3   0.367346162238    0.000000000000     0.8025E-11   0.1110E-15
     4   0.457029488216    0.000000000000     0.3720E-10   0.1032E-11
  ------------------------------------------------------------------------
  Convergence criterion met in 33 iterations!

  - Excitation vector amplitudes:

     Electronic state nr. 1

     Energy (Hartree):                  0.262025998435
     Fraction singles (|R1|/|R|):       0.985812667620

     MLCC diagnostics:

     |R1^internal|/|R| =       0.954660977770
     |R1^internal|/|R1| =      0.968399990309

     Largest single amplitudes:
     -----------------------------------
        a       i         R(a,i)
     -----------------------------------
        1      4        0.951305265314
       16      4       -0.245116099476
       10      4       -0.050165886708
        3      4       -0.038974716759
        5      4       -0.034190032119
       13      4        0.026347809176
        8      4       -0.017091205546
       19      4       -0.016379065416
        9      2       -0.009623055020
       14      4       -0.009040958558
     ------------------------------------

     Electronic state nr. 2

     Energy (Hartree):                  0.362031513480
     Fraction singles (|R1|/|R|):       0.991565878761

     MLCC diagnostics:

     |R1^internal|/|R| =       0.882271877721
     |R1^internal|/|R1| =      0.889776359412

     Largest single amplitudes:
     -----------------------------------
        a       i         R(a,i)
     -----------------------------------
        2      4       -0.863404941177
       15      4        0.426811863401
        6      4       -0.163836404471
       20      4        0.143701973030
       12      4       -0.077751820631
       18      4       -0.043960242891
       17      1        0.006673219145
        4      2       -0.005312430855
        7      2       -0.004036756279
       17      3        0.001772374630
     ------------------------------------

     Electronic state nr. 3

     Energy (Hartree):                  0.367346162238
     Fraction singles (|R1|/|R|):       0.988612841804

     MLCC diagnostics:

     |R1^internal|/|R| =       0.951235511793
     |R1^internal|/|R1| =      0.962192145974

     Largest single amplitudes:
     -----------------------------------
        a       i         R(a,i)
     -----------------------------------
        1      3        0.931047410272
       16      3       -0.263505948552
        2      2       -0.137297259781
        5      3       -0.078270370847
        1      1       -0.068431405520
       10      3       -0.049035133132
        4      4        0.042878809755
       15      2        0.042455670067
       13      3        0.042049399993
        6      2       -0.034782825201
     ------------------------------------

     Electronic state nr. 4

     Energy (Hartree):                  0.457029488216
     Fraction singles (|R1|/|R|):       0.991667737730

     MLCC diagnostics:

     |R1^internal|/|R| =       0.893193087990
     |R1^internal|/|R1| =      0.900697939447

     Largest single amplitudes:
     -----------------------------------
        a       i         R(a,i)
     -----------------------------------
        2      3        0.690093011019
        1      2       -0.541100026119
       15      3       -0.384959263455
       16      2        0.144158566689
        6      3        0.140357650170
       20      3       -0.123330721712
       12      3        0.079986550747
       10      2        0.037348095614
       18      3        0.035901491865
       13      2       -0.028842965618
     ------------------------------------

     - Electronic excitation energies:

                                      Excitation energy
                          ------------------------------------------
      State                (Hartree)             (eV)
     ---------------------------------------------------------------
        1                  0.262025998435        7.130090590694
        2                  0.362031513480        9.851379264700
        3                  0.367346162238        9.995998223631
        4                  0.457029488216       12.436405826359
     ---------------------------------------------------------------
     eV/Hartree (CODATA 2014): 27.21138602

  - Finished solving the MLCC2 excited state equations (right)

     Total wall time (sec):              0.88100
     Total cpu time (sec):               0.91394

  - Timings for the MLCC2 excited state calculation

     Total wall time (sec):              2.46900
     Total cpu time (sec):               3.43061

  ------------------------------------------------------------

  Peak memory usage during the execution of eT: 14.210484 MB

  Total wall time in eT (sec):              5.02300
  Total cpu time in eT (sec):               8.19642

  Calculation ended: 2021-10-06 10:30:29 UTC +02:00

  - Implementation references:

     eT: https://doi.org/10.1063/5.0004713
     MLCC2 and MLCCSD: https://doi.org/10.1021/acs.jctc.9b00701
     Cholesky decomposition of ERIs: https://doi.org/10.1063/1.5083802

  eT terminated successfully!
