


                     eT 1.5 - an electronic structure program

  ------------------------------------------------------------------------
   Author list in alphabetical order:
  ------------------------------------------------------------------------
   J. H. Andersen, A. Balbi, S. Coriani, S. D. Folkestad, T. Giovannini, 
   L. Goletto, T. S. Haugland, A. Hutcheson, I-M. Høyvik, E. F. Kjønstad, 
   H. Koch, R. Matveeva, T. Moitra, R. H. Myhre, A. C. Paul, S. Roet, 
   M. Scavino, A. K. Schnack-Petersen, A. S. Skeidsvoll, Å. H. Tveten
  ------------------------------------------------------------------------
   J. Chem. Phys. 152, 184103 (2020); https://doi.org/10.1063/5.0004713


   This is eT 1.5.0 Furia (development)
  ------------------------------------------------------------
  Configuration date: 2021-12-13 17:02:21 UTC +01:00
  Git branch:         input-cleanup
  Git hash:           4c2cc6bf523455801cdf275544d28013b6da142b
  Fortran compiler:   GNU 9.3.0
  C compiler:         GNU 9.3.0
  C++ compiler:       GNU 9.3.0
  LAPACK type:        MKL
  BLAS type:          MKL
  64-bit integers:    ON
  OpenMP:             ON
  PCM:                OFF
  Forced batching:    OFF
  Runtime checks:     OFF
  ------------------------------------------------------------

  Calculation started: 2021-12-13 17:04:04 UTC +01:00


  :: Input file
  ================

     Note: geometry section is excluded from this print

     system
        name: HOF He
        charge: 0
     end system

     do
        time dependent hf
     end do

     memory
        available: 8
     end memory

     solver scf
        algorithm:          scf-diis
        energy threshold:   1.0d-10
        gradient threshold: 1.0d-10
     end solver scf

     method
        hf
     end method

     solver tdhf
       states: 2
       residual threshold: 1.0d-10
     end solver tdhf


  Running on 2 OMP threads
  Memory available for calculation: 8.000000 GB


  :: RHF wavefunction
  ======================

     ==============================================================================
                                     Geometry (angstrom)
     ==============================================================================
        Atom           X                  Y                  Z         # in input
     ==============================================================================
        Basis: cc-pvdz
        1  H     0.866810000000     0.601440000000     5.000000000000        1
        2  H    -0.866810000000     0.601440000000     5.000000000000        2
        3  O     0.000000000000    -0.075790000000     5.000000000000        3
        4 He     0.000000000000     0.000000000000     7.500000000000        4
     ==============================================================================

     ==============================================================================
                                     Geometry (a.u.)
     ==============================================================================
        Atom           X                  Y                  Z         # in input
     ==============================================================================
        Basis: cc-pvdz
        1  H     1.638033502034     1.136556880358     9.448630622825        1
        2  H    -1.638033502034     1.136556880358     9.448630622825        2
        3  O     0.000000000000    -0.143222342981     9.448630622825        3
        4 He     0.000000000000     0.000000000000    14.172945934238        4
     ==============================================================================

  - Cholesky decomposition of AO overlap to get linearly independent AOs:

     Linear dependence threshold:             0.10E-05
     Number of atomic orbitals:               29
     Number of orthonormal atomic orbitals:   29

  - Molecular orbital details:

     Number of occupied orbitals:         6
     Number of virtual orbitals:         23
     Number of molecular orbitals:       29


  :: Time dependent Hartree-Fock engine
  ========================================

  Drives the calculation of the Hartree-Fock excitation energies and properties.

  This is a RHF properties calculation.
  The following tasks will be performed:

     1) Generate initial SAD density
     2) Calculation of reference state (SCF-DIIS algorithm)
     3) Calculate TDHF excitation energies


  1) Generate initial SAD density


  2) Calculation of reference state (SCF-DIIS algorithm)

  - Setting initial AO density to sad

     Energy of initial guess:               -78.492359869065
     Number of electrons in guess:           12.000000000000

  - Screening and integral thresholds:

     Coulomb screening threshold:    0.1000E-15
     Exchange screening threshold:   0.1000E-13
     ERI cutoff:                     0.1000E-15
     One-electron integral  cutoff:  0.1000E-20
     Cumulative Fock threshold:      0.1000E+01

  - SCF solver settings:

     Maximum iterations:                   100
     Acceleration type:                   diis

  - Convergence thresholds

     Residual threshold:            0.1000E-09
     Energy threshold:              0.1000E-09

  - DIIS tool settings:

     DIIS dimension:   8

     Storage (solver scf_errors): memory
     Storage (solver scf_parameters): memory

  Iteration       Energy (a.u.)      Max(grad.)    Delta E (a.u.)
  ---------------------------------------------------------------
     1           -78.796357979384     0.9791E-01     0.7880E+02
     2           -78.828453237445     0.7078E-01     0.3210E-01
     3           -78.843281517241     0.6747E-02     0.1483E-01
     4           -78.843608975052     0.2753E-02     0.3275E-03
     5           -78.843645123311     0.3974E-03     0.3615E-04
     6           -78.843646182586     0.5223E-04     0.1059E-05
     7           -78.843646204409     0.6084E-05     0.2182E-07
     8           -78.843646205153     0.2132E-05     0.7441E-09
     9           -78.843646205256     0.3153E-06     0.1024E-09
    10           -78.843646205256     0.2623E-07     0.4547E-12
    11           -78.843646205256     0.5559E-08     0.0000E+00
    12           -78.843646205256     0.1724E-08     0.1421E-13
    13           -78.843646205256     0.7589E-09     0.1421E-13
    14           -78.843646205256     0.1286E-09     0.2842E-13
    15           -78.843646205256     0.2324E-10     0.1421E-13
  ---------------------------------------------------------------
  Convergence criterion met in 15 iterations!

  - Summary of RHF wavefunction energetics (a.u.):

     HOMO-LUMO gap:                  0.645693538823
     Nuclear repulsion energy:      12.167611407170
     Electronic energy:            -91.011257612426
     Total energy:                 -78.843646205256


  3) Calculate TDHF excitation energies

   - Davidson tool settings:

     Number of parameters:                  138
     Number of requested solutions:           2
     Max reduced space dimension:            50

     Storage (tdhf_davidson_trials): memory
     Storage (tdhf_davidson_transforms): memory

  - Davidson solver settings

     Number of singlet states:               2
     Max number of iterations:             100

  Iteration:                  1
  Reduced space dimension:    2

   Root  omega (Re)        omega (Im)         |residual|   Delta omega (Re)
  ------------------------------------------------------------------------
     1   0.104822233331    0.000000000000     0.8089E+00   0.1048E+00
     2   0.173892785924    0.000000000000     0.7510E+00   0.1739E+00
  ------------------------------------------------------------------------

  Iteration:                  2
  Reduced space dimension:    4

   Root  omega (Re)        omega (Im)         |residual|   Delta omega (Re)
  ------------------------------------------------------------------------
     1   0.084705174722    0.000000000000     0.4467E+00   0.2012E-01
     2   0.153394425939    0.000000000000     0.4311E+00   0.2050E-01
  ------------------------------------------------------------------------

  Iteration:                  3
  Reduced space dimension:    6

   Root  omega (Re)        omega (Im)         |residual|   Delta omega (Re)
  ------------------------------------------------------------------------
     1   0.078247723019    0.000000000000     0.1126E+00   0.6457E-02
     2   0.143343615356    0.000000000000     0.3843E+00   0.1005E-01
  ------------------------------------------------------------------------

  Iteration:                  4
  Reduced space dimension:    8

   Root  omega (Re)        omega (Im)         |residual|   Delta omega (Re)
  ------------------------------------------------------------------------
     1   0.078175194104    0.000000000000     0.3088E-01   0.7253E-04
     2   0.142116849435    0.000000000000     0.1352E+00   0.1227E-02
  ------------------------------------------------------------------------

  Iteration:                  5
  Reduced space dimension:   10

   Root  omega (Re)        omega (Im)         |residual|   Delta omega (Re)
  ------------------------------------------------------------------------
     1   0.078197860078    0.000000000000     0.1408E-02   0.2267E-04
     2   0.142320334307    0.000000000000     0.2398E-01   0.2035E-03
  ------------------------------------------------------------------------

  Iteration:                  6
  Reduced space dimension:   12

   Root  omega (Re)        omega (Im)         |residual|   Delta omega (Re)
  ------------------------------------------------------------------------
     1   0.078190938409    0.000000000000     0.3026E-03   0.6922E-05
     2   0.142354475502    0.000000000000     0.3864E-02   0.3414E-04
  ------------------------------------------------------------------------

  Iteration:                  7
  Reduced space dimension:   14

   Root  omega (Re)        omega (Im)         |residual|   Delta omega (Re)
  ------------------------------------------------------------------------
     1   0.078189911272    0.000000000000     0.1175E-03   0.1027E-05
     2   0.142329910652    0.000000000000     0.1233E-02   0.2456E-04
  ------------------------------------------------------------------------

  Iteration:                  8
  Reduced space dimension:   16

   Root  omega (Re)        omega (Im)         |residual|   Delta omega (Re)
  ------------------------------------------------------------------------
     1   0.078189696947    0.000000000000     0.2831E-04   0.2143E-06
     2   0.142328377736    0.000000000000     0.2480E-03   0.1533E-05
  ------------------------------------------------------------------------

  Iteration:                  9
  Reduced space dimension:   18

   Root  omega (Re)        omega (Im)         |residual|   Delta omega (Re)
  ------------------------------------------------------------------------
     1   0.078189625643    0.000000000000     0.2098E-05   0.7130E-07
     2   0.142327785542    0.000000000000     0.3210E-04   0.5922E-06
  ------------------------------------------------------------------------

  Iteration:                 10
  Reduced space dimension:   20

   Root  omega (Re)        omega (Im)         |residual|   Delta omega (Re)
  ------------------------------------------------------------------------
     1   0.078189602832    0.000000000000     0.5306E-06   0.2281E-07
     2   0.142327775218    0.000000000000     0.5743E-05   0.1032E-07
  ------------------------------------------------------------------------

  Iteration:                 11
  Reduced space dimension:   22

   Root  omega (Re)        omega (Im)         |residual|   Delta omega (Re)
  ------------------------------------------------------------------------
     1   0.078189601133    0.000000000000     0.1891E-06   0.1699E-08
     2   0.142327766803    0.000000000000     0.1753E-05   0.8415E-08
  ------------------------------------------------------------------------

  Iteration:                 12
  Reduced space dimension:   24

   Root  omega (Re)        omega (Im)         |residual|   Delta omega (Re)
  ------------------------------------------------------------------------
     1   0.078189601085    0.000000000000     0.1393E-07   0.4823E-10
     2   0.142327765142    0.000000000000     0.3061E-06   0.1661E-08
  ------------------------------------------------------------------------

  Iteration:                 13
  Reduced space dimension:   26

   Root  omega (Re)        omega (Im)         |residual|   Delta omega (Re)
  ------------------------------------------------------------------------
     1   0.078189601094    0.000000000000     0.1927E-08   0.9245E-11
     2   0.142327765317    0.000000000000     0.1722E-07   0.1742E-09
  ------------------------------------------------------------------------

  Iteration:                 14
  Reduced space dimension:   28

   Root  omega (Re)        omega (Im)         |residual|   Delta omega (Re)
  ------------------------------------------------------------------------
     1   0.078189601095    0.000000000000     0.1292E-09   0.5364E-12
     2   0.142327765323    0.000000000000     0.2173E-08   0.5957E-11
  ------------------------------------------------------------------------

  Iteration:                 15
  Reduced space dimension:   30

   Root  omega (Re)        omega (Im)         |residual|   Delta omega (Re)
  ------------------------------------------------------------------------
     1   0.078189601095    0.000000000000     0.1439E-10   0.6428E-13
     2   0.142327765331    0.000000000000     0.7896E-09   0.7941E-11
  ------------------------------------------------------------------------

  Iteration:                 16
  Reduced space dimension:   31

   Root  omega (Re)        omega (Im)         |residual|   Delta omega (Re)
  ------------------------------------------------------------------------
     1   0.078189601095    0.000000000000     0.1412E-10   0.2455E-13
     2   0.142327765331    0.000000000000     0.2432E-09   0.9096E-13
  ------------------------------------------------------------------------

  Iteration:                 17
  Reduced space dimension:   32

   Root  omega (Re)        omega (Im)         |residual|   Delta omega (Re)
  ------------------------------------------------------------------------
     1   0.078189601095    0.000000000000     0.1409E-10   0.3235E-13
     2   0.142327765331    0.000000000000     0.2415E-10   0.4205E-13
  ------------------------------------------------------------------------
  Convergence criterion met in 17 iterations!

  - TDHF excitation energies:

                                      Excitation energy
                          ------------------------------------------
      State                (Hartree)             (eV)
     ---------------------------------------------------------------
        1                  0.279624035259        7.608957563911
        2                  0.377263522396       10.265863339181
     ---------------------------------------------------------------
     eV/Hartree (CODATA 2014): 27.21138602

  - Timings for the RHF properties calculation

     Total wall time (sec):              3.19280
     Total cpu time (sec):               6.32410

  ------------------------------------------------------------

  Peak memory usage during the execution of eT: 322.072 KB

  Total wall time in eT (sec):              3.21989
  Total cpu time in eT (sec):               6.35125

  Calculation ended: 2021-12-13 17:04:07 UTC +01:00

  - Implementation references:

     eT: https://doi.org/10.1063/5.0004713

  eT terminated successfully!
