


                     eT 1.5 - an electronic structure program

  ------------------------------------------------------------------------
   Author list in alphabetical order:
  ------------------------------------------------------------------------
   J. H. Andersen, A. Balbi, S. Coriani, S. D. Folkestad, T. Giovannini, 
   L. Goletto, T. S. Haugland, A. Hutcheson, I-M. Høyvik, E. F. Kjønstad, 
   H. Koch, T. Moitra, R. H. Myhre, A. C. Paul, S. Roet, M. Scavino, 
   A. Skeidsvoll, Å. H. Tveten
  ------------------------------------------------------------------------
   J. Chem. Phys. 152, 184103 (2020); https://doi.org/10.1063/5.0004713


   This is eT 1.5.0 Furia (development)
  ------------------------------------------------------------
  Configuration date: 2021-10-06 10:20:02 UTC +02:00
  Git branch:         hf-cleanup-oao-stuff
  Git hash:           82fed81e1022a04236e45d2edec97a412b5fa7bd
  Fortran compiler:   GNU 10.3.0
  C compiler:         GNU 10.3.0
  C++ compiler:       GNU 10.3.0
  LAPACK type:        SYSTEM_NATIVE
  BLAS type:          SYSTEM_NATIVE
  64-bit integers:    OFF
  OpenMP:             ON
  PCM:                OFF
  Forced batching:    OFF
  Runtime checks:     OFF
  ------------------------------------------------------------

  Calculation started: 2021-10-06 10:30:53 UTC +02:00


  :: Input file
  ================

     Note: geometry section is excluded from this print

     system
        name: H2O He
        charge: 0
     end system

     do
        ground state
        excited state
     end do

     memory
        available: 8
     end memory

     solver cholesky
        threshold: 1.0d-12
     end solver cholesky

     solver scf
        algorithm:          scf-diis
        energy threshold:   1.0d-12
        gradient threshold: 1.0d-12
     end solver scf

     method
        hf
        mlcc2
     end method

     solver cc gs
        omega threshold:  1.0d-12
        energy threshold: 1.0d-12
     end solver cc gs

     solver cc es
        algorithm:          davidson
        singlet states:     2
        residual threshold: 1.0d-12
        energy threshold:   1.0d-12
        right eigenvectors
     end solver cc es

     mlcc
        cc2 orbitals: nto-canonical
        nto occupied cc2: 2
        nto states: {1,2}
     end mlcc


  Running on 2 OMP threads
  Memory available for calculation: 8.000000 GB


  :: RHF wavefunction
  ======================

     ==============================================================================
                                     Geometry (angstrom)
     ==============================================================================
        Atom           X                  Y                  Z         # in input
     ==============================================================================
        Basis: cc-pvdz
        1  H     0.866810000000     0.601440000000     5.000000000000        1
        2  H    -0.866810000000     0.601440000000     5.000000000000        2
        3  O     0.000000000000    -0.075790000000     5.000000000000        3
        4 He     0.100000000000    -0.020000000000     7.530000000000        4
     ==============================================================================

     ==============================================================================
                                     Geometry (a.u.)
     ==============================================================================
        Atom           X                  Y                  Z         # in input
     ==============================================================================
        Basis: cc-pvdz
        1  H     1.638033502034     1.136556880358     9.448630622825        1
        2  H    -1.638033502034     1.136556880358     9.448630622825        2
        3  O     0.000000000000    -0.143222342981     9.448630622825        3
        4 He     0.188972612457    -0.037794522491    14.229637717975        4
     ==============================================================================

  - Cholesky decomposition of AO overlap to get linearly independent AOs:

     Linear dependence threshold:             0.10E-05
     Number of atomic orbitals:               29
     Number of orthonormal atomic orbitals:   29

  - Molecular orbital details:

     Number of occupied orbitals:         6
     Number of virtual orbitals:         23
     Number of molecular orbitals:       29


  :: Hartree-Fock engine
  =========================

  Drives the calculation of the Hartree-Fock state.

  This is a RHF ground state calculation.
  The following tasks will be performed:

     1) Generate initial SAD density
     2) Calculation of reference state (SCF-DIIS algorithm)


  1) Generate initial SAD density


  2) Calculation of reference state (SCF-DIIS algorithm)

  - SCF solver settings:

     Maximum iterations:                   100
     Acceleration type:                   diis

  - Convergence thresholds

     Residual threshold:            0.1000E-11
     Energy threshold:              0.1000E-11

  - Setting initial AO density to sad

     Energy of initial guess:               -78.492022836315
     Number of electrons in guess:           12.000000000000

  - Screening and integral thresholds:

     Coulomb screening threshold:    0.1000E-17
     Exchange screening threshold:   0.1000E-15
     ERI cutoff:                     0.1000E-17
     One-electron integral  cutoff:  0.1000E-22
     Cumulative Fock threshold:      0.1000E+01

  - DIIS tool settings:

     DIIS dimension:   8

     Storage (solver scf_errors): memory
     Storage (solver scf_parameters): memory

  Iteration       Energy (a.u.)      Max(grad.)    Delta E (a.u.)
  ---------------------------------------------------------------
     1           -78.796606592587     0.9786E-01     0.7880E+02
     2           -78.828675852655     0.7077E-01     0.3207E-01
     3           -78.843487343819     0.6747E-02     0.1481E-01
     4           -78.843814479549     0.2753E-02     0.3271E-03
     5           -78.843850612079     0.3973E-03     0.3613E-04
     6           -78.843851670925     0.5220E-04     0.1059E-05
     7           -78.843851692779     0.6096E-05     0.2185E-07
     8           -78.843851693528     0.2137E-05     0.7488E-09
     9           -78.843851693630     0.3151E-06     0.1027E-09
    10           -78.843851693631     0.2637E-07     0.4832E-12
    11           -78.843851693631     0.5634E-08     0.7105E-13
    12           -78.843851693631     0.1415E-08     0.1279E-12
    13           -78.843851693631     0.6806E-09     0.2842E-13
    14           -78.843851693631     0.1491E-09     0.5684E-13
    15           -78.843851693631     0.2501E-10     0.2842E-13
    16           -78.843851693631     0.5167E-11     0.0000E+00
    17           -78.843851693631     0.1343E-11     0.4263E-13
    18           -78.843851693631     0.2417E-12     0.4263E-13
  ---------------------------------------------------------------
  Convergence criterion met in 18 iterations!

  - Summary of RHF wavefunction energetics (a.u.):

     HOMO-LUMO gap:                  0.645629080251
     Nuclear repulsion energy:      12.116100574587
     Electronic energy:            -90.959952268218
     Total energy:                 -78.843851693631

  - Timings for the RHF ground state calculation

     Total wall time (sec):              1.13400
     Total cpu time (sec):               1.93094


  :: MLCC2 wavefunction
  ========================

     Bath orbital(s):         False

   - Number of orbitals:

     Occupied orbitals:    6
     Virtual orbitals:     23
     Molecular orbitals:   29
     Atomic orbitals:      29


  :: Excited state coupled cluster engine
  ==========================================

  Calculates the coupled cluster excitation vectors and excitation energies

  This is a MLCC2 excited state calculation.
  The following tasks will be performed:

     1) Cholesky decomposition of the electron repulsion integrals
     2) Preparation of MO basis and integrals
     3) Calculation of the ground state (diis algorithm)
     4) Calculation of the excited state (davidson algorithm)


  1) Cholesky decomposition of the electron repulsion integrals

   - Cholesky decomposition of electronic repulsion integrals solver
  ---------------------------------------------------------------------

  Performs a Cholesky decomposition of the two-electron electronic repulsion 
  integrals in the atomic orbital basis,

  (ab|cd) = sum_J L_ab^J L_cd^J.

  Once the Cholesky basis has been determined, the vectors L^J are constructed 
  and stored to disk. These may either be used directly, or be transformed 
  to the MO basis for use in post-HF calculations. For more information, 
  see S. D. Folkestad, E. F. Kjønstad and H. Koch, JCP, 150(19), (2019)

  - Cholesky decomposition settings:

     Target threshold is:   0.10E-11
     Span factor:           0.10E-01
     Max qual:                  1000

  - Cholesky decomposition ao details:

     Total number of AOs:                    29
     Total number of shell pairs:           120
     Total number of AO pairs:              435

     Significant shell pairs:               118
     Significant AO pairs:                  431

     Construct shell pairs:                 120
     Construct AO pairs:                    435

  Iter.  #Sign. ao pairs / shell pairs   Max diagonal    #Qualified    #Cholesky    Cholesky array size
  -------------------------------------------------------------------------------------------------------
     1               406 /     108       0.47383E+01         147             42             17052
     2               319 /      93       0.47165E-01         234            111             35409
     3               250 /      76       0.46944E-03         178            183             45750
     4               187 /      55       0.38270E-05         145            265             49555
     5                87 /      25       0.38106E-07          78            324             28188
     6                21 /       3       0.37202E-09          43            349              7329
     7                 0 /       0       0.36652E-11           7            354                 0
  -------------------------------------------------------------------------------------------------------

  - Summary of Cholesky decomposition of electronic repulsion integrals:

     Final number of Cholesky vectors: 354

 - Testing the Cholesky decomposition decomposition electronic repulsion integrals:

     Maximal difference between approximate and actual diagonal:              0.7161E-12
     Minimal element of difference between approximate and actual diagonal:  -0.1238E-14

  - Settings for integral handling:

     Cholesky vectors in memory: True
     ERI matrix in memory:       False
     T1 ERI matrix in memory:    False

  - Finished decomposing the ERIs.

     Total wall time (sec):              0.47100
     Total cpu time (sec):               0.63661


  2) Preparation of MO basis and integrals

  Running CCS calculation for NTOs/CNTOs.

  - Summary of CCS calculation for NTOs/CNTOs:

     Wall time for CCS ground calculation (sec):                   0.01
     CPU time for CCS ground calculation (sec):                    0.01

     Wall time for CCS excited calculation (sec):                  0.11
     CPU time for CCS excited calculation (sec):                   0.12

  - MLCC2 orbital partitioning:

     Orbital type: nto-canonical

     Number occupied cc2 orbitals:    2
     Number virtual cc2 orbitals:     6

     Number occupied ccs orbitals:    4
     Number virtual ccs orbitals:    17


  3) Calculation of the ground state (diis algorithm)

   - DIIS coupled cluster ground state solver
  ----------------------------------------------

  A DIIS CC ground state amplitude equations solver. It uses an extrapolation 
  of previous quasi-Newton perturbation theory estimates of the next amplitudes. 
  See Helgaker et al., Molecular Electronic Structure Theory, Chapter 
  13.

  - CC ground state solver settings:

  - Convergence thresholds

     Residual threshold:            0.1000E-11
     Energy threshold:              0.1000E-11
     Max number of iterations:      100

  - DIIS tool settings:

     DIIS dimension:   8

     Storage (cc_gs_diis_errors): file
     Storage (cc_gs_diis_parameters): file

  Iteration    Energy (a.u.)        |omega|       Delta E (a.u.)
  ---------------------------------------------------------------
    1           -78.870103496053     0.1553E-01     0.7887E+02
    2           -78.870407422459     0.3840E-02     0.3039E-03
    3           -78.870495547203     0.7912E-03     0.8812E-04
    4           -78.870508842409     0.2233E-03     0.1330E-04
    5           -78.870509475826     0.4314E-04     0.6334E-06
    6           -78.870509605166     0.7890E-05     0.1293E-06
    7           -78.870509608380     0.1811E-05     0.3214E-08
    8           -78.870509611592     0.4693E-06     0.3213E-08
    9           -78.870509609583     0.6413E-07     0.2009E-08
   10           -78.870509609905     0.1657E-07     0.3221E-09
   11           -78.870509609891     0.2999E-08     0.1451E-10
   12           -78.870509609876     0.8241E-09     0.1444E-10
   13           -78.870509609883     0.1923E-09     0.6935E-11
   14           -78.870509609882     0.4333E-10     0.8242E-12
   15           -78.870509609882     0.9038E-11     0.8527E-13
   16           -78.870509609882     0.2470E-11     0.2842E-13
   17           -78.870509609882     0.4267E-12     0.0000E+00
  ---------------------------------------------------------------
  Convergence criterion met in 17 iterations!

  - Ground state summary:

     Final ground state energy (a.u.):   -78.870509609882

     Correlation energy (a.u.):           -0.026657916252

     Largest single amplitudes:
     -----------------------------------
        a       i         t(a,i)
     -----------------------------------
        2      1        0.012451938330
        3      1        0.005832145245
       14      1       -0.003687790967
        1      6       -0.003542854525
        5      2        0.003208709816
        7      1        0.002663322843
        9      2       -0.001971274390
        4      6       -0.001878226867
       11      2       -0.001789504788
        1      1        0.000998638820
     ------------------------------------

  - Finished solving the MLCC2 ground state equations

     Total wall time (sec):              0.11700
     Total cpu time (sec):               0.13756


  4) Calculation of the excited state (davidson algorithm)
     Calculating right vectors

   - Davidson coupled cluster excited state solver
  ---------------------------------------------------

  A Davidson solver that calculates the lowest eigenvalues and the right 
  or left eigenvectors of the Jacobian matrix, A. The eigenvalue problem 
  is solved in a reduced space, the dimension of which is expanded until 
  the convergence criteria are met.

  A complete description of the algorithm can be found in E. R. Davidson, 
  J. Comput. Phys. 17, 87 (1975).

  - Settings for coupled cluster excited state solver (Davidson):

     Calculation type:    valence
     Excitation vectors:  right

  - Convergence thresholds

     Residual threshold:            0.1000E-11
     Energy threshold:              0.1000E-11

     Number of singlet states:               2
     Max number of iterations:             100

   - Davidson tool settings:

     Number of parameters:                  216
     Number of requested solutions:           2
     Max reduced space dimension:           100

     Storage (cc_es_davidson_trials): file
     Storage (cc_es_davidson_transforms): file

  Iteration:                  1
  Reduced space dimension:    2

   Root  Eigenvalue (Re)   Eigenvalue (Im)    |residual|   Delta E (Re)
  ------------------------------------------------------------------------
     1   0.318721541062    0.000000000000     0.2672E+00   0.3187E+00
     2   0.415904316475    0.000000000000     0.1706E+00   0.4159E+00
  ------------------------------------------------------------------------

  Iteration:                  2
  Reduced space dimension:    4

   Root  Eigenvalue (Re)   Eigenvalue (Im)    |residual|   Delta E (Re)
  ------------------------------------------------------------------------
     1   0.261419275789    0.000000000000     0.4134E-01   0.5730E-01
     2   0.389782071753    0.000000000000     0.5832E-01   0.2612E-01
  ------------------------------------------------------------------------

  Iteration:                  3
  Reduced space dimension:    6

   Root  Eigenvalue (Re)   Eigenvalue (Im)    |residual|   Delta E (Re)
  ------------------------------------------------------------------------
     1   0.260638602907    0.000000000000     0.9658E-02   0.7807E-03
     2   0.385545178844    0.000000000000     0.1606E-01   0.4237E-02
  ------------------------------------------------------------------------

  Iteration:                  4
  Reduced space dimension:    8

   Root  Eigenvalue (Re)   Eigenvalue (Im)    |residual|   Delta E (Re)
  ------------------------------------------------------------------------
     1   0.260535018567    0.000000000000     0.1660E-02   0.1036E-03
     2   0.385099868131    0.000000000000     0.7271E-02   0.4453E-03
  ------------------------------------------------------------------------

  Iteration:                  5
  Reduced space dimension:   10

   Root  Eigenvalue (Re)   Eigenvalue (Im)    |residual|   Delta E (Re)
  ------------------------------------------------------------------------
     1   0.260538405320    0.000000000000     0.5114E-03   0.3387E-05
     2   0.384954018318    0.000000000000     0.3391E-02   0.1458E-03
  ------------------------------------------------------------------------

  Iteration:                  6
  Reduced space dimension:   12

   Root  Eigenvalue (Re)   Eigenvalue (Im)    |residual|   Delta E (Re)
  ------------------------------------------------------------------------
     1   0.260538801476    0.000000000000     0.5766E-03   0.3962E-06
     2   0.384951885480    0.000000000000     0.3415E-02   0.2133E-05
  ------------------------------------------------------------------------

  Iteration:                  7
  Reduced space dimension:   14

   Root  Eigenvalue (Re)   Eigenvalue (Im)    |residual|   Delta E (Re)
  ------------------------------------------------------------------------
     1   0.260537838085    0.000000000000     0.1761E-03   0.9634E-06
     2   0.333683991846    0.000000000000     0.7122E-01   0.5127E-01
  ------------------------------------------------------------------------

  Iteration:                  8
  Reduced space dimension:   16

   Root  Eigenvalue (Re)   Eigenvalue (Im)    |residual|   Delta E (Re)
  ------------------------------------------------------------------------
     1   0.260537502893    0.000000000000     0.3322E-04   0.3352E-06
     2   0.329767586118    0.000000000000     0.1534E-01   0.3916E-02
  ------------------------------------------------------------------------

  Iteration:                  9
  Reduced space dimension:   18

   Root  Eigenvalue (Re)   Eigenvalue (Im)    |residual|   Delta E (Re)
  ------------------------------------------------------------------------
     1   0.260537419093    0.000000000000     0.4188E-05   0.8380E-07
     2   0.329551629094    0.000000000000     0.2254E-02   0.2160E-03
  ------------------------------------------------------------------------

  Iteration:                 10
  Reduced space dimension:   20

   Root  Eigenvalue (Re)   Eigenvalue (Im)    |residual|   Delta E (Re)
  ------------------------------------------------------------------------
     1   0.260537408477    0.000000000000     0.3970E-06   0.1062E-07
     2   0.329536729025    0.000000000000     0.3773E-03   0.1490E-04
  ------------------------------------------------------------------------

  Iteration:                 11
  Reduced space dimension:   22

   Root  Eigenvalue (Re)   Eigenvalue (Im)    |residual|   Delta E (Re)
  ------------------------------------------------------------------------
     1   0.260537408921    0.000000000000     0.4576E-07   0.4436E-09
     2   0.329538733371    0.000000000000     0.3981E-04   0.2004E-05
  ------------------------------------------------------------------------

  Iteration:                 12
  Reduced space dimension:   24

   Root  Eigenvalue (Re)   Eigenvalue (Im)    |residual|   Delta E (Re)
  ------------------------------------------------------------------------
     1   0.260537408836    0.000000000000     0.1794E-07   0.8482E-10
     2   0.329538754389    0.000000000000     0.2178E-04   0.2102E-07
  ------------------------------------------------------------------------

  Iteration:                 13
  Reduced space dimension:   26

   Root  Eigenvalue (Re)   Eigenvalue (Im)    |residual|   Delta E (Re)
  ------------------------------------------------------------------------
     1   0.260537408841    0.000000000000     0.3471E-08   0.4664E-11
     2   0.329538690390    0.000000000000     0.5575E-05   0.6400E-07
  ------------------------------------------------------------------------

  Iteration:                 14
  Reduced space dimension:   28

   Root  Eigenvalue (Re)   Eigenvalue (Im)    |residual|   Delta E (Re)
  ------------------------------------------------------------------------
     1   0.260537408847    0.000000000000     0.2857E-09   0.5779E-11
     2   0.329538706089    0.000000000000     0.6588E-06   0.1570E-07
  ------------------------------------------------------------------------

  Iteration:                 15
  Reduced space dimension:   30

   Root  Eigenvalue (Re)   Eigenvalue (Im)    |residual|   Delta E (Re)
  ------------------------------------------------------------------------
     1   0.260537408846    0.000000000000     0.4407E-10   0.7007E-12
     2   0.329538704763    0.000000000000     0.9770E-07   0.1326E-08
  ------------------------------------------------------------------------

  Iteration:                 16
  Reduced space dimension:   32

   Root  Eigenvalue (Re)   Eigenvalue (Im)    |residual|   Delta E (Re)
  ------------------------------------------------------------------------
     1   0.260537408846    0.000000000000     0.5808E-11   0.5740E-13
     2   0.329538704887    0.000000000000     0.1113E-07   0.1240E-09
  ------------------------------------------------------------------------

  Iteration:                 17
  Reduced space dimension:   34

   Root  Eigenvalue (Re)   Eigenvalue (Im)    |residual|   Delta E (Re)
  ------------------------------------------------------------------------
     1   0.260537408846    0.000000000000     0.6066E-12   0.3331E-14
     2   0.329538704897    0.000000000000     0.1817E-08   0.9899E-11
  ------------------------------------------------------------------------

  Iteration:                 18
  Reduced space dimension:   35

   Root  Eigenvalue (Re)   Eigenvalue (Im)    |residual|   Delta E (Re)
  ------------------------------------------------------------------------
     1   0.260537408846    0.000000000000     0.3129E-12   0.7216E-15
     2   0.329538704894    0.000000000000     0.3652E-09   0.2475E-11
  ------------------------------------------------------------------------

  Iteration:                 19
  Reduced space dimension:   36

   Root  Eigenvalue (Re)   Eigenvalue (Im)    |residual|   Delta E (Re)
  ------------------------------------------------------------------------
     1   0.260537408846    0.000000000000     0.2594E-12   0.6162E-14
     2   0.329538704894    0.000000000000     0.3203E-10   0.6795E-13
  ------------------------------------------------------------------------

  Iteration:                 20
  Reduced space dimension:   37

   Root  Eigenvalue (Re)   Eigenvalue (Im)    |residual|   Delta E (Re)
  ------------------------------------------------------------------------
     1   0.260537408846    0.000000000000     0.2568E-12   0.5496E-14
     2   0.329538704894    0.000000000000     0.7102E-11   0.3320E-13
  ------------------------------------------------------------------------

  Iteration:                 21
  Reduced space dimension:   38

   Root  Eigenvalue (Re)   Eigenvalue (Im)    |residual|   Delta E (Re)
  ------------------------------------------------------------------------
     1   0.260537408846    0.000000000000     0.2605E-12   0.3497E-14
     2   0.329538704894    0.000000000000     0.6570E-12   0.4552E-14
  ------------------------------------------------------------------------
  Convergence criterion met in 21 iterations!

  - Excitation vector amplitudes:

     Electronic state nr. 1

     Energy (Hartree):                  0.260537408846
     Fraction singles (|R1|/|R|):       0.990770638636

     MLCC diagnostics:

     |R1^internal|/|R| =       0.989538749986
     |R1^internal|/|R1| =      0.998756635893

     Largest single amplitudes:
     -----------------------------------
        a       i         R(a,i)
     -----------------------------------
        1      2        0.978949907600
        4      2        0.132214838451
        6      2       -0.057588033583
       13      2       -0.040162859224
       15      2        0.015492543657
        9      2       -0.010075729246
       22      2        0.009278185347
       19      6       -0.008704712332
        8      1       -0.008199703159
       20      1       -0.007496605460
     ------------------------------------

     Electronic state nr. 2

     Energy (Hartree):                  0.329538704894
     Fraction singles (|R1|/|R|):       0.992005541048

     MLCC diagnostics:

     |R1^internal|/|R| =       0.986348945788
     |R1^internal|/|R1| =      0.994297818887

     Largest single amplitudes:
     -----------------------------------
        a       i         R(a,i)
     -----------------------------------
        2      2        0.967778576153
        3      2        0.190337354368
        7      2       -0.098589855802
       14      2        0.036763813671
       12      2       -0.006578117523
        1      2       -0.006355914784
        8      4       -0.005571061471
        5      1       -0.004259918067
       11      1       -0.003822680792
       20      4        0.003626822909
     ------------------------------------

     - Electronic excitation energies:

                                      Excitation energy
                          ------------------------------------------
      State                (Hartree)             (eV)
     ---------------------------------------------------------------
        1                  0.260537408846        7.089584004758
        2                  0.329538704894        8.967204907408
     ---------------------------------------------------------------
     eV/Hartree (CODATA 2014): 27.21138602

  - Finished solving the MLCC2 excited state equations (right)

     Total wall time (sec):              0.22400
     Total cpu time (sec):               0.24319

  - Timings for the MLCC2 excited state calculation

     Total wall time (sec):              0.96700
     Total cpu time (sec):               1.18164

  ------------------------------------------------------------

  Peak memory usage during the execution of eT: 11.624972 MB

  Total wall time in eT (sec):              2.16500
  Total cpu time in eT (sec):               3.17541

  Calculation ended: 2021-10-06 10:30:55 UTC +02:00

  - Implementation references:

     eT: https://doi.org/10.1063/5.0004713
     MLCC2 and MLCCSD: https://doi.org/10.1021/acs.jctc.9b00701
     Cholesky decomposition of ERIs: https://doi.org/10.1063/1.5083802

  eT terminated successfully!
