


                     eT 1.5 - an electronic structure program

  ------------------------------------------------------------------------
   Author list in alphabetical order:
  ------------------------------------------------------------------------
   J. H. Andersen, A. Balbi, S. Coriani, S. D. Folkestad, T. Giovannini, 
   L. Goletto, T. S. Haugland, A. Hutcheson, I-M. Høyvik, E. F. Kjønstad, 
   H. Koch, T. Moitra, R. H. Myhre, A. C. Paul, S. Roet, M. Scavino, 
   A. Skeidsvoll, Å. H. Tveten
  ------------------------------------------------------------------------
   J. Chem. Phys. 152, 184103 (2020); https://doi.org/10.1063/5.0004713


   This is eT 1.5.0 Furia (development)
  ------------------------------------------------------------
  Configuration date: 2021-10-06 10:20:02 UTC +02:00
  Git branch:         hf-cleanup-oao-stuff
  Git hash:           82fed81e1022a04236e45d2edec97a412b5fa7bd
  Fortran compiler:   GNU 10.3.0
  C compiler:         GNU 10.3.0
  C++ compiler:       GNU 10.3.0
  LAPACK type:        SYSTEM_NATIVE
  BLAS type:          SYSTEM_NATIVE
  64-bit integers:    OFF
  OpenMP:             ON
  PCM:                OFF
  Forced batching:    OFF
  Runtime checks:     OFF
  ------------------------------------------------------------

  Calculation started: 2021-10-06 10:32:20 UTC +02:00


  :: Input file
  ================

     Note: geometry section is excluded from this print

     system
        name: Formamide
        charge: 0
     end system

     do
        ground state
     end do

     memory
        available: 16
     end memory

     solver cholesky
        threshold: 1.0d-12
     end solver cholesky

     solver scf
        algorithm:          scf
        energy threshold:   1.0d-11
        gradient threshold: 1.0d-11
     end solver scf

     solver cc gs
        energy threshold: 1.0d-11
        omega threshold:  1.0d-11
     end solver cc gs

     method
        hf
        ccsd
     end method

     frozen orbitals
        core
        hf
     end frozen orbitals


     active atoms
        selection type: range
        ccsd: [3,4]
     end active atoms


  Running on 2 OMP threads
  Memory available for calculation: 16.000000 GB


  :: RHF wavefunction
  ======================

     ==============================================================================
                                     Geometry (angstrom)
     ==============================================================================
        Atom           X                  Y                  Z         # in input
     ==============================================================================
        Basis: sto-3g
        1  H    -0.980990000000     1.067370000000    -0.047420000000        3
        2  C     0.082620000000    -0.648490000000    -0.047420000000        4
        3  H    -0.769900000000    -1.230070000000    -0.047420000000        1
        4  H     0.712170000000     1.269620000000    -0.047420000000        2
        5  O     1.166230000000    -1.229710000000    -0.047420000000        5
        6  N    -0.076030000000     0.679720000000    -0.047420000000        6
     ==============================================================================

     ==============================================================================
                                     Geometry (a.u.)
     ==============================================================================
        Atom           X                  Y                  Z         # in input
     ==============================================================================
        Basis: sto-3g
        1  H    -1.853802430937     2.017036973577    -0.089610812827        3
        2  C     0.156129172412    -1.225468494519    -0.089610812827        4
        3  H    -1.454900143303    -2.324495414044    -0.089610812827        1
        4  H     1.345806254132     2.399234082270    -0.089610812827        2
        5  O     2.203855298252    -2.323815112639    -0.089610812827        5
        6  N    -0.143675877251     1.284484641389    -0.089610812827        6
     ==============================================================================

  - Cholesky decomposition of AO overlap to get linearly independent AOs:

     Linear dependence threshold:             0.10E-05
     Number of atomic orbitals:               18
     Number of orthonormal atomic orbitals:   18

  - Molecular orbital details:

     Number of occupied orbitals:        12
     Number of virtual orbitals:          6
     Number of molecular orbitals:       18


  :: Hartree-Fock engine
  =========================

  Drives the calculation of the Hartree-Fock state.

  This is a RHF ground state calculation.
  The following tasks will be performed:

     1) Generate initial SAD density
     2) Calculation of reference state (SCF algorithm)


  1) Generate initial SAD density


  2) Calculation of reference state (SCF algorithm)

  - SCF solver settings:

     Maximum iterations:                   100
     Acceleration type:                   none

  - Convergence thresholds

     Residual threshold:            0.1000E-10
     Energy threshold:              0.1000E-10

  - Setting initial AO density to sad

     Energy of initial guess:              -166.757656556164
     Number of electrons in guess:           24.000000000000

  - Screening and integral thresholds:

     Coulomb screening threshold:    0.1000E-16
     Exchange screening threshold:   0.1000E-14
     ERI cutoff:                     0.1000E-16
     One-electron integral  cutoff:  0.1000E-21
     Cumulative Fock threshold:      0.1000E+01

  Iteration       Energy (a.u.)      Max(grad.)    Delta E (a.u.)
  ---------------------------------------------------------------
     1          -166.526025276883     0.1642E+00     0.1665E+03
     2          -166.615837132106     0.1108E+00     0.8981E-01
     3          -166.653902505872     0.7162E-01     0.3807E-01
     4          -166.666439535201     0.4236E-01     0.1254E-01
     5          -166.671637703802     0.2798E-01     0.5198E-02
     6          -166.673477847056     0.1590E-01     0.1840E-02
     7          -166.674186528525     0.1054E-01     0.7087E-03
     8          -166.674444686187     0.5950E-02     0.2582E-03
     9          -166.674541899503     0.3927E-02     0.9721E-04
    10          -166.674577779784     0.2226E-02     0.3588E-04
    11          -166.674591192949     0.1459E-02     0.1341E-04
    12          -166.674596170634     0.8334E-03     0.4978E-05
    13          -166.674598026917     0.5415E-03     0.1856E-05
    14          -166.674598717325     0.3119E-03     0.6904E-06
    15          -166.674598974593     0.2010E-03     0.2573E-06
    16          -166.674599070369     0.1167E-03     0.9578E-07
    17          -166.674599106051     0.7465E-04     0.3568E-07
    18          -166.674599119340     0.4363E-04     0.1329E-07
    19          -166.674599124291     0.2773E-04     0.4951E-08
    20          -166.674599126136     0.1631E-04     0.1844E-08
    21          -166.674599126823     0.1031E-04     0.6871E-09
    22          -166.674599127079     0.6094E-05     0.2560E-09
    23          -166.674599127174     0.3832E-05     0.9521E-10
    24          -166.674599127210     0.2276E-05     0.3578E-10
    25          -166.674599127223     0.1425E-05     0.1305E-10
    26          -166.674599127228     0.8499E-06     0.5031E-11
    27          -166.674599127230     0.5301E-06     0.1933E-11
    28          -166.674599127230     0.3172E-06     0.5400E-12
    29          -166.674599127231     0.1972E-06     0.3411E-12
    30          -166.674599127231     0.1184E-06     0.8527E-13
    31          -166.674599127231     0.7341E-07     0.1421E-12
    32          -166.674599127231     0.4417E-07     0.1137E-12
    33          -166.674599127231     0.2733E-07     0.8527E-13
    34          -166.674599127231     0.1648E-07     0.5684E-13
    35          -166.674599127231     0.1017E-07     0.0000E+00
    36          -166.674599127231     0.6146E-08     0.2842E-13
    37          -166.674599127231     0.3788E-08     0.0000E+00
    38          -166.674599127231     0.2292E-08     0.1137E-12
    39          -166.674599127231     0.1411E-08     0.1137E-12
    40          -166.674599127231     0.8547E-09     0.0000E+00
    41          -166.674599127231     0.5254E-09     0.2842E-13
    42          -166.674599127231     0.3187E-09     0.2842E-13
    43          -166.674599127231     0.1957E-09     0.2274E-12
    44          -166.674599127231     0.1188E-09     0.1137E-12
    45          -166.674599127231     0.7290E-10     0.1137E-12
    46          -166.674599127231     0.4430E-10     0.0000E+00
    47          -166.674599127231     0.2716E-10     0.1137E-12
    48          -166.674599127231     0.1651E-10     0.1137E-12
    49          -166.674599127231     0.1012E-10     0.5684E-13
    50          -166.674599127231     0.6152E-11     0.5684E-13
  ---------------------------------------------------------------
  Convergence criterion met in 50 iterations!

  - Summary of RHF wavefunction energetics (a.u.):

     HOMO-LUMO gap:                  0.638568161216
     Nuclear repulsion energy:      71.772502337484
     Electronic energy:           -238.447101464715
     Total energy:                -166.674599127231

  - Timings for the RHF ground state calculation

     Total wall time (sec):              1.17600
     Total cpu time (sec):               2.17440

  - Preparation for frozen core approximation

     There are 3 frozen core orbitals.

     The smallest diagonal after decomposition is:  -0.1859E-15

  - Preparation for frozen Hartree-Fock orbitals

     There are 4 frozen occupied orbitals.
     There are 1 frozen virtual orbitals.


  :: CCSD wavefunction
  =======================

     Bath orbital(s):         False

   - Number of orbitals:

     Occupied orbitals:    5
     Virtual orbitals:     5
     Molecular orbitals:   10
     Atomic orbitals:      18

   - Number of ground state amplitudes:

     Single excitation amplitudes:  25
     Double excitation amplitudes:  325


  :: Ground state coupled cluster engine
  =========================================

  Calculates the ground state CC wavefunction | CC > = exp(T) | R >

  This is a CCSD ground state calculation.
  The following tasks will be performed:

     1) Cholesky decomposition of the electron repulsion integrals
     2) Preparation of MO basis and integrals
     3) Calculation of the ground state (diis algorithm)


  1) Cholesky decomposition of the electron repulsion integrals

   - Cholesky decomposition of electronic repulsion integrals solver
  ---------------------------------------------------------------------

  Performs a Cholesky decomposition of the two-electron electronic repulsion 
  integrals in the atomic orbital basis,

  (ab|cd) = sum_J L_ab^J L_cd^J.

  Once the Cholesky basis has been determined, the vectors L^J are constructed 
  and stored to disk. These may either be used directly, or be transformed 
  to the MO basis for use in post-HF calculations. For more information, 
  see S. D. Folkestad, E. F. Kjønstad and H. Koch, JCP, 150(19), (2019)

  - Cholesky decomposition settings:

     Target threshold is:   0.10E-11
     Span factor:           0.10E-01
     Max qual:                  1000

  - Cholesky decomposition ao details:

     Total number of AOs:                    18
     Total number of shell pairs:            78
     Total number of AO pairs:              171

     Significant shell pairs:                76
     Significant AO pairs:                  169

     Construct shell pairs:                  77
     Construct AO pairs:                    170

  Iter.  #Sign. ao pairs / shell pairs   Max diagonal    #Qualified    #Cholesky    Cholesky array size
  -------------------------------------------------------------------------------------------------------
     1               153 /      66       0.47851E+01          49             24              3672
     2               114 /      54       0.47042E-01          68             64              7296
     3                85 /      43       0.41329E-03          53             93              7905
     4                40 /      22       0.34935E-05          55            132              5280
     5                15 /       9       0.33520E-07          22            150              2250
     6                 0 /       0       0.16607E-09          14            162                 0
  -------------------------------------------------------------------------------------------------------

  - Summary of Cholesky decomposition of electronic repulsion integrals:

     Final number of Cholesky vectors: 162

 - Testing the Cholesky decomposition decomposition electronic repulsion integrals:

     Maximal difference between approximate and actual diagonal:              0.4557E-12
     Minimal element of difference between approximate and actual diagonal:  -0.9513E-15

  - Settings for integral handling:

     Cholesky vectors in memory: True
     ERI matrix in memory:       False
     T1 ERI matrix in memory:    True

  - Finished decomposing the ERIs.

     Total wall time (sec):              0.25400
     Total cpu time (sec):               0.39622


  2) Preparation of MO basis and integrals


  3) Calculation of the ground state (diis algorithm)

   - DIIS coupled cluster ground state solver
  ----------------------------------------------

  A DIIS CC ground state amplitude equations solver. It uses an extrapolation 
  of previous quasi-Newton perturbation theory estimates of the next amplitudes. 
  See Helgaker et al., Molecular Electronic Structure Theory, Chapter 
  13.

  - CC ground state solver settings:

  - Convergence thresholds

     Residual threshold:            0.1000E-10
     Energy threshold:              0.1000E-10
     Max number of iterations:      100

  - DIIS tool settings:

     DIIS dimension:   8

     Storage (cc_gs_diis_errors): file
     Storage (cc_gs_diis_parameters): file

  Iteration    Energy (a.u.)        |omega|       Delta E (a.u.)
  ---------------------------------------------------------------
    1          -166.764536146195     0.6750E-01     0.1668E+03
    2          -166.780354354757     0.2427E-01     0.1582E-01
    3          -166.787423492652     0.4111E-02     0.7069E-02
    4          -166.787823189133     0.1017E-02     0.3997E-03
    5          -166.787771294821     0.1406E-03     0.5189E-04
    6          -166.787760503360     0.3679E-04     0.1079E-04
    7          -166.787760863291     0.8490E-05     0.3599E-06
    8          -166.787760648487     0.1960E-05     0.2148E-06
    9          -166.787760483604     0.4174E-06     0.1649E-06
   10          -166.787760465038     0.1315E-06     0.1857E-07
   11          -166.787760466948     0.3060E-07     0.1910E-08
   12          -166.787760468234     0.7151E-08     0.1286E-08
   13          -166.787760467493     0.8073E-09     0.7410E-09
   14          -166.787760467452     0.2540E-09     0.4113E-10
   15          -166.787760467468     0.5367E-10     0.1572E-10
   16          -166.787760467472     0.1071E-10     0.3951E-11
   17          -166.787760467472     0.2323E-11     0.5684E-13
  ---------------------------------------------------------------
  Convergence criterion met in 17 iterations!

  - Ground state summary:

     Final ground state energy (a.u.):  -166.787760467472

     Correlation energy (a.u.):           -0.113161340241

     Largest single amplitudes:
     -----------------------------------
        a       i         t(a,i)
     -----------------------------------
        1      5        0.013740327585
        2      4        0.002370572850
        2      3       -0.001794827849
        2      2        0.001647663358
        2      1        0.001388943121
        5      2       -0.001211074158
        5      1        0.000877552811
        3      2        0.000725795074
        4      4       -0.000700010467
        4      1        0.000528063774
     ------------------------------------

     Largest double amplitudes:
     --------------------------------------------------
        a      i       b      j         t(ai,bj)
     --------------------------------------------------
        1      5       1      5       -0.154606467339
        5      4       1      5       -0.043452554179
        4      3       4      3       -0.037303065961
        2      2       2      2       -0.037130437728
        5      4       5      4       -0.035935760460
        5      2       1      5        0.032516493757
        3      1       3      1       -0.029138014637
        3      3       3      3       -0.028552206144
        3      1       1      5       -0.027669085635
        2      4       2      4       -0.026501123492
     --------------------------------------------------

  - Finished solving the CCSD ground state equations

     Total wall time (sec):              0.11900
     Total cpu time (sec):               0.14035

  - Timings for the CCSD ground state calculation

     Total wall time (sec):              0.37400
     Total cpu time (sec):               0.53761

  ------------------------------------------------------------

  Peak memory usage during the execution of eT: 866.920 KB

  Total wall time in eT (sec):              1.61800
  Total cpu time in eT (sec):               2.82089

  Calculation ended: 2021-10-06 10:32:21 UTC +02:00

  - Implementation references:

     eT: https://doi.org/10.1063/5.0004713
     Cholesky decomposition of ERIs: https://doi.org/10.1063/1.5083802

  eT terminated successfully!
