


                     eT 1.5 - an electronic structure program

  ------------------------------------------------------------------------
   Author list in alphabetical order:
  ------------------------------------------------------------------------
   J. H. Andersen, A. Balbi, S. Coriani, S. D. Folkestad, T. Giovannini, 
   L. Goletto, T. S. Haugland, A. Hutcheson, I-M. Høyvik, E. F. Kjønstad, 
   H. Koch, T. Moitra, R. H. Myhre, A. C. Paul, S. Roet, M. Scavino, 
   A. Skeidsvoll, Å. H. Tveten
  ------------------------------------------------------------------------
   J. Chem. Phys. 152, 184103 (2020); https://doi.org/10.1063/5.0004713


   This is eT 1.5.0 Furia (development)
  ------------------------------------------------------------
  Configuration date: 2021-10-06 10:20:02 UTC +02:00
  Git branch:         hf-cleanup-oao-stuff
  Git hash:           82fed81e1022a04236e45d2edec97a412b5fa7bd
  Fortran compiler:   GNU 10.3.0
  C compiler:         GNU 10.3.0
  C++ compiler:       GNU 10.3.0
  LAPACK type:        SYSTEM_NATIVE
  BLAS type:          SYSTEM_NATIVE
  64-bit integers:    OFF
  OpenMP:             ON
  PCM:                OFF
  Forced batching:    OFF
  Runtime checks:     OFF
  ------------------------------------------------------------

  Calculation started: 2021-10-06 10:31:16 UTC +02:00


  :: Input file
  ================

     Note: geometry section is excluded from this print

     system
        name: H2O He
        charge: 0
     end system

     do
        ground state
        excited state
     end do

     memory
        available: 8
     end memory

     solver cholesky
        threshold: 1.0d-12
     end solver cholesky

     solver scf
        algorithm:          scf-diis
        energy threshold:   1.0d-11
        gradient threshold: 1.0d-11
     end solver scf

     method
        hf
        mlcc2
     end method

     solver cc gs
        omega threshold:  1.0d-11
        energy threshold: 1.0d-11
     end solver cc gs

     solver cc es
        algorithm:          davidson
        singlet states:     4
        residual threshold: 1.0d-11
        energy threshold:   1.0d-11
        right eigenvectors
     end solver cc es

     mlcc
        cc2 orbitals: nto-canonical
        nto occupied cc2: 6
        canonical virtual cc2: 23
        nto states: {1,2,3,4}
     end mlcc


  Running on 2 OMP threads
  Memory available for calculation: 8.000000 GB


  :: RHF wavefunction
  ======================

     ==============================================================================
                                     Geometry (angstrom)
     ==============================================================================
        Atom           X                  Y                  Z         # in input
     ==============================================================================
        Basis: cc-pvdz
        1  H     0.866810000000     0.601440000000     5.000000000000        1
        2  H    -0.866810000000     0.601440000000     5.000000000000        2
        3  O     0.000000000000    -0.075790000000     5.000000000000        3
        4 He     0.100000000000    -0.020000000000     7.530000000000        4
     ==============================================================================

     ==============================================================================
                                     Geometry (a.u.)
     ==============================================================================
        Atom           X                  Y                  Z         # in input
     ==============================================================================
        Basis: cc-pvdz
        1  H     1.638033502034     1.136556880358     9.448630622825        1
        2  H    -1.638033502034     1.136556880358     9.448630622825        2
        3  O     0.000000000000    -0.143222342981     9.448630622825        3
        4 He     0.188972612457    -0.037794522491    14.229637717975        4
     ==============================================================================

  - Cholesky decomposition of AO overlap to get linearly independent AOs:

     Linear dependence threshold:             0.10E-05
     Number of atomic orbitals:               29
     Number of orthonormal atomic orbitals:   29

  - Molecular orbital details:

     Number of occupied orbitals:         6
     Number of virtual orbitals:         23
     Number of molecular orbitals:       29


  :: Hartree-Fock engine
  =========================

  Drives the calculation of the Hartree-Fock state.

  This is a RHF ground state calculation.
  The following tasks will be performed:

     1) Generate initial SAD density
     2) Calculation of reference state (SCF-DIIS algorithm)


  1) Generate initial SAD density


  2) Calculation of reference state (SCF-DIIS algorithm)

  - SCF solver settings:

     Maximum iterations:                   100
     Acceleration type:                   diis

  - Convergence thresholds

     Residual threshold:            0.1000E-10
     Energy threshold:              0.1000E-10

  - Setting initial AO density to sad

     Energy of initial guess:               -78.492022836321
     Number of electrons in guess:           12.000000000000

  - Screening and integral thresholds:

     Coulomb screening threshold:    0.1000E-16
     Exchange screening threshold:   0.1000E-14
     ERI cutoff:                     0.1000E-16
     One-electron integral  cutoff:  0.1000E-21
     Cumulative Fock threshold:      0.1000E+01

  - DIIS tool settings:

     DIIS dimension:   8

     Storage (solver scf_errors): memory
     Storage (solver scf_parameters): memory

  Iteration       Energy (a.u.)      Max(grad.)    Delta E (a.u.)
  ---------------------------------------------------------------
     1           -78.796606592585     0.9786E-01     0.7880E+02
     2           -78.828675852654     0.7077E-01     0.3207E-01
     3           -78.843487343819     0.6747E-02     0.1481E-01
     4           -78.843814479549     0.2753E-02     0.3271E-03
     5           -78.843850612079     0.3973E-03     0.3613E-04
     6           -78.843851670925     0.5220E-04     0.1059E-05
     7           -78.843851692779     0.6096E-05     0.2185E-07
     8           -78.843851693528     0.2137E-05     0.7487E-09
     9           -78.843851693630     0.3151E-06     0.1027E-09
    10           -78.843851693631     0.2637E-07     0.4547E-12
    11           -78.843851693631     0.5634E-08     0.0000E+00
    12           -78.843851693631     0.1415E-08     0.2842E-13
    13           -78.843851693631     0.6806E-09     0.1421E-13
    14           -78.843851693631     0.1491E-09     0.2842E-13
    15           -78.843851693631     0.2501E-10     0.8527E-13
    16           -78.843851693631     0.5168E-11     0.5684E-13
  ---------------------------------------------------------------
  Convergence criterion met in 16 iterations!

  - Summary of RHF wavefunction energetics (a.u.):

     HOMO-LUMO gap:                  0.645629080245
     Nuclear repulsion energy:      12.116100574587
     Electronic energy:            -90.959952268218
     Total energy:                 -78.843851693631

  - Timings for the RHF ground state calculation

     Total wall time (sec):              1.00600
     Total cpu time (sec):               1.71327


  :: MLCC2 wavefunction
  ========================

     Bath orbital(s):         False

   - Number of orbitals:

     Occupied orbitals:    6
     Virtual orbitals:     23
     Molecular orbitals:   29
     Atomic orbitals:      29


  :: Excited state coupled cluster engine
  ==========================================

  Calculates the coupled cluster excitation vectors and excitation energies

  This is a MLCC2 excited state calculation.
  The following tasks will be performed:

     1) Cholesky decomposition of the electron repulsion integrals
     2) Preparation of MO basis and integrals
     3) Calculation of the ground state (diis algorithm)
     4) Calculation of the excited state (davidson algorithm)


  1) Cholesky decomposition of the electron repulsion integrals

   - Cholesky decomposition of electronic repulsion integrals solver
  ---------------------------------------------------------------------

  Performs a Cholesky decomposition of the two-electron electronic repulsion 
  integrals in the atomic orbital basis,

  (ab|cd) = sum_J L_ab^J L_cd^J.

  Once the Cholesky basis has been determined, the vectors L^J are constructed 
  and stored to disk. These may either be used directly, or be transformed 
  to the MO basis for use in post-HF calculations. For more information, 
  see S. D. Folkestad, E. F. Kjønstad and H. Koch, JCP, 150(19), (2019)

  - Cholesky decomposition settings:

     Target threshold is:   0.10E-11
     Span factor:           0.10E-01
     Max qual:                  1000

  - Cholesky decomposition ao details:

     Total number of AOs:                    29
     Total number of shell pairs:           120
     Total number of AO pairs:              435

     Significant shell pairs:               118
     Significant AO pairs:                  431

     Construct shell pairs:                 120
     Construct AO pairs:                    435

  Iter.  #Sign. ao pairs / shell pairs   Max diagonal    #Qualified    #Cholesky    Cholesky array size
  -------------------------------------------------------------------------------------------------------
     1               406 /     108       0.47383E+01         147             42             17052
     2               319 /      93       0.47165E-01         234            111             35409
     3               250 /      76       0.46944E-03         178            183             45750
     4               187 /      55       0.38270E-05         145            265             49555
     5                87 /      25       0.38106E-07          78            324             28188
     6                21 /       3       0.37202E-09          43            349              7329
     7                 0 /       0       0.36652E-11           7            354                 0
  -------------------------------------------------------------------------------------------------------

  - Summary of Cholesky decomposition of electronic repulsion integrals:

     Final number of Cholesky vectors: 354

 - Testing the Cholesky decomposition decomposition electronic repulsion integrals:

     Maximal difference between approximate and actual diagonal:              0.7161E-12
     Minimal element of difference between approximate and actual diagonal:  -0.1238E-14

  - Settings for integral handling:

     Cholesky vectors in memory: True
     ERI matrix in memory:       False
     T1 ERI matrix in memory:    False

  - Finished decomposing the ERIs.

     Total wall time (sec):              0.40100
     Total cpu time (sec):               0.61647


  2) Preparation of MO basis and integrals

  Running CCS calculation for NTOs/CNTOs.

  - Summary of CCS calculation for NTOs/CNTOs:

     Wall time for CCS ground calculation (sec):                   0.01
     CPU time for CCS ground calculation (sec):                    0.01

     Wall time for CCS excited calculation (sec):                  0.17
     CPU time for CCS excited calculation (sec):                   0.17

  - MLCC2 orbital partitioning:

     Orbital type: nto-canonical

     Number occupied cc2 orbitals:    6
     Number virtual cc2 orbitals:    23

     Number occupied ccs orbitals:    0
     Number virtual ccs orbitals:     0

  Warning: no ccs orbitals in mlcc2 calculation, recomended to run standard 
           cc2 code.


  3) Calculation of the ground state (diis algorithm)

   - DIIS coupled cluster ground state solver
  ----------------------------------------------

  A DIIS CC ground state amplitude equations solver. It uses an extrapolation 
  of previous quasi-Newton perturbation theory estimates of the next amplitudes. 
  See Helgaker et al., Molecular Electronic Structure Theory, Chapter 
  13.

  - CC ground state solver settings:

  - Convergence thresholds

     Residual threshold:            0.1000E-10
     Energy threshold:              0.1000E-10
     Max number of iterations:      100

  - DIIS tool settings:

     DIIS dimension:   8

     Storage (cc_gs_diis_errors): file
     Storage (cc_gs_diis_parameters): file

  Iteration    Energy (a.u.)        |omega|       Delta E (a.u.)
  ---------------------------------------------------------------
    1           -79.084241931608     0.3734E-01     0.7908E+02
    2           -79.085431671929     0.7567E-02     0.1190E-02
    3           -79.085759807021     0.9940E-03     0.3281E-03
    4           -79.085768585650     0.1833E-03     0.8779E-05
    5           -79.085769937826     0.3615E-04     0.1352E-05
    6           -79.085769725742     0.6004E-05     0.2121E-06
    7           -79.085769729164     0.2063E-05     0.3422E-08
    8           -79.085769729229     0.3646E-06     0.6527E-10
    9           -79.085769729230     0.3393E-07     0.9095E-12
   10           -79.085769729553     0.4633E-08     0.3225E-09
   11           -79.085769729585     0.9303E-09     0.3266E-10
   12           -79.085769729575     0.2416E-09     0.1074E-10
   13           -79.085769729575     0.4926E-10     0.4690E-12
   14           -79.085769729576     0.6368E-11     0.3837E-12
  ---------------------------------------------------------------
  Convergence criterion met in 14 iterations!

  - Ground state summary:

     Final ground state energy (a.u.):   -79.085769729576

     Correlation energy (a.u.):           -0.241918035945

     Largest single amplitudes:
     -----------------------------------
        a       i         t(a,i)
     -----------------------------------
        1      5        0.015071367764
       14      4       -0.009516336778
        7      4        0.008547796584
       15      5       -0.006232215147
        5      6        0.005875107061
        6      2        0.005220429230
       13      5        0.005212699582
        2      4        0.005071084624
       11      6       -0.003616248565
        4      5        0.003233309229
     ------------------------------------

  - Finished solving the MLCC2 ground state equations

     Total wall time (sec):              0.14500
     Total cpu time (sec):               0.17499


  4) Calculation of the excited state (davidson algorithm)
     Calculating right vectors

   - Davidson coupled cluster excited state solver
  ---------------------------------------------------

  A Davidson solver that calculates the lowest eigenvalues and the right 
  or left eigenvectors of the Jacobian matrix, A. The eigenvalue problem 
  is solved in a reduced space, the dimension of which is expanded until 
  the convergence criteria are met.

  A complete description of the algorithm can be found in E. R. Davidson, 
  J. Comput. Phys. 17, 87 (1975).

  - Settings for coupled cluster excited state solver (Davidson):

     Calculation type:    valence
     Excitation vectors:  right

  - Convergence thresholds

     Residual threshold:            0.1000E-10
     Energy threshold:              0.1000E-10

     Number of singlet states:               4
     Max number of iterations:             100

   - Davidson tool settings:

     Number of parameters:                 9729
     Number of requested solutions:           4
     Max reduced space dimension:           100

     Storage (cc_es_davidson_trials): file
     Storage (cc_es_davidson_transforms): file

  Iteration:                  1
  Reduced space dimension:    4

   Root  Eigenvalue (Re)   Eigenvalue (Im)    |residual|   Delta E (Re)
  ------------------------------------------------------------------------
     1   0.375003176974    0.000000000000     0.4812E+00   0.3750E+00
     2   0.446770340083    0.000000000000     0.4843E+00   0.4468E+00
     3   0.480653291068    0.000000000000     0.4579E+00   0.4807E+00
     4   0.534883245348    0.000000000000     0.4555E+00   0.5349E+00
  ------------------------------------------------------------------------

  Iteration:                  2
  Reduced space dimension:    8

   Root  Eigenvalue (Re)   Eigenvalue (Im)    |residual|   Delta E (Re)
  ------------------------------------------------------------------------
     1   0.246650345585    0.000000000000     0.5065E-01   0.1284E+00
     2   0.314083924344    0.000000000000     0.6604E-01   0.1327E+00
     3   0.357502456642    0.000000000000     0.6719E-01   0.1232E+00
     4   0.422300873731    0.000000000000     0.6150E-01   0.1126E+00
  ------------------------------------------------------------------------

  Iteration:                  3
  Reduced space dimension:   12

   Root  Eigenvalue (Re)   Eigenvalue (Im)    |residual|   Delta E (Re)
  ------------------------------------------------------------------------
     1   0.245809384236    0.000000000000     0.1666E-01   0.8410E-03
     2   0.312283030703    0.000000000000     0.2718E-01   0.1801E-02
     3   0.353929276202    0.000000000000     0.3102E-01   0.3573E-02
     4   0.419608577447    0.000000000000     0.3189E-01   0.2692E-02
  ------------------------------------------------------------------------

  Iteration:                  4
  Reduced space dimension:   16

   Root  Eigenvalue (Re)   Eigenvalue (Im)    |residual|   Delta E (Re)
  ------------------------------------------------------------------------
     1   0.245929213052    0.000000000000     0.4755E-02   0.1198E-03
     2   0.312438517457    0.000000000000     0.6870E-02   0.1555E-03
     3   0.354451561265    0.000000000000     0.7456E-02   0.5223E-03
     4   0.419315824896    0.000000000000     0.1744E-01   0.2928E-03
  ------------------------------------------------------------------------

  Iteration:                  5
  Reduced space dimension:   20

   Root  Eigenvalue (Re)   Eigenvalue (Im)    |residual|   Delta E (Re)
  ------------------------------------------------------------------------
     1   0.245990306935    0.000000000000     0.8154E-03   0.6109E-04
     2   0.312522740437    0.000000000000     0.1664E-02   0.8422E-04
     3   0.354228820878    0.000000000000     0.3070E-02   0.2227E-03
     4   0.418705404181    0.000000000000     0.2062E-01   0.6104E-03
  ------------------------------------------------------------------------

  Iteration:                  6
  Reduced space dimension:   24

   Root  Eigenvalue (Re)   Eigenvalue (Im)    |residual|   Delta E (Re)
  ------------------------------------------------------------------------
     1   0.245983821636    0.000000000000     0.1529E-03   0.6485E-05
     2   0.312495753541    0.000000000000     0.2603E-03   0.2699E-04
     3   0.354261514660    0.000000000000     0.1084E-02   0.3269E-04
     4   0.418093420699    0.000000000000     0.6916E-02   0.6120E-03
  ------------------------------------------------------------------------

  Iteration:                  7
  Reduced space dimension:   28

   Root  Eigenvalue (Re)   Eigenvalue (Im)    |residual|   Delta E (Re)
  ------------------------------------------------------------------------
     1   0.245983343004    0.000000000000     0.3147E-04   0.4786E-06
     2   0.312492854228    0.000000000000     0.4546E-04   0.2899E-05
     3   0.354258452011    0.000000000000     0.2782E-03   0.3063E-05
     4   0.418005210587    0.000000000000     0.2277E-02   0.8821E-04
  ------------------------------------------------------------------------

  Iteration:                  8
  Reduced space dimension:   32

   Root  Eigenvalue (Re)   Eigenvalue (Im)    |residual|   Delta E (Re)
  ------------------------------------------------------------------------
     1   0.245983491731    0.000000000000     0.5527E-05   0.1487E-06
     2   0.312493147788    0.000000000000     0.7314E-05   0.2936E-06
     3   0.354258690303    0.000000000000     0.8241E-04   0.2383E-06
     4   0.418037806914    0.000000000000     0.5787E-03   0.3260E-04
  ------------------------------------------------------------------------

  Iteration:                  9
  Reduced space dimension:   36

   Root  Eigenvalue (Re)   Eigenvalue (Im)    |residual|   Delta E (Re)
  ------------------------------------------------------------------------
     1   0.245983447316    0.000000000000     0.7691E-06   0.4441E-07
     2   0.312493151400    0.000000000000     0.1420E-05   0.3611E-08
     3   0.354257035477    0.000000000000     0.2198E-04   0.1655E-05
     4   0.418026102303    0.000000000000     0.1607E-03   0.1170E-04
  ------------------------------------------------------------------------

  Iteration:                 10
  Reduced space dimension:   40

   Root  Eigenvalue (Re)   Eigenvalue (Im)    |residual|   Delta E (Re)
  ------------------------------------------------------------------------
     1   0.245983441291    0.000000000000     0.1099E-06   0.6025E-08
     2   0.312493141277    0.000000000000     0.1652E-06   0.1012E-07
     3   0.354257116564    0.000000000000     0.5008E-05   0.8109E-07
     4   0.418025380598    0.000000000000     0.3546E-04   0.7217E-06
  ------------------------------------------------------------------------

  Iteration:                 11
  Reduced space dimension:   44

   Root  Eigenvalue (Re)   Eigenvalue (Im)    |residual|   Delta E (Re)
  ------------------------------------------------------------------------
     1   0.245983441327    0.000000000000     0.2709E-07   0.3576E-10
     2   0.312493140742    0.000000000000     0.2567E-07   0.5344E-09
     3   0.354257087591    0.000000000000     0.1317E-05   0.2897E-07
     4   0.418025407582    0.000000000000     0.8403E-05   0.2698E-07
  ------------------------------------------------------------------------

  Iteration:                 12
  Reduced space dimension:   48

   Root  Eigenvalue (Re)   Eigenvalue (Im)    |residual|   Delta E (Re)
  ------------------------------------------------------------------------
     1   0.245983441353    0.000000000000     0.4759E-08   0.2622E-10
     2   0.312493140826    0.000000000000     0.3361E-08   0.8376E-10
     3   0.354257074117    0.000000000000     0.2693E-06   0.1347E-07
     4   0.418025383346    0.000000000000     0.1469E-05   0.2424E-07
  ------------------------------------------------------------------------

  Iteration:                 13
  Reduced space dimension:   52

   Root  Eigenvalue (Re)   Eigenvalue (Im)    |residual|   Delta E (Re)
  ------------------------------------------------------------------------
     1   0.245983441341    0.000000000000     0.1116E-08   0.1257E-10
     2   0.312493140825    0.000000000000     0.6293E-09   0.1449E-11
     3   0.354257072981    0.000000000000     0.4420E-07   0.1135E-08
     4   0.418025352618    0.000000000000     0.2854E-06   0.3073E-07
  ------------------------------------------------------------------------

  Iteration:                 14
  Reduced space dimension:   56

   Root  Eigenvalue (Re)   Eigenvalue (Im)    |residual|   Delta E (Re)
  ------------------------------------------------------------------------
     1   0.245983441338    0.000000000000     0.1734E-09   0.2605E-11
     2   0.312493140824    0.000000000000     0.1172E-09   0.4762E-12
     3   0.354257072988    0.000000000000     0.9100E-08   0.6721E-11
     4   0.418025354389    0.000000000000     0.6563E-07   0.1772E-08
  ------------------------------------------------------------------------

  Iteration:                 15
  Reduced space dimension:   60

   Root  Eigenvalue (Re)   Eigenvalue (Im)    |residual|   Delta E (Re)
  ------------------------------------------------------------------------
     1   0.245983441338    0.000000000000     0.3235E-10   0.3731E-12
     2   0.312493140824    0.000000000000     0.2302E-10   0.2793E-12
     3   0.354257072930    0.000000000000     0.1841E-08   0.5798E-10
     4   0.418025354557    0.000000000000     0.1417E-07   0.1678E-09
  ------------------------------------------------------------------------

  Iteration:                 16
  Reduced space dimension:   64

   Root  Eigenvalue (Re)   Eigenvalue (Im)    |residual|   Delta E (Re)
  ------------------------------------------------------------------------
     1   0.245983441338    0.000000000000     0.5776E-11   0.7763E-13
     2   0.312493140824    0.000000000000     0.2292E-11   0.2204E-13
     3   0.354257072915    0.000000000000     0.3453E-09   0.1504E-10
     4   0.418025354492    0.000000000000     0.2867E-08   0.6482E-10
  ------------------------------------------------------------------------

  Iteration:                 17
  Reduced space dimension:   66

   Root  Eigenvalue (Re)   Eigenvalue (Im)    |residual|   Delta E (Re)
  ------------------------------------------------------------------------
     1   0.245983441338    0.000000000000     0.5705E-11   0.1860E-14
     2   0.312493140824    0.000000000000     0.2010E-11   0.5662E-14
     3   0.354257072917    0.000000000000     0.8510E-10   0.1604E-11
     4   0.418025354494    0.000000000000     0.5703E-09   0.1475E-11
  ------------------------------------------------------------------------

  Iteration:                 18
  Reduced space dimension:   68

   Root  Eigenvalue (Re)   Eigenvalue (Im)    |residual|   Delta E (Re)
  ------------------------------------------------------------------------
     1   0.245983441338    0.000000000000     0.5693E-11   0.1776E-14
     2   0.312493140824    0.000000000000     0.1969E-11   0.2776E-14
     3   0.354257072917    0.000000000000     0.1476E-10   0.1391E-12
     4   0.418025354496    0.000000000000     0.1122E-09   0.2226E-11
  ------------------------------------------------------------------------

  Iteration:                 19
  Reduced space dimension:   70

   Root  Eigenvalue (Re)   Eigenvalue (Im)    |residual|   Delta E (Re)
  ------------------------------------------------------------------------
     1   0.245983441338    0.000000000000     0.5690E-11   0.3136E-14
     2   0.312493140824    0.000000000000     0.1963E-11   0.4163E-14
     3   0.354257072916    0.000000000000     0.3240E-11   0.1110E-13
     4   0.418025354496    0.000000000000     0.2043E-10   0.1971E-12
  ------------------------------------------------------------------------

  Iteration:                 20
  Reduced space dimension:   71

   Root  Eigenvalue (Re)   Eigenvalue (Im)    |residual|   Delta E (Re)
  ------------------------------------------------------------------------
     1   0.245983441338    0.000000000000     0.5690E-11   0.2137E-14
     2   0.312493140824    0.000000000000     0.1964E-11   0.4385E-14
     3   0.354257072916    0.000000000000     0.3239E-11   0.1277E-14
     4   0.418025354496    0.000000000000     0.2859E-11   0.3858E-13
  ------------------------------------------------------------------------
  Convergence criterion met in 20 iterations!

  - Excitation vector amplitudes:

     Electronic state nr. 1

     Energy (Hartree):                  0.245983441338
     Fraction singles (|R1|/|R|):       0.980304305798

     MLCC diagnostics:

     |R1^internal|/|R| =       0.980304305798
     |R1^internal|/|R1| =      1.000000000000

     Largest single amplitudes:
     -----------------------------------
        a       i         R(a,i)
     -----------------------------------
        1      6       -0.973021602897
        4      6       -0.106789400090
        6      6        0.036115666381
       13      6        0.029969632229
        1      3        0.011639320545
       22      6       -0.007968761286
        1      5       -0.007878549039
       19      5        0.007714058164
        9      6        0.007315563576
       20      4        0.006976576961
     ------------------------------------

     Electronic state nr. 2

     Energy (Hartree):                  0.312493140824
     Fraction singles (|R1|/|R|):       0.981441033025

     MLCC diagnostics:

     |R1^internal|/|R| =       0.981441033025
     |R1^internal|/|R1| =      1.000000000000

     Largest single amplitudes:
     -----------------------------------
        a       i         R(a,i)
     -----------------------------------
        2      6        0.965628997074
        3      6        0.158512867310
        7      6       -0.070134692771
       14      6        0.021348644736
        2      3       -0.011607275501
       12      6       -0.006210517823
        2      5        0.005382310327
        8      2       -0.005308524736
        5      4       -0.004510972656
       11      4       -0.003272191867
     ------------------------------------

     Electronic state nr. 3

     Energy (Hartree):                  0.354257072916
     Fraction singles (|R1|/|R|):       0.983257567056

     MLCC diagnostics:

     |R1^internal|/|R| =       0.983257567056
     |R1^internal|/|R1| =      1.000000000000

     Largest single amplitudes:
     -----------------------------------
        a       i         R(a,i)
     -----------------------------------
        1      5        0.965285743630
        2      4       -0.132449574673
        4      5        0.076819133272
        1      2       -0.068258196361
        3      4       -0.051829802690
        5      6       -0.039876044707
       13      5       -0.028798153835
        7      4        0.026087665160
        4      2       -0.018477884696
       10      5        0.013058391633
     ------------------------------------

     Electronic state nr. 4

     Energy (Hartree):                  0.418025354496
     Fraction singles (|R1|/|R|):       0.982264305191

     MLCC diagnostics:

     |R1^internal|/|R| =       0.982264305191
     |R1^internal|/|R1| =      1.000000000000

     Largest single amplitudes:
     -----------------------------------
        a       i         R(a,i)
     -----------------------------------
        2      5       -0.947047794653
        1      4        0.214995854407
        3      5       -0.108409956418
        7      5        0.069257336147
        4      4        0.060000555568
        2      2        0.023818797678
        8      6       -0.015066880567
       15      4        0.012597150542
       20      6       -0.010167354110
       14      5       -0.009501846973
     ------------------------------------

     - Electronic excitation energies:

                                      Excitation energy
                          ------------------------------------------
      State                (Hartree)             (eV)
     ---------------------------------------------------------------
        1                  0.245983441338        6.693550376789
        2                  0.312493140824        8.503371483565
        3                  0.354257072916        9.639825961446
        4                  0.418025354496       11.375049287347
     ---------------------------------------------------------------
     eV/Hartree (CODATA 2014): 27.21138602

  - Finished solving the MLCC2 excited state equations (right)

     Total wall time (sec):              1.14100
     Total cpu time (sec):               1.24327

  - Timings for the MLCC2 excited state calculation

     Total wall time (sec):              1.89900
     Total cpu time (sec):               2.25527

  ------------------------------------------------------------

  Peak memory usage during the execution of eT: 11.648068 MB

  :: There was 1 warning during the execution of eT. ::

  Total wall time in eT (sec):              2.96500
  Total cpu time in eT (sec):               4.02739

  Calculation ended: 2021-10-06 10:31:19 UTC +02:00

  - Implementation references:

     eT: https://doi.org/10.1063/5.0004713
     MLCC2 and MLCCSD: https://doi.org/10.1021/acs.jctc.9b00701
     Cholesky decomposition of ERIs: https://doi.org/10.1063/1.5083802

  eT terminated successfully!
