


                     eT 1.5 - an electronic structure program

  ------------------------------------------------------------------------
   Author list in alphabetical order:
  ------------------------------------------------------------------------
   J. H. Andersen, A. Balbi, S. Coriani, S. D. Folkestad, T. Giovannini, 
   L. Goletto, T. S. Haugland, A. Hutcheson, I-M. Høyvik, E. F. Kjønstad, 
   H. Koch, T. Moitra, R. H. Myhre, A. C. Paul, S. Roet, M. Scavino, 
   A. Skeidsvoll, Å. H. Tveten
  ------------------------------------------------------------------------
   J. Chem. Phys. 152, 184103 (2020); https://doi.org/10.1063/5.0004713


   This is eT 1.5.0 Furia (development)
  ------------------------------------------------------------
  Configuration date: 2021-10-06 10:20:02 UTC +02:00
  Git branch:         hf-cleanup-oao-stuff
  Git hash:           82fed81e1022a04236e45d2edec97a412b5fa7bd
  Fortran compiler:   GNU 10.3.0
  C compiler:         GNU 10.3.0
  C++ compiler:       GNU 10.3.0
  LAPACK type:        SYSTEM_NATIVE
  BLAS type:          SYSTEM_NATIVE
  64-bit integers:    OFF
  OpenMP:             ON
  PCM:                OFF
  Forced batching:    OFF
  Runtime checks:     OFF
  ------------------------------------------------------------

  Calculation started: 2021-10-06 10:32:18 UTC +02:00


  :: Input file
  ================

     Note: geometry section is excluded from this print

     system
        name: H2O
        charge: 0
     end system

     method
        hf
        ccsd
     end method

     memory
        available: 8
     end memory

     solver cholesky
        threshold: 1.0d-12
     end solver cholesky

     solver scf
        algorithm:          scf-diis
        energy threshold:   1.0d-10
        gradient threshold: 1.0d-10
     end solver scf

     solver cc gs
        omega threshold:  1.0d-10
        energy threshold: 1.0d-10
     end solver cc gs

     solver cc multipliers
        threshold: 1.0d-10
     end solver cc multipliers

     molecular mechanics
        forcefield: fq
     end molecular mechanics

     do
        ground state
     end do


  Running on 2 OMP threads
  Memory available for calculation: 8.000000 GB


  :: RHF wavefunction
  ======================

     ==============================================================================
                                     Geometry (angstrom)
     ==============================================================================
        Atom           X                  Y                  Z         # in input
     ==============================================================================
        Basis: cc-pvdz
        1  O     0.009319000000     1.133156000000     0.000000000000        1
        2  H     0.023452000000     0.185621000000     0.000000000000        2
        3  H     0.906315000000     1.422088000000     0.000000000000        3
     ==============================================================================

     ==============================================================================
                                     Geometry (a.u.)
     ==============================================================================
        Atom           X                  Y                  Z         # in input
     ==============================================================================
        Basis: cc-pvdz
        1  O     0.017610357755     2.141354496408     0.000000000000        1
        2  H     0.044317857073     0.350772852968     0.000000000000        2
        3  H     1.712687132585     2.687356845030     0.000000000000        3
     ==============================================================================

  - Cholesky decomposition of AO overlap to get linearly independent AOs:

     Linear dependence threshold:             0.10E-05
     Number of atomic orbitals:               24
     Number of orthonormal atomic orbitals:   24

  This is a QM/MM calculation

     Polarizable Embedding: FQ

     Each atom of the MM portion is endowed with a charge which value 
     can vary in agreement with the ElectronegativityEqualization Principle 
     (EEP), which states that at the equilibrium each atom has the same 
     electronegativity.

     The force field is defined in terms of electronegativity (Chi) and 
     chemical hardness (Eta), which are specified for each MM atom.

     The QM/MM electrostatic interaction energy is defined as:

        E^ele_QM/MM = sum_i q_i * V_i(P)

     where V_i(P) is the electrostatic potential due to the QMdensity 
     calculated at the position of the i-th charge q_i.The values of the 
     charges are obtained by solving a linearequation:

        Dq = -Chi - V(P)

     For further details, see:
     T.Giovannini, F.Egidi, C.Cappelli, Chem. Soc. Rev., 2020, 49, 5664-5677

     CC calculation: zero-order approximation
     FQ charges only affect MOs and Fock


     ====================================================================
                                MM Geometry (angstrom)
     ====================================================================
     Atom    Mol         X          Y          Z         Chi        Eta
     ====================================================================
      O       1    -0.042964  -1.404707  -0.000000   0.116859   0.584852
      H       1    -0.419020  -1.818953   0.760190   0.000000   0.625010
      H       1    -0.419020  -1.818953  -0.760190   0.000000   0.625010
     ====================================================================

     ====================================================================
                                MM Geometry (a.u.)
     ====================================================================
     Atom    Mol         X          Y          Z         Chi        Eta
     ====================================================================
      O       1    -0.081190  -2.654512  -0.000000   0.116859   0.584852
      H       1    -0.791833  -3.437323   1.436551   0.000000   0.625010
      H       1    -0.791833  -3.437323  -1.436551   0.000000   0.625010
     ====================================================================

  - Molecular orbital details:

     Number of occupied orbitals:         5
     Number of virtual orbitals:         19
     Number of molecular orbitals:       24


  :: Hartree-Fock engine
  =========================

  Drives the calculation of the Hartree-Fock state.

  This is a RHF ground state calculation.
  The following tasks will be performed:

     1) Generate initial SAD density
     2) Calculation of reference state (SCF-DIIS algorithm)


  1) Generate initial SAD density


  2) Calculation of reference state (SCF-DIIS algorithm)

  - SCF solver settings:

     Maximum iterations:                   100
     Acceleration type:                   diis

  - Convergence thresholds

     Residual threshold:            0.1000E-09
     Energy threshold:              0.1000E-09

  - Setting initial AO density to sad

     Energy of initial guess:               -75.948349660986
     Number of electrons in guess:           10.000000000000

  - Screening and integral thresholds:

     Coulomb screening threshold:    0.1000E-15
     Exchange screening threshold:   0.1000E-13
     ERI cutoff:                     0.1000E-15
     One-electron integral  cutoff:  0.1000E-20
     Cumulative Fock threshold:      0.1000E+01

  - DIIS tool settings:

     DIIS dimension:   8

     Storage (solver scf_errors): memory
     Storage (solver scf_parameters): memory

  Iteration       Energy (a.u.)      Max(grad.)    Delta E (a.u.)
  ---------------------------------------------------------------
     1           -76.030467272437     0.9245E-01     0.7603E+02
     2           -76.060213481293     0.5151E-01     0.2975E-01
     3           -76.069174693888     0.3903E-02     0.8961E-02
     4           -76.069341656812     0.9539E-03     0.1670E-03
     5           -76.069353258480     0.1832E-03     0.1160E-04
     6           -76.069353670717     0.3504E-04     0.4122E-06
     7           -76.069353682126     0.3105E-05     0.1141E-07
     8           -76.069353682236     0.5654E-06     0.1102E-09
     9           -76.069353682242     0.1316E-06     0.6040E-11
    10           -76.069353682243     0.2105E-07     0.4547E-12
    11           -76.069353682243     0.4778E-08     0.4263E-13
    12           -76.069353682243     0.1103E-08     0.4263E-13
    13           -76.069353682243     0.1712E-09     0.4263E-13
    14           -76.069353682243     0.5663E-10     0.1421E-13
  ---------------------------------------------------------------
  Convergence criterion met in 14 iterations!

  - Summary of RHF wavefunction energetics (a.u.):

     HOMO-LUMO gap:                  0.685069619950
     Nuclear repulsion energy:       9.307879526626
     Electronic energy:            -85.377233208869
     Total energy:                 -76.069353682243

  - Summary of QM/MM energetics:
                                         a.u.             eV     kcal/mol
     QM/MM SCF Contribution:        -0.043279063375    -1.17768   -27.158
     QM/MM Electrostatic Energy:    -0.014396934282    -0.39176    -9.034

  - Timings for the RHF ground state calculation

     Total wall time (sec):              0.74600
     Total cpu time (sec):               1.25802


  :: CCSD wavefunction
  =======================

     Bath orbital(s):         False

   - Number of orbitals:

     Occupied orbitals:    5
     Virtual orbitals:     19
     Molecular orbitals:   24
     Atomic orbitals:      24

   - Number of ground state amplitudes:

     Single excitation amplitudes:  95
     Double excitation amplitudes:  4560


  :: Ground state coupled cluster engine
  =========================================

  Calculates the ground state CC wavefunction | CC > = exp(T) | R >

  This is a CCSD ground state calculation.
  The following tasks will be performed:

     1) Cholesky decomposition of the electron repulsion integrals
     2) Preparation of MO basis and integrals
     3) Calculation of the ground state (diis algorithm)


  1) Cholesky decomposition of the electron repulsion integrals

   - Cholesky decomposition of electronic repulsion integrals solver
  ---------------------------------------------------------------------

  Performs a Cholesky decomposition of the two-electron electronic repulsion 
  integrals in the atomic orbital basis,

  (ab|cd) = sum_J L_ab^J L_cd^J.

  Once the Cholesky basis has been determined, the vectors L^J are constructed 
  and stored to disk. These may either be used directly, or be transformed 
  to the MO basis for use in post-HF calculations. For more information, 
  see S. D. Folkestad, E. F. Kjønstad and H. Koch, JCP, 150(19), (2019)

  - Cholesky decomposition settings:

     Target threshold is:   0.10E-11
     Span factor:           0.10E-01
     Max qual:                  1000

  - Cholesky decomposition ao details:

     Total number of AOs:                    24
     Total number of shell pairs:            78
     Total number of AO pairs:              300

     Significant shell pairs:                78
     Significant AO pairs:                  300

     Construct shell pairs:                  78
     Construct AO pairs:                    300

  Iter.  #Sign. ao pairs / shell pairs   Max diagonal    #Qualified    #Cholesky    Cholesky array size
  -------------------------------------------------------------------------------------------------------
     1               285 /      71       0.47383E+01         150             29              8265
     2               220 /      60       0.46828E-01         242             99             21780
     3               141 /      47       0.46528E-03         158            157             22137
     4               105 /      33       0.45055E-05         122            226             23730
     5                12 /       8       0.45032E-07          55            271              3252
     6                 0 /       0       0.23634E-09           9            279                 0
  -------------------------------------------------------------------------------------------------------

  - Summary of Cholesky decomposition of electronic repulsion integrals:

     Final number of Cholesky vectors: 279

 - Testing the Cholesky decomposition decomposition electronic repulsion integrals:

     Maximal difference between approximate and actual diagonal:              0.1995E-12
     Minimal element of difference between approximate and actual diagonal:  -0.1238E-14

  - Settings for integral handling:

     Cholesky vectors in memory: True
     ERI matrix in memory:       False
     T1 ERI matrix in memory:    True

  - Finished decomposing the ERIs.

     Total wall time (sec):              0.31600
     Total cpu time (sec):               0.45650


  2) Preparation of MO basis and integrals


  3) Calculation of the ground state (diis algorithm)

   - DIIS coupled cluster ground state solver
  ----------------------------------------------

  A DIIS CC ground state amplitude equations solver. It uses an extrapolation 
  of previous quasi-Newton perturbation theory estimates of the next amplitudes. 
  See Helgaker et al., Molecular Electronic Structure Theory, Chapter 
  13.

  - CC ground state solver settings:

  - Convergence thresholds

     Residual threshold:            0.1000E-09
     Energy threshold:              0.1000E-09
     Max number of iterations:      100

  - DIIS tool settings:

     DIIS dimension:   8

     Storage (cc_gs_diis_errors): file
     Storage (cc_gs_diis_parameters): file

  Iteration    Energy (a.u.)        |omega|       Delta E (a.u.)
  ---------------------------------------------------------------
    1           -76.271682357029     0.7444E-01     0.7627E+02
    2           -76.276783679953     0.2066E-01     0.5101E-02
    3           -76.280488827350     0.4734E-02     0.3705E-02
    4           -76.280892487091     0.1055E-02     0.4037E-03
    5           -76.280900964383     0.2103E-03     0.8477E-05
    6           -76.280909976397     0.6727E-04     0.9012E-05
    7           -76.280909135261     0.1733E-04     0.8411E-06
    8           -76.280908669112     0.4137E-05     0.4661E-06
    9           -76.280908579724     0.9655E-06     0.8939E-07
   10           -76.280908528566     0.2228E-06     0.5116E-07
   11           -76.280908543077     0.5014E-07     0.1451E-07
   12           -76.280908542156     0.9864E-08     0.9212E-09
   13           -76.280908542614     0.2662E-08     0.4575E-09
   14           -76.280908542479     0.7394E-09     0.1342E-09
   15           -76.280908542471     0.2272E-09     0.8299E-11
   16           -76.280908542471     0.4325E-10     0.1279E-12
  ---------------------------------------------------------------
  Convergence criterion met in 16 iterations!

  - Ground state summary:

     Final ground state energy (a.u.):   -76.280908542471

     Correlation energy (a.u.):           -0.211554860228

     Largest single amplitudes:
     -----------------------------------
        a       i         t(a,i)
     -----------------------------------
       13      3       -0.006759763627
        1      4       -0.005836090571
        2      3       -0.005618061023
       14      4       -0.004413514046
        1      2        0.004383675023
        5      2       -0.003986243346
        7      3        0.003949456204
       10      5       -0.003042991402
        8      4        0.002870184466
        4      4        0.002639343387
     ------------------------------------

     Largest double amplitudes:
     --------------------------------------------------
        a      i       b      j         t(ai,bj)
     --------------------------------------------------
        6      5       6      5       -0.051481946126
        5      4       5      4       -0.036603481807
        3      3       3      3       -0.035387214685
        5      4       6      5       -0.029270694689
        4      3       4      3       -0.028611385118
        2      3       2      3       -0.025315431105
        3      4       3      4       -0.024709303604
        7      3       6      5       -0.022866450903
        7      3       7      3       -0.022320386279
        2      3       6      5       -0.020380486011
     --------------------------------------------------

  - Finished solving the CCSD ground state equations

     Total wall time (sec):              0.20900
     Total cpu time (sec):               0.30664

  - Timings for the CCSD ground state calculation

     Total wall time (sec):              0.52600
     Total cpu time (sec):               0.76405

  ------------------------------------------------------------

  Peak memory usage during the execution of eT: 8.542120 MB

  Total wall time in eT (sec):              1.33900
  Total cpu time in eT (sec):               2.08875

  Calculation ended: 2021-10-06 10:32:20 UTC +02:00

  - Implementation references:

     eT: https://doi.org/10.1063/5.0004713
     Cholesky decomposition of ERIs: https://doi.org/10.1063/1.5083802

  eT terminated successfully!
