


                     eT 1.5 - an electronic structure program

  ------------------------------------------------------------------------
   Author list in alphabetical order:
  ------------------------------------------------------------------------
   J. H. Andersen, A. Balbi, S. Coriani, S. D. Folkestad, T. Giovannini, 
   L. Goletto, T. S. Haugland, A. Hutcheson, I-M. Høyvik, E. F. Kjønstad, 
   H. Koch, T. Moitra, R. H. Myhre, A. C. Paul, S. Roet, M. Scavino, 
   A. Skeidsvoll, Å. H. Tveten
  ------------------------------------------------------------------------
   J. Chem. Phys. 152, 184103 (2020); https://doi.org/10.1063/5.0004713


   This is eT 1.5.0 Furia (development)
  ------------------------------------------------------------
  Configuration date: 2021-10-06 10:20:02 UTC +02:00
  Git branch:         hf-cleanup-oao-stuff
  Git hash:           82fed81e1022a04236e45d2edec97a412b5fa7bd
  Fortran compiler:   GNU 10.3.0
  C compiler:         GNU 10.3.0
  C++ compiler:       GNU 10.3.0
  LAPACK type:        SYSTEM_NATIVE
  BLAS type:          SYSTEM_NATIVE
  64-bit integers:    OFF
  OpenMP:             ON
  PCM:                OFF
  Forced batching:    OFF
  Runtime checks:     OFF
  ------------------------------------------------------------

  Calculation started: 2021-10-06 10:30:05 UTC +02:00


  :: Input file
  ================

     Note: geometry section is excluded from this print

     system
       name: HOF He
       charge: 0
       multiplicity: 1
     end system

     do
       response
     end do

     method
       hf
       ccs
     end method

     solver scf
       gradient threshold: 1.0d-11
     end solver scf

     solver cholesky
       threshold: 1.0d-11
     end solver cholesky

     cc response
       lr
       polarizabilities: {11,13}
       frequencies: {0.02d0, 0.04d0, 0.06d0}
       dipole length
       transition moments
     end cc response

     solver cc es
       singlet states: 4
       residual threshold: 1.0d-11
     end solver cc es

     solver cc multipliers
       algorithm: davidson
       threshold: 1.0d-11
     end solver cc multipliers

     solver cc gs
       omega threshold: 1.0d-11
     end solver cc gs

     solver cc response
       threshold: 1.0d-11
     end solver cc response


  Running on 2 OMP threads
  Memory available for calculation: 8.000000 GB


  :: RHF wavefunction
  ======================

     ==============================================================================
                                     Geometry (angstrom)
     ==============================================================================
        Atom           X                  Y                  Z         # in input
     ==============================================================================
        Basis: cc-pvdz
        1  H     0.866810000000     0.601440000000     5.000000000000        1
        2  F    -0.866810000000     0.601440000000     5.000000000000        2
        3  O     0.000000000000    -0.075790000000     5.000000000000        3
        4 He     0.100000000000     0.100000000000     7.500000000000        4
     ==============================================================================

     ==============================================================================
                                     Geometry (a.u.)
     ==============================================================================
        Atom           X                  Y                  Z         # in input
     ==============================================================================
        Basis: cc-pvdz
        1  H     1.638033502034     1.136556880358     9.448630622825        1
        2  F    -1.638033502034     1.136556880358     9.448630622825        2
        3  O     0.000000000000    -0.143222342981     9.448630622825        3
        4 He     0.188972612457     0.188972612457    14.172945934238        4
     ==============================================================================

  - Cholesky decomposition of AO overlap to get linearly independent AOs:

     Linear dependence threshold:             0.10E-05
     Number of atomic orbitals:               38
     Number of orthonormal atomic orbitals:   38

  - Molecular orbital details:

     Number of occupied orbitals:        10
     Number of virtual orbitals:         28
     Number of molecular orbitals:       38


  :: Hartree-Fock engine
  =========================

  Drives the calculation of the Hartree-Fock state.

  This is a RHF ground state calculation.
  The following tasks will be performed:

     1) Generate initial SAD density
     2) Calculation of reference state (SCF-DIIS algorithm)


  1) Generate initial SAD density


  2) Calculation of reference state (SCF-DIIS algorithm)

  - SCF solver settings:

     Maximum iterations:                   100
     Acceleration type:                   diis

  - Convergence thresholds

     Residual threshold:            0.1000E-10

  - Setting initial AO density to sad

     Energy of initial guess:              -178.316435989155
     Number of electrons in guess:           20.000000000000

  - Screening and integral thresholds:

     Coulomb screening threshold:    0.1000E-16
     Exchange screening threshold:   0.1000E-14
     ERI cutoff:                     0.1000E-16
     One-electron integral  cutoff:  0.1000E-21
     Cumulative Fock threshold:      0.1000E+01

  - DIIS tool settings:

     DIIS dimension:   8

     Storage (solver scf_errors): memory
     Storage (solver scf_parameters): memory

  Iteration       Energy (a.u.)      Max(grad.)    Delta E (a.u.)
  ---------------------------------------------------------------
     1          -177.452460025510     0.7565E-01     0.1775E+03
     2          -177.479057956533     0.1129E-01     0.2660E-01
     3          -177.480052448592     0.4142E-02     0.9945E-03
     4          -177.480180104061     0.1387E-02     0.1277E-03
     5          -177.480194080187     0.4312E-03     0.1398E-04
     6          -177.480195433667     0.8262E-04     0.1353E-05
     7          -177.480195516708     0.2289E-04     0.8304E-07
     8          -177.480195527014     0.4801E-05     0.1031E-07
     9          -177.480195527843     0.1045E-05     0.8287E-09
    10          -177.480195527874     0.2388E-06     0.3081E-10
    11          -177.480195527875     0.5236E-07     0.9379E-12
    12          -177.480195527875     0.9618E-08     0.8527E-13
    13          -177.480195527875     0.4310E-08     0.5684E-13
    14          -177.480195527875     0.1983E-08     0.2842E-13
    15          -177.480195527875     0.6772E-09     0.2842E-13
    16          -177.480195527875     0.1634E-09     0.8527E-13
    17          -177.480195527875     0.4727E-10     0.2558E-12
    18          -177.480195527875     0.8077E-11     0.8527E-13
  ---------------------------------------------------------------
  Convergence criterion met in 18 iterations!

  - Summary of RHF wavefunction energetics (a.u.):

     HOMO-LUMO gap:                  0.600390987894
     Nuclear repulsion energy:      48.499011140898
     Electronic energy:           -225.979206668773
     Total energy:                -177.480195527875

  - Timings for the RHF ground state calculation

     Total wall time (sec):              2.72400
     Total cpu time (sec):               5.08243


  :: CCS wavefunction
  ======================

     Bath orbital(s):         False

   - Number of orbitals:

     Occupied orbitals:    10
     Virtual orbitals:     28
     Molecular orbitals:   38
     Atomic orbitals:      38

   - Number of ground state amplitudes:

     Single excitation amplitudes:  280


  :: Coupled cluster response engine
  =====================================

  Calculates dipole transition moments and oscillator strengths between 

  the ground state and the excited states.

  This is a CCS response calculation.
  The following tasks will be performed:

     1) Cholesky decomposition of the electron repulsion integrals
     2) Preparation of MO basis and integrals
     3) Calculation of the ground state (diis algorithm)
     4) Calculation of the multipliers (davidson algorithm)
     5) Calculation of the excited states (davidson algorithm)
     6) Calculation of excited state properties (LR)
     7) Calculation of the LR polarizabilities


  1) Cholesky decomposition of the electron repulsion integrals

   - Cholesky decomposition of electronic repulsion integrals solver
  ---------------------------------------------------------------------

  Performs a Cholesky decomposition of the two-electron electronic repulsion 
  integrals in the atomic orbital basis,

  (ab|cd) = sum_J L_ab^J L_cd^J.

  Once the Cholesky basis has been determined, the vectors L^J are constructed 
  and stored to disk. These may either be used directly, or be transformed 
  to the MO basis for use in post-HF calculations. For more information, 
  see S. D. Folkestad, E. F. Kjønstad and H. Koch, JCP, 150(19), (2019)

  - Cholesky decomposition settings:

     Target threshold is:   0.10E-10
     Span factor:           0.10E-01
     Max qual:                  1000

  - Cholesky decomposition ao details:

     Total number of AOs:                    38
     Total number of shell pairs:           171
     Total number of AO pairs:              741

     Significant shell pairs:               161
     Significant AO pairs:                  697

     Construct shell pairs:                 171
     Construct AO pairs:                    741

  Iter.  #Sign. ao pairs / shell pairs   Max diagonal    #Qualified    #Cholesky    Cholesky array size
  -------------------------------------------------------------------------------------------------------
     1               671 /     150       0.53537E+01         194             49             32879
     2               524 /     128       0.52718E-01         398            155             81220
     3               484 /     114       0.52421E-03         303            243            117612
     4               362 /      92       0.51415E-05         311            362            131044
     5               232 /      54       0.50229E-07         225            475            110200
     6                 0 /       0       0.50128E-09         127            550                 0
  -------------------------------------------------------------------------------------------------------

  - Summary of Cholesky decomposition of electronic repulsion integrals:

     Final number of Cholesky vectors: 550

 - Testing the Cholesky decomposition decomposition electronic repulsion integrals:

     Maximal difference between approximate and actual diagonal:              0.9471E-11
     Minimal element of difference between approximate and actual diagonal:  -0.1544E-14

  - Settings for integral handling:

     Cholesky vectors in memory: True
     ERI matrix in memory:       False
     T1 ERI matrix in memory:    False

  - Finished decomposing the ERIs.

     Total wall time (sec):              1.29500
     Total cpu time (sec):               2.04686


  2) Preparation of MO basis and integrals


  3) Calculation of the ground state (diis algorithm)

   - DIIS coupled cluster ground state solver
  ----------------------------------------------

  A DIIS CC ground state amplitude equations solver. It uses an extrapolation 
  of previous quasi-Newton perturbation theory estimates of the next amplitudes. 
  See Helgaker et al., Molecular Electronic Structure Theory, Chapter 
  13.

  - CC ground state solver settings:

  - Convergence thresholds

     Residual threshold:            0.1000E-10
     Max number of iterations:      100

  - DIIS tool settings:

     DIIS dimension:   8

     Storage (cc_gs_diis_errors): file
     Storage (cc_gs_diis_parameters): file

  Iteration    Energy (a.u.)        |omega|       Delta E (a.u.)
  ---------------------------------------------------------------
    1          -177.480195527875     0.4767E-10     0.1775E+03
    2          -177.480195527875     0.1049E-10     0.0000E+00
    3          -177.480195527875     0.2463E-11     0.0000E+00
  ---------------------------------------------------------------
  Convergence criterion met in 3 iterations!

  - Ground state summary:

     Final ground state energy (a.u.):  -177.480195527875

     Correlation energy (a.u.):           -0.000000000000

     Largest single amplitudes:
     -----------------------------------
        a       i         t(a,i)
     -----------------------------------
        1      8       -0.000000000015
        2      9       -0.000000000013
        1     10       -0.000000000013
        2      4       -0.000000000010
        2      8       -0.000000000010
        2     10        0.000000000008
        1      6       -0.000000000007
        5      9        0.000000000006
        3     10       -0.000000000004
       18      4        0.000000000004
     ------------------------------------

  - Finished solving the CCS ground state equations

     Total wall time (sec):              0.05000
     Total cpu time (sec):               0.04265


  4) Calculation of the multipliers (davidson algorithm)

   - Davidson coupled cluster multipliers solver
  -------------------------------------------------

  A Davidson solver that solves the multiplier equation: t-bar^T A = -η. 
  This linear equation is solved in a reduced space. A description of 
  the algorithm can be found in E. R. Davidson, J. Comput. Phys. 17, 87 
  (1975).

  - Davidson CC multipliers solver settings:

     Residual threshold:        0.10E-10
     Max number of iterations:       100

   - Davidson tool settings:

     Number of parameters:                  280
     Number of requested solutions:           1
     Max reduced space dimension:            50

     Storage (multipliers_trials): file
     Storage (multipliers_transforms): file

  Iteration     Residual norm
  ---------------------------
    1             0.8914E-11
  ---------------------------

  Convergence criterion met in 1 iterations!

  - Davidson CC multipliers solver summary:

     Largest single amplitudes:
     -----------------------------------
        a       i         tbar(a,i)
     -----------------------------------
        1      8       -0.000000000030
        2      9       -0.000000000027
        1     10       -0.000000000026
        2      4       -0.000000000021
        2      8       -0.000000000020
        2     10        0.000000000016
        1      6       -0.000000000015
        5      9        0.000000000013
        3     10       -0.000000000009
       18      4        0.000000000009
     ------------------------------------

  - Finished solving the CCS multipliers equations

     Total wall time (sec):               0.00800
     Total cpu time (sec):                0.00868


  5) Calculation of the excited states (davidson algorithm)
     Calculating right vectors

   - Davidson coupled cluster excited state solver
  ---------------------------------------------------

  A Davidson solver that calculates the lowest eigenvalues and the right 
  or left eigenvectors of the Jacobian matrix, A. The eigenvalue problem 
  is solved in a reduced space, the dimension of which is expanded until 
  the convergence criteria are met.

  A complete description of the algorithm can be found in E. R. Davidson, 
  J. Comput. Phys. 17, 87 (1975).

  - Settings for coupled cluster excited state solver (Davidson):

     Calculation type:    valence
     Excitation vectors:  right

  - Convergence thresholds

     Residual threshold:            0.1000E-10

     Number of singlet states:               4
     Max number of iterations:             100

   - Davidson tool settings:

     Number of parameters:                  280
     Number of requested solutions:           4
     Max reduced space dimension:           100

     Storage (cc_es_davidson_trials): file
     Storage (cc_es_davidson_transforms): file

  Iteration:                  1
  Reduced space dimension:    4

   Root  Eigenvalue (Re)   Eigenvalue (Im)    |residual|   Delta E (Re)
  ------------------------------------------------------------------------
     1   0.276306508980    0.000000000000     0.1333E+00   0.2763E+00
     2   0.380555393068    0.000000000000     0.1517E+00   0.3806E+00
     3   0.531493763200    0.000000000000     0.1859E+00   0.5315E+00
     4   0.656665099870    0.000000000000     0.1300E+00   0.6567E+00
  ------------------------------------------------------------------------

  Iteration:                  2
  Reduced space dimension:    8

   Root  Eigenvalue (Re)   Eigenvalue (Im)    |residual|   Delta E (Re)
  ------------------------------------------------------------------------
     1   0.250020805199    0.000000000000     0.2851E-01   0.2629E-01
     2   0.365322928184    0.000000000000     0.3463E-01   0.1523E-01
     3   0.499033471815    0.000000000000     0.5872E-01   0.3246E-01
     4   0.634666633201    0.000000000000     0.4665E-01   0.2200E-01
  ------------------------------------------------------------------------

  Iteration:                  3
  Reduced space dimension:   12

   Root  Eigenvalue (Re)   Eigenvalue (Im)    |residual|   Delta E (Re)
  ------------------------------------------------------------------------
     1   0.249468507182    0.000000000000     0.4036E-02   0.5523E-03
     2   0.364273841559    0.000000000000     0.6570E-02   0.1049E-02
     3   0.496614891353    0.000000000000     0.1365E-01   0.2419E-02
     4   0.632798748833    0.000000000000     0.2082E-01   0.1868E-02
  ------------------------------------------------------------------------

  Iteration:                  4
  Reduced space dimension:   16

   Root  Eigenvalue (Re)   Eigenvalue (Im)    |residual|   Delta E (Re)
  ------------------------------------------------------------------------
     1   0.249461206392    0.000000000000     0.4843E-03   0.7301E-05
     2   0.364236732500    0.000000000000     0.1475E-02   0.3711E-04
     3   0.496508737426    0.000000000000     0.3038E-02   0.1062E-03
     4   0.627627368079    0.000000000000     0.9749E-01   0.5171E-02
  ------------------------------------------------------------------------

  Iteration:                  5
  Reduced space dimension:   20

   Root  Eigenvalue (Re)   Eigenvalue (Im)    |residual|   Delta E (Re)
  ------------------------------------------------------------------------
     1   0.249461122573    0.000000000000     0.8080E-04   0.8382E-07
     2   0.364235956811    0.000000000000     0.3145E-03   0.7757E-06
     3   0.496501228702    0.000000000000     0.9618E-03   0.7509E-05
     4   0.595382858672    0.000000000000     0.8848E-01   0.3224E-01
  ------------------------------------------------------------------------

  Iteration:                  6
  Reduced space dimension:   24

   Root  Eigenvalue (Re)   Eigenvalue (Im)    |residual|   Delta E (Re)
  ------------------------------------------------------------------------
     1   0.249461121081    0.000000000000     0.1395E-04   0.1493E-08
     2   0.364235909474    0.000000000000     0.7788E-04   0.4734E-07
     3   0.496500936931    0.000000000000     0.3105E-03   0.2918E-06
     4   0.586144801926    0.000000000000     0.4736E-01   0.9238E-02
  ------------------------------------------------------------------------

  Iteration:                  7
  Reduced space dimension:   28

   Root  Eigenvalue (Re)   Eigenvalue (Im)    |residual|   Delta E (Re)
  ------------------------------------------------------------------------
     1   0.249461121051    0.000000000000     0.1584E-05   0.2995E-10
     2   0.364235907350    0.000000000000     0.1222E-04   0.2125E-08
     3   0.496500920817    0.000000000000     0.4791E-04   0.1611E-07
     4   0.584895754938    0.000000000000     0.1137E-01   0.1249E-02
  ------------------------------------------------------------------------

  Iteration:                  8
  Reduced space dimension:   32

   Root  Eigenvalue (Re)   Eigenvalue (Im)    |residual|   Delta E (Re)
  ------------------------------------------------------------------------
     1   0.249461121050    0.000000000000     0.1210E-06   0.4043E-12
     2   0.364235907302    0.000000000000     0.2105E-05   0.4815E-10
     3   0.496500920385    0.000000000000     0.5815E-05   0.4314E-09
     4   0.584839071439    0.000000000000     0.3014E-02   0.5668E-04
  ------------------------------------------------------------------------

  Iteration:                  9
  Reduced space dimension:   36

   Root  Eigenvalue (Re)   Eigenvalue (Im)    |residual|   Delta E (Re)
  ------------------------------------------------------------------------
     1   0.249461121050    0.000000000000     0.1586E-07   0.5995E-14
     2   0.364235907301    0.000000000000     0.3962E-06   0.1055E-11
     3   0.496500920375    0.000000000000     0.1038E-05   0.1051E-10
     4   0.584836023514    0.000000000000     0.8960E-03   0.3048E-05
  ------------------------------------------------------------------------

  Iteration:                 10
  Reduced space dimension:   40

   Root  Eigenvalue (Re)   Eigenvalue (Im)    |residual|   Delta E (Re)
  ------------------------------------------------------------------------
     1   0.249461121050    0.000000000000     0.2203E-08   0.3553E-14
     2   0.364235907300    0.000000000000     0.5540E-07   0.2509E-13
     3   0.496500920375    0.000000000000     0.1326E-06   0.2703E-12
     4   0.584835839976    0.000000000000     0.1737E-03   0.1835E-06
  ------------------------------------------------------------------------

  Iteration:                 11
  Reduced space dimension:   44

   Root  Eigenvalue (Re)   Eigenvalue (Im)    |residual|   Delta E (Re)
  ------------------------------------------------------------------------
     1   0.249461121050    0.000000000000     0.2055E-09   0.8327E-16
     2   0.364235907300    0.000000000000     0.4414E-08   0.1277E-14
     3   0.496500920375    0.000000000000     0.1271E-07   0.1388E-14
     4   0.584835835130    0.000000000000     0.1836E-04   0.4847E-08
  ------------------------------------------------------------------------

  Iteration:                 12
  Reduced space dimension:   48

   Root  Eigenvalue (Re)   Eigenvalue (Im)    |residual|   Delta E (Re)
  ------------------------------------------------------------------------
     1   0.249461121050    0.000000000000     0.1564E-10   0.5329E-14
     2   0.364235907300    0.000000000000     0.4920E-09   0.2109E-14
     3   0.496500920375    0.000000000000     0.1812E-08   0.1388E-14
     4   0.584835835063    0.000000000000     0.2748E-05   0.6678E-10
  ------------------------------------------------------------------------

  Iteration:                 13
  Reduced space dimension:   52

   Root  Eigenvalue (Re)   Eigenvalue (Im)    |residual|   Delta E (Re)
  ------------------------------------------------------------------------
     1   0.249461121050    0.000000000000     0.1189E-11   0.4691E-14
     2   0.364235907300    0.000000000000     0.5900E-10   0.3886E-15
     3   0.496500920375    0.000000000000     0.2185E-09   0.2054E-14
     4   0.584835835062    0.000000000000     0.3931E-06   0.1225E-11
  ------------------------------------------------------------------------

  Iteration:                 14
  Reduced space dimension:   55

   Root  Eigenvalue (Re)   Eigenvalue (Im)    |residual|   Delta E (Re)
  ------------------------------------------------------------------------
     1   0.249461121050    0.000000000000     0.1217E-11   0.1499E-14
     2   0.364235907300    0.000000000000     0.5893E-11   0.3442E-14
     3   0.496500920375    0.000000000000     0.2549E-10   0.1554E-14
     4   0.584835835062    0.000000000000     0.5437E-07   0.2320E-13
  ------------------------------------------------------------------------

  Iteration:                 15
  Reduced space dimension:   57

   Root  Eigenvalue (Re)   Eigenvalue (Im)    |residual|   Delta E (Re)
  ------------------------------------------------------------------------
     1   0.249461121050    0.000000000000     0.1186E-11   0.3025E-14
     2   0.364235907300    0.000000000000     0.4094E-11   0.5551E-15
     3   0.496500920375    0.000000000000     0.3142E-11   0.2887E-14
     4   0.584835835062    0.000000000000     0.6842E-08   0.7772E-15
  ------------------------------------------------------------------------

  Iteration:                 16
  Reduced space dimension:   58

   Root  Eigenvalue (Re)   Eigenvalue (Im)    |residual|   Delta E (Re)
  ------------------------------------------------------------------------
     1   0.249461121050    0.000000000000     0.1178E-11   0.4663E-14
     2   0.364235907300    0.000000000000     0.4004E-11   0.4219E-14
     3   0.496500920375    0.000000000000     0.2035E-11   0.4330E-14
     4   0.584835835062    0.000000000000     0.1086E-08   0.1332E-14
  ------------------------------------------------------------------------

  Iteration:                 17
  Reduced space dimension:   59

   Root  Eigenvalue (Re)   Eigenvalue (Im)    |residual|   Delta E (Re)
  ------------------------------------------------------------------------
     1   0.249461121050    0.000000000000     0.1173E-11   0.1033E-13
     2   0.364235907300    0.000000000000     0.4016E-11   0.1665E-14
     3   0.496500920375    0.000000000000     0.2037E-11   0.2887E-14
     4   0.584835835062    0.000000000000     0.1248E-09   0.1665E-14
  ------------------------------------------------------------------------

  Iteration:                 18
  Reduced space dimension:   60

   Root  Eigenvalue (Re)   Eigenvalue (Im)    |residual|   Delta E (Re)
  ------------------------------------------------------------------------
     1   0.249461121050    0.000000000000     0.1170E-11   0.9270E-14
     2   0.364235907300    0.000000000000     0.3785E-11   0.3331E-15
     3   0.496500920375    0.000000000000     0.2048E-11   0.2442E-14
     4   0.584835835062    0.000000000000     0.1422E-10   0.8882E-15
  ------------------------------------------------------------------------

  Iteration:                 19
  Reduced space dimension:   61

   Root  Eigenvalue (Re)   Eigenvalue (Im)    |residual|   Delta E (Re)
  ------------------------------------------------------------------------
     1   0.249461121050    0.000000000000     0.1161E-11   0.8327E-15
     2   0.364235907300    0.000000000000     0.3784E-11   0.1110E-15
     3   0.496500920375    0.000000000000     0.2024E-11   0.7772E-15
     4   0.584835835062    0.000000000000     0.1979E-11   0.1110E-14
  ------------------------------------------------------------------------
  Convergence criterion met in 19 iterations!

  - Excitation vector amplitudes:

     Electronic state nr. 1

     Energy (Hartree):                  0.249461121050
     Fraction singles (|R1|/|R|):       1.000000000000

     Largest single amplitudes:
     -----------------------------------
        a       i         R(a,i)
     -----------------------------------
        1     10        0.973162537045
        3     10        0.168263402283
        1      7        0.104341704005
        2     10        0.067100663594
        3      7        0.041677102962
        6     10       -0.038449656361
       13     10       -0.034004833232
       12     10       -0.029446423405
        2      7        0.026118722508
       14     10        0.025855984979
     ------------------------------------

     Electronic state nr. 2

     Energy (Hartree):                  0.364235907300
     Fraction singles (|R1|/|R|):       1.000000000000

     Largest single amplitudes:
     -----------------------------------
        a       i         R(a,i)
     -----------------------------------
        1      9       -0.988736994283
        1      8        0.082941647374
        3      9       -0.058522705147
        4     10        0.055699997982
        5      8       -0.037061400584
       13      9        0.029217527048
        4      7        0.028872707043
        3      8        0.028257047906
        9      9       -0.023261990234
       12      9        0.022996909819
     ------------------------------------

     Electronic state nr. 3

     Energy (Hartree):                  0.496500920375
     Fraction singles (|R1|/|R|):       1.000000000000

     Largest single amplitudes:
     -----------------------------------
        a       i         R(a,i)
     -----------------------------------
        2     10        0.969598371527
        5     10       -0.188296695103
        7     10        0.069843805330
        1     10       -0.069300569975
        1      7        0.061564296808
        3     10       -0.043916745732
        9     10       -0.041984181172
        4     10       -0.040002270957
        3      7        0.037070386755
        8     10       -0.018997450161
     ------------------------------------

     Electronic state nr. 4

     Energy (Hartree):                  0.584835835062
     Fraction singles (|R1|/|R|):       1.000000000000

     Largest single amplitudes:
     -----------------------------------
        a       i         R(a,i)
     -----------------------------------
        2      9       -0.961362493889
        1      8        0.153825529076
        5      9        0.152499678456
        3      9        0.097711882204
        7      9       -0.070836982329
        2      6        0.062186181295
        3      8        0.043001980458
        9      9        0.038891119770
        4      9        0.033323856865
        2      8       -0.023330775078
     ------------------------------------

     - Electronic excitation energies:

                                      Excitation energy
                          ------------------------------------------
      State                (Hartree)             (eV)
     ---------------------------------------------------------------
        1                  0.249461121050        6.788182861885
        2                  0.364235907300        9.911363875899
        3                  0.496500920375       13.510478203599
        4                  0.584835835062       15.914193666193
     ---------------------------------------------------------------
     eV/Hartree (CODATA 2014): 27.21138602

  - Finished solving the CCS excited state equations (right)

     Total wall time (sec):              0.37000
     Total cpu time (sec):               0.36782


  5) Calculation of the excited states (davidson algorithm)
     Calculating left vectors

   - Davidson coupled cluster excited state solver
  ---------------------------------------------------

  A Davidson solver that calculates the lowest eigenvalues and the right 
  or left eigenvectors of the Jacobian matrix, A. The eigenvalue problem 
  is solved in a reduced space, the dimension of which is expanded until 
  the convergence criteria are met.

  A complete description of the algorithm can be found in E. R. Davidson, 
  J. Comput. Phys. 17, 87 (1975).

  - Settings for coupled cluster excited state solver (Davidson):

     Calculation type:    valence
     Excitation vectors:  left

  - Convergence thresholds

     Residual threshold:            0.1000E-10

     Number of singlet states:               4
     Max number of iterations:             100

   - Davidson tool settings:

     Number of parameters:                  280
     Number of requested solutions:           4
     Max reduced space dimension:           100

     Storage (cc_es_davidson_trials): file
     Storage (cc_es_davidson_transforms): file
     Restarting left vector 1 from file r_001.
     Restarting left vector 2 from file r_002.
     Restarting left vector 3 from file r_003.
     Restarting left vector 4 from file r_004.

  Iteration:                  1
  Reduced space dimension:    4

   Root  Eigenvalue (Re)   Eigenvalue (Im)    |residual|   Delta E (Re)
  ------------------------------------------------------------------------
     1   0.249461121050    0.000000000000     0.6509E-11   0.2887E-14
     2   0.364235907300    0.000000000000     0.5959E-11   0.2165E-14
     3   0.496500920375    0.000000000000     0.4443E-11   0.1221E-14
     4   0.584835835062    0.000000000000     0.6677E-11   0.2220E-14
  ------------------------------------------------------------------------
  Convergence criterion met in 1 iterations!

  - Excitation vector amplitudes:

     Electronic state nr. 1

     Energy (Hartree):                  0.249461121050
     Fraction singles (|L1|/|L|):       1.000000000000

     Largest single amplitudes:
     -----------------------------------
        a       i         L(a,i)
     -----------------------------------
        1     10        0.973162537045
        3     10        0.168263402283
        1      7        0.104341704005
        2     10        0.067100663594
        3      7        0.041677102962
        6     10       -0.038449656361
       13     10       -0.034004833232
       12     10       -0.029446423405
        2      7        0.026118722508
       14     10        0.025855984979
     ------------------------------------

     Electronic state nr. 2

     Energy (Hartree):                  0.364235907300
     Fraction singles (|L1|/|L|):       1.000000000000

     Largest single amplitudes:
     -----------------------------------
        a       i         L(a,i)
     -----------------------------------
        1      9        0.988736994283
        1      8       -0.082941647375
        3      9        0.058522705146
        4     10       -0.055699997982
        5      8        0.037061400584
       13      9       -0.029217527048
        4      7       -0.028872707043
        3      8       -0.028257047907
        9      9        0.023261990233
       12      9       -0.022996909819
     ------------------------------------

     Electronic state nr. 3

     Energy (Hartree):                  0.496500920375
     Fraction singles (|L1|/|L|):       1.000000000000

     Largest single amplitudes:
     -----------------------------------
        a       i         L(a,i)
     -----------------------------------
        2     10       -0.969598371528
        5     10        0.188296695103
        7     10       -0.069843805330
        1     10        0.069300569974
        1      7       -0.061564296808
        3     10        0.043916745732
        9     10        0.041984181172
        4     10        0.040002270957
        3      7       -0.037070386755
        8     10        0.018997450161
     ------------------------------------

     Electronic state nr. 4

     Energy (Hartree):                  0.584835835062
     Fraction singles (|L1|/|L|):       1.000000000000

     Largest single amplitudes:
     -----------------------------------
        a       i         L(a,i)
     -----------------------------------
        2      9       -0.961362493889
        1      8        0.153825529076
        5      9        0.152499678456
        3      9        0.097711882203
        7      9       -0.070836982329
        2      6        0.062186181295
        3      8        0.043001980458
        9      9        0.038891119770
        4      9        0.033323856865
        2      8       -0.023330775078
     ------------------------------------

     - Electronic excitation energies:

                                      Excitation energy
                          ------------------------------------------
      State                (Hartree)             (eV)
     ---------------------------------------------------------------
        1                  0.249461121050        6.788182861885
        2                  0.364235907300        9.911363875899
        3                  0.496500920375       13.510478203599
        4                  0.584835835062       15.914193666193
     ---------------------------------------------------------------
     eV/Hartree (CODATA 2014): 27.21138602

  - Finished solving the CCS excited state equations (left)

     Total wall time (sec):              0.04600
     Total cpu time (sec):               0.03811


  6) Calculation of excited state properties (LR)

   - Davidson coupled cluster linear equations solver
  ------------------------------------------------------
  A Davidson solver that solves linear equations involving the Jacobian 
  transformation. When solving multiple linear equations, it builds a 
  shared reduced space in which to express each of the solutions to the 
  equations.

  Solving for the M vectors in CC response theory.

  - Davidson CC linear equations solver settings:

     Residual threshold:        0.10E-10
     Max number of iterations:       100

   - Davidson tool settings:

     Number of parameters:                  280
     Number of requested solutions:           4
     Max reduced space dimension:           100

     Storage (davidson_t_response_trials): file
     Storage (davidson_t_response_transforms): file

  - Entering iterative loop to solve equations.

  Iteration:               1
  Reduced space dimension: 4

  Frequency      Residual norm
  ------------------------------
  -0.25E+00      0.22E-01
  -0.36E+00      0.30E-01
  -0.50E+00      0.28E-01
  -0.58E+00      0.26E-01
  ------------------------------

  Iteration:               2
  Reduced space dimension: 8

  Frequency      Residual norm
  ------------------------------
  -0.25E+00      0.55E-02
  -0.36E+00      0.38E-02
  -0.50E+00      0.44E-02
  -0.58E+00      0.28E-02
  ------------------------------

  Iteration:               3
  Reduced space dimension: 12

  Frequency      Residual norm
  ------------------------------
  -0.25E+00      0.68E-03
  -0.36E+00      0.60E-03
  -0.50E+00      0.42E-03
  -0.58E+00      0.52E-03
  ------------------------------

  Iteration:               4
  Reduced space dimension: 16

  Frequency      Residual norm
  ------------------------------
  -0.25E+00      0.82E-04
  -0.36E+00      0.70E-04
  -0.50E+00      0.43E-04
  -0.58E+00      0.52E-04
  ------------------------------

  Iteration:               5
  Reduced space dimension: 20

  Frequency      Residual norm
  ------------------------------
  -0.25E+00      0.56E-05
  -0.36E+00      0.63E-05
  -0.50E+00      0.21E-05
  -0.58E+00      0.55E-05
  ------------------------------

  Iteration:               6
  Reduced space dimension: 24

  Frequency      Residual norm
  ------------------------------
  -0.25E+00      0.60E-06
  -0.36E+00      0.62E-06
  -0.50E+00      0.16E-06
  -0.58E+00      0.59E-06
  ------------------------------

  Iteration:               7
  Reduced space dimension: 28

  Frequency      Residual norm
  ------------------------------
  -0.25E+00      0.40E-07
  -0.36E+00      0.50E-07
  -0.50E+00      0.78E-08
  -0.58E+00      0.36E-07
  ------------------------------

  Iteration:               8
  Reduced space dimension: 32

  Frequency      Residual norm
  ------------------------------
  -0.25E+00      0.38E-08
  -0.36E+00      0.35E-08
  -0.50E+00      0.62E-09
  -0.58E+00      0.19E-08
  ------------------------------

  Iteration:               9
  Reduced space dimension: 36

  Frequency      Residual norm
  ------------------------------
  -0.25E+00      0.42E-09
  -0.36E+00      0.32E-09
  -0.50E+00      0.70E-10
  -0.58E+00      0.11E-09
  ------------------------------

  Iteration:               10
  Reduced space dimension: 40

  Frequency      Residual norm
  ------------------------------
  -0.25E+00      0.24E-10
  -0.36E+00      0.28E-10
  -0.50E+00      0.38E-11
  -0.58E+00      0.93E-11
  ------------------------------

  Iteration:               11
  Reduced space dimension: 42

  Frequency      Residual norm
  ------------------------------
  -0.25E+00      0.12E-11
  -0.36E+00      0.20E-11
  -0.50E+00      0.23E-11
  -0.58E+00      0.90E-11
  ------------------------------
  Convergence criterion met in 11 iterations!

  - Finished solving the CCS linear equations

     Total wall time (sec):               0.21900
     Total cpu time (sec):                0.19793

     State 1:
     ----------
     Calculation type:                              LR
     Excitation energy [E_h]:           0.249461121050
     Excitation energy [eV]:            6.788182861885
     Hartree-to-eV (CODATA 2014):          27.21138602

                   Transition moments [a.u.]         Transition strength [a.u.]
     --------------------------------------------------------------------------
     Comp. q     < n |q| m >       < m |q| n >        < n |q| m > < m |q| n >
     --------------------------------------------------------------------------
     X           0.0028386219      0.0056984372            0.0000161757
     Y           0.0010577793      0.0015561873            0.0000016461
     Z          -0.0915699389     -0.2067746613            0.0189343431
     --------------------------------------------------------------------------
     Oscillator strength:      0.003151885536

     State 2:
     ----------
     Calculation type:                              LR
     Excitation energy [E_h]:           0.364235907300
     Excitation energy [eV]:            9.911363875899
     Hartree-to-eV (CODATA 2014):          27.21138602

                   Transition moments [a.u.]         Transition strength [a.u.]
     --------------------------------------------------------------------------
     Comp. q     < n |q| m >       < m |q| n >        < n |q| m > < m |q| n >
     --------------------------------------------------------------------------
     X           0.5893698627      1.0813079330            0.6372903080
     Y           0.3328979667      0.6076971756            0.2023011541
     Z          -0.0028734005     -0.0060755918            0.0000174576
     --------------------------------------------------------------------------
     Oscillator strength:      0.203877144449

     State 3:
     ----------
     Calculation type:                              LR
     Excitation energy [E_h]:           0.496500920375
     Excitation energy [eV]:           13.510478203599
     Hartree-to-eV (CODATA 2014):          27.21138602

                   Transition moments [a.u.]         Transition strength [a.u.]
     --------------------------------------------------------------------------
     Comp. q     < n |q| m >       < m |q| n >        < n |q| m > < m |q| n >
     --------------------------------------------------------------------------
     X          -0.0013448739     -0.0027880856            0.0000037496
     Y           0.0002209499      0.0007028525            0.0000001553
     Z          -0.0672138225     -0.0878752452            0.0059064311
     --------------------------------------------------------------------------
     Oscillator strength:      0.001956324859

     State 4:
     ----------
     Calculation type:                              LR
     Excitation energy [E_h]:           0.584835835062
     Excitation energy [eV]:           15.914193666193
     Hartree-to-eV (CODATA 2014):          27.21138602

                   Transition moments [a.u.]         Transition strength [a.u.]
     --------------------------------------------------------------------------
     Comp. q     < n |q| m >       < m |q| n >        < n |q| m > < m |q| n >
     --------------------------------------------------------------------------
     X           0.1206317711      0.1964874093            0.0237026242
     Y           0.0055113322     -0.0176557582           -0.0000973067
     Z          -0.0000094335      0.0001537655           -0.0000000015
     --------------------------------------------------------------------------
     Oscillator strength:      0.009203489789

   - Davidson coupled cluster linear equations solver
  ------------------------------------------------------
  A Davidson solver that solves linear equations involving the Jacobian 
  transformation. When solving multiple linear equations, it builds a 
  shared reduced space in which to express each of the solutions to the 
  equations.

  Solving for the       amplitude response vectors in CC     response 
  theory.

  - Davidson CC linear equations solver settings:

     Residual threshold:        0.10E-10
     Max number of iterations:       100

   - Davidson tool settings:

     Number of parameters:                  280
     Number of requested solutions:           3
     Max reduced space dimension:           100

     Storage (davidson_t_response_trials): file
     Storage (davidson_t_response_transforms): file

  - Entering iterative loop to solve equations.

  Iteration:               1
  Reduced space dimension: 3

  Frequency      Residual norm
  ------------------------------
  -0.20E-01      0.39E+00
  -0.40E-01      0.38E+00
  -0.60E-01      0.37E+00
  ------------------------------

  Iteration:               2
  Reduced space dimension: 6

  Frequency      Residual norm
  ------------------------------
  -0.20E-01      0.67E-01
  -0.40E-01      0.64E-01
  -0.60E-01      0.61E-01
  ------------------------------

  Iteration:               3
  Reduced space dimension: 9

  Frequency      Residual norm
  ------------------------------
  -0.20E-01      0.77E-02
  -0.40E-01      0.72E-02
  -0.60E-01      0.68E-02
  ------------------------------

  Iteration:               4
  Reduced space dimension: 12

  Frequency      Residual norm
  ------------------------------
  -0.20E-01      0.94E-03
  -0.40E-01      0.86E-03
  -0.60E-01      0.78E-03
  ------------------------------

  Iteration:               5
  Reduced space dimension: 15

  Frequency      Residual norm
  ------------------------------
  -0.20E-01      0.18E-03
  -0.40E-01      0.16E-03
  -0.60E-01      0.14E-03
  ------------------------------

  Iteration:               6
  Reduced space dimension: 18

  Frequency      Residual norm
  ------------------------------
  -0.20E-01      0.18E-04
  -0.40E-01      0.15E-04
  -0.60E-01      0.13E-04
  ------------------------------

  Iteration:               7
  Reduced space dimension: 21

  Frequency      Residual norm
  ------------------------------
  -0.20E-01      0.17E-05
  -0.40E-01      0.15E-05
  -0.60E-01      0.13E-05
  ------------------------------

  Iteration:               8
  Reduced space dimension: 24

  Frequency      Residual norm
  ------------------------------
  -0.20E-01      0.26E-06
  -0.40E-01      0.21E-06
  -0.60E-01      0.17E-06
  ------------------------------

  Iteration:               9
  Reduced space dimension: 27

  Frequency      Residual norm
  ------------------------------
  -0.20E-01      0.69E-07
  -0.40E-01      0.53E-07
  -0.60E-01      0.41E-07
  ------------------------------

  Iteration:               10
  Reduced space dimension: 30

  Frequency      Residual norm
  ------------------------------
  -0.20E-01      0.77E-08
  -0.40E-01      0.58E-08
  -0.60E-01      0.45E-08
  ------------------------------

  Iteration:               11
  Reduced space dimension: 33

  Frequency      Residual norm
  ------------------------------
  -0.20E-01      0.72E-09
  -0.40E-01      0.55E-09
  -0.60E-01      0.42E-09
  ------------------------------

  Iteration:               12
  Reduced space dimension: 36

  Frequency      Residual norm
  ------------------------------
  -0.20E-01      0.65E-10
  -0.40E-01      0.49E-10
  -0.60E-01      0.38E-10
  ------------------------------

  Iteration:               13
  Reduced space dimension: 39

  Frequency      Residual norm
  ------------------------------
  -0.20E-01      0.11E-10
  -0.40E-01      0.79E-11
  -0.60E-01      0.60E-11
  ------------------------------

  Iteration:               14
  Reduced space dimension: 40

  Frequency      Residual norm
  ------------------------------
  -0.20E-01      0.93E-12
  -0.40E-01      0.75E-12
  -0.60E-01      0.64E-12
  ------------------------------
  Convergence criterion met in 14 iterations!

  - Finished solving the CCS linear equations

     Total wall time (sec):               0.18800
     Total cpu time (sec):                0.20114

   - Davidson coupled cluster linear equations solver
  ------------------------------------------------------
  A Davidson solver that solves linear equations involving the Jacobian 
  transformation. When solving multiple linear equations, it builds a 
  shared reduced space in which to express each of the solutions to the 
  equations.

  Solving for the       amplitude response vectors in CC     response 
  theory.

  - Davidson CC linear equations solver settings:

     Residual threshold:        0.10E-10
     Max number of iterations:       100

   - Davidson tool settings:

     Number of parameters:                  280
     Number of requested solutions:           3
     Max reduced space dimension:           100

     Storage (davidson_t_response_trials): file
     Storage (davidson_t_response_transforms): file

  - Entering iterative loop to solve equations.

  Iteration:               1
  Reduced space dimension: 3

  Frequency      Residual norm
  ------------------------------
   0.20E-01      0.42E+00
   0.40E-01      0.44E+00
   0.60E-01      0.45E+00
  ------------------------------

  Iteration:               2
  Reduced space dimension: 6

  Frequency      Residual norm
  ------------------------------
   0.20E-01      0.74E-01
   0.40E-01      0.78E-01
   0.60E-01      0.82E-01
  ------------------------------

  Iteration:               3
  Reduced space dimension: 9

  Frequency      Residual norm
  ------------------------------
   0.20E-01      0.89E-02
   0.40E-01      0.96E-02
   0.60E-01      0.10E-01
  ------------------------------

  Iteration:               4
  Reduced space dimension: 12

  Frequency      Residual norm
  ------------------------------
   0.20E-01      0.12E-02
   0.40E-01      0.13E-02
   0.60E-01      0.15E-02
  ------------------------------

  Iteration:               5
  Reduced space dimension: 15

  Frequency      Residual norm
  ------------------------------
   0.20E-01      0.26E-03
   0.40E-01      0.31E-03
   0.60E-01      0.36E-03
  ------------------------------

  Iteration:               6
  Reduced space dimension: 18

  Frequency      Residual norm
  ------------------------------
   0.20E-01      0.26E-04
   0.40E-01      0.32E-04
   0.60E-01      0.40E-04
  ------------------------------

  Iteration:               7
  Reduced space dimension: 21

  Frequency      Residual norm
  ------------------------------
   0.20E-01      0.24E-05
   0.40E-01      0.29E-05
   0.60E-01      0.36E-05
  ------------------------------

  Iteration:               8
  Reduced space dimension: 24

  Frequency      Residual norm
  ------------------------------
   0.20E-01      0.34E-06
   0.40E-01      0.42E-06
   0.60E-01      0.54E-06
  ------------------------------

  Iteration:               9
  Reduced space dimension: 27

  Frequency      Residual norm
  ------------------------------
   0.20E-01      0.72E-07
   0.40E-01      0.89E-07
   0.60E-01      0.11E-06
  ------------------------------

  Iteration:               10
  Reduced space dimension: 30

  Frequency      Residual norm
  ------------------------------
   0.20E-01      0.87E-08
   0.40E-01      0.11E-07
   0.60E-01      0.15E-07
  ------------------------------

  Iteration:               11
  Reduced space dimension: 33

  Frequency      Residual norm
  ------------------------------
   0.20E-01      0.79E-09
   0.40E-01      0.10E-08
   0.60E-01      0.14E-08
  ------------------------------

  Iteration:               12
  Reduced space dimension: 36

  Frequency      Residual norm
  ------------------------------
   0.20E-01      0.73E-10
   0.40E-01      0.97E-10
   0.60E-01      0.13E-09
  ------------------------------

  Iteration:               13
  Reduced space dimension: 39

  Frequency      Residual norm
  ------------------------------
   0.20E-01      0.75E-11
   0.40E-01      0.10E-10
   0.60E-01      0.15E-10
  ------------------------------

  Iteration:               14
  Reduced space dimension: 41

  Frequency      Residual norm
  ------------------------------
   0.20E-01      0.56E-12
   0.40E-01      0.77E-12
   0.60E-01      0.11E-11
  ------------------------------
  Convergence criterion met in 14 iterations!

  - Finished solving the CCS linear equations

     Total wall time (sec):               0.20000
     Total cpu time (sec):                0.19904

   - Davidson coupled cluster linear equations solver
  ------------------------------------------------------
  A Davidson solver that solves linear equations involving the Jacobian 
  transformation. When solving multiple linear equations, it builds a 
  shared reduced space in which to express each of the solutions to the 
  equations.

  Solving for the       amplitude response vectors in CC     response 
  theory.

  - Davidson CC linear equations solver settings:

     Residual threshold:        0.10E-10
     Max number of iterations:       100

   - Davidson tool settings:

     Number of parameters:                  280
     Number of requested solutions:           3
     Max reduced space dimension:           100

     Storage (davidson_t_response_trials): file
     Storage (davidson_t_response_transforms): file

  - Entering iterative loop to solve equations.

  Iteration:               1
  Reduced space dimension: 3

  Frequency      Residual norm
  ------------------------------
  -0.20E-01      0.14E+00
  -0.40E-01      0.14E+00
  -0.60E-01      0.14E+00
  ------------------------------

  Iteration:               2
  Reduced space dimension: 6

  Frequency      Residual norm
  ------------------------------
  -0.20E-01      0.11E-01
  -0.40E-01      0.11E-01
  -0.60E-01      0.10E-01
  ------------------------------

  Iteration:               3
  Reduced space dimension: 9

  Frequency      Residual norm
  ------------------------------
  -0.20E-01      0.16E-02
  -0.40E-01      0.15E-02
  -0.60E-01      0.15E-02
  ------------------------------

  Iteration:               4
  Reduced space dimension: 12

  Frequency      Residual norm
  ------------------------------
  -0.20E-01      0.22E-03
  -0.40E-01      0.20E-03
  -0.60E-01      0.19E-03
  ------------------------------

  Iteration:               5
  Reduced space dimension: 15

  Frequency      Residual norm
  ------------------------------
  -0.20E-01      0.29E-04
  -0.40E-01      0.26E-04
  -0.60E-01      0.24E-04
  ------------------------------

  Iteration:               6
  Reduced space dimension: 18

  Frequency      Residual norm
  ------------------------------
  -0.20E-01      0.42E-05
  -0.40E-01      0.39E-05
  -0.60E-01      0.36E-05
  ------------------------------

  Iteration:               7
  Reduced space dimension: 21

  Frequency      Residual norm
  ------------------------------
  -0.20E-01      0.50E-06
  -0.40E-01      0.45E-06
  -0.60E-01      0.41E-06
  ------------------------------

  Iteration:               8
  Reduced space dimension: 24

  Frequency      Residual norm
  ------------------------------
  -0.20E-01      0.68E-07
  -0.40E-01      0.59E-07
  -0.60E-01      0.51E-07
  ------------------------------

  Iteration:               9
  Reduced space dimension: 27

  Frequency      Residual norm
  ------------------------------
  -0.20E-01      0.12E-07
  -0.40E-01      0.10E-07
  -0.60E-01      0.84E-08
  ------------------------------

  Iteration:               10
  Reduced space dimension: 30

  Frequency      Residual norm
  ------------------------------
  -0.20E-01      0.21E-08
  -0.40E-01      0.17E-08
  -0.60E-01      0.14E-08
  ------------------------------

  Iteration:               11
  Reduced space dimension: 33

  Frequency      Residual norm
  ------------------------------
  -0.20E-01      0.20E-09
  -0.40E-01      0.17E-09
  -0.60E-01      0.14E-09
  ------------------------------

  Iteration:               12
  Reduced space dimension: 36

  Frequency      Residual norm
  ------------------------------
  -0.20E-01      0.24E-10
  -0.40E-01      0.19E-10
  -0.60E-01      0.15E-10
  ------------------------------

  Iteration:               13
  Reduced space dimension: 39

  Frequency      Residual norm
  ------------------------------
  -0.20E-01      0.29E-11
  -0.40E-01      0.23E-11
  -0.60E-01      0.18E-11
  ------------------------------
  Convergence criterion met in 13 iterations!

  - Finished solving the CCS linear equations

     Total wall time (sec):               0.20400
     Total cpu time (sec):                0.18207

   - Davidson coupled cluster linear equations solver
  ------------------------------------------------------
  A Davidson solver that solves linear equations involving the Jacobian 
  transformation. When solving multiple linear equations, it builds a 
  shared reduced space in which to express each of the solutions to the 
  equations.

  Solving for the       amplitude response vectors in CC     response 
  theory.

  - Davidson CC linear equations solver settings:

     Residual threshold:        0.10E-10
     Max number of iterations:       100

   - Davidson tool settings:

     Number of parameters:                  280
     Number of requested solutions:           3
     Max reduced space dimension:           100

     Storage (davidson_t_response_trials): file
     Storage (davidson_t_response_transforms): file

  - Entering iterative loop to solve equations.

  Iteration:               1
  Reduced space dimension: 3

  Frequency      Residual norm
  ------------------------------
   0.20E-01      0.15E+00
   0.40E-01      0.15E+00
   0.60E-01      0.16E+00
  ------------------------------

  Iteration:               2
  Reduced space dimension: 6

  Frequency      Residual norm
  ------------------------------
   0.20E-01      0.12E-01
   0.40E-01      0.13E-01
   0.60E-01      0.14E-01
  ------------------------------

  Iteration:               3
  Reduced space dimension: 9

  Frequency      Residual norm
  ------------------------------
   0.20E-01      0.16E-02
   0.40E-01      0.18E-02
   0.60E-01      0.19E-02
  ------------------------------

  Iteration:               4
  Reduced space dimension: 12

  Frequency      Residual norm
  ------------------------------
   0.20E-01      0.23E-03
   0.40E-01      0.26E-03
   0.60E-01      0.30E-03
  ------------------------------

  Iteration:               5
  Reduced space dimension: 15

  Frequency      Residual norm
  ------------------------------
   0.20E-01      0.29E-04
   0.40E-01      0.35E-04
   0.60E-01      0.44E-04
  ------------------------------

  Iteration:               6
  Reduced space dimension: 18

  Frequency      Residual norm
  ------------------------------
   0.20E-01      0.36E-05
   0.40E-01      0.46E-05
   0.60E-01      0.64E-05
  ------------------------------

  Iteration:               7
  Reduced space dimension: 21

  Frequency      Residual norm
  ------------------------------
   0.20E-01      0.44E-06
   0.40E-01      0.52E-06
   0.60E-01      0.63E-06
  ------------------------------

  Iteration:               8
  Reduced space dimension: 24

  Frequency      Residual norm
  ------------------------------
   0.20E-01      0.92E-07
   0.40E-01      0.11E-06
   0.60E-01      0.13E-06
  ------------------------------

  Iteration:               9
  Reduced space dimension: 27

  Frequency      Residual norm
  ------------------------------
   0.20E-01      0.14E-07
   0.40E-01      0.18E-07
   0.60E-01      0.22E-07
  ------------------------------

  Iteration:               10
  Reduced space dimension: 30

  Frequency      Residual norm
  ------------------------------
   0.20E-01      0.22E-08
   0.40E-01      0.27E-08
   0.60E-01      0.33E-08
  ------------------------------

  Iteration:               11
  Reduced space dimension: 33

  Frequency      Residual norm
  ------------------------------
   0.20E-01      0.23E-09
   0.40E-01      0.28E-09
   0.60E-01      0.35E-09
  ------------------------------

  Iteration:               12
  Reduced space dimension: 36

  Frequency      Residual norm
  ------------------------------
   0.20E-01      0.27E-10
   0.40E-01      0.34E-10
   0.60E-01      0.44E-10
  ------------------------------

  Iteration:               13
  Reduced space dimension: 39

  Frequency      Residual norm
  ------------------------------
   0.20E-01      0.33E-11
   0.40E-01      0.43E-11
   0.60E-01      0.56E-11
  ------------------------------
  Convergence criterion met in 13 iterations!

  - Finished solving the CCS linear equations

     Total wall time (sec):               0.18400
     Total cpu time (sec):                0.20032


  7) Calculation of the LR polarizabilities
     The convention applied here defines the polarizabilities as the response 
     functions, without negative sign.
     << mu_x, mu_x >>(0.20E-01):    -10.060619838069
     << mu_z, mu_x >>(0.20E-01):      0.798488683590
     << mu_x, mu_x >>(0.40E-01):    -10.100907896760
     << mu_z, mu_x >>(0.40E-01):      0.802183942741
     << mu_x, mu_x >>(0.60E-01):    -10.169451344775
     << mu_z, mu_x >>(0.60E-01):      0.808481390507

  - Timings for the CCS response calculation

     Total wall time (sec):              2.99000
     Total cpu time (sec):               3.69519

  ------------------------------------------------------------

  Peak memory usage during the execution of eT: 28.066688 MB

  Total wall time in eT (sec):              5.77900
  Total cpu time in eT (sec):               8.84484

  Calculation ended: 2021-10-06 10:30:11 UTC +02:00

  - Implementation references:

     eT: https://doi.org/10.1063/5.0004713
     Cholesky decomposition of ERIs: https://doi.org/10.1063/1.5083802

  eT terminated successfully!
